2020-12-01 00:00:44;40;0;1;100
2020-12-01 00:05:39;40;0;1;100
2020-12-01 00:10:38;40;0;1;100
2020-12-01 00:15:41;40;0;1;100
2020-12-01 00:20:38;40;0;1;100
2020-12-01 00:25:52;40;0;1;100
2020-12-01 00:30:39;40;0;1;100
2020-12-01 00:35:42;40;0;1;100
2020-12-01 00:40:33;40;0;1;100
2020-12-01 00:45:42;40;0;1;100
2020-12-01 00:50:34;40;0;1;100
2020-12-01 00:55:47;40;0;1;100
2020-12-01 01:00:33;40;0;1;100
2020-12-01 01:05:40;40;0;1;100
2020-12-01 01:10:34;40;0;1;100
2020-12-01 01:15:31;40;0;1;100
2020-12-01 01:20:39;40;0;1;100
2020-12-01 01:25:45;40;0;1;100
2020-12-01 01:30:35;40;0;1;100
2020-12-01 01:35:30;40;0;1;100
2020-12-01 01:40:33;40;0;1;100
2020-12-01 01:45:31;40;0;1;100
2020-12-01 01:50:37;40;0;1;100
2020-12-01 01:55:32;40;0;1;100
2020-12-01 02:00:31;40;0;1;100
2020-12-01 02:05:37;40;0;1;100
2020-12-01 02:10:34;40;0;1;100
2020-12-01 02:15:38;40;0;1;100
2020-12-01 02:20:37;40;0;1;100
2020-12-01 02:25:39;40;0;1;100
2020-12-01 02:30:40;40;0;1;100
2020-12-01 02:35:43;40;0;1;100
2020-12-01 02:40:35;40;0;1;100
2020-12-01 02:45:39;40;0;1;100
2020-12-01 02:50:38;40;0;1;100
2020-12-01 02:55:40;40;0;1;100
2020-12-01 03:00:33;40;0;1;100
2020-12-01 03:05:33;40;0;1;100
2020-12-01 03:10:35;40;0;1;100
2020-12-01 03:15:30;40;0;1;100
2020-12-01 03:20:35;40;0;1;100
2020-12-01 03:25:30;40;0;1;100
2020-12-01 03:30:34;40;0;1;100
2020-12-01 03:35:32;40;0;1;100
2020-12-01 03:40:38;40;0;1;100
2020-12-01 03:45:32;40;0;1;100
2020-12-01 03:50:34;40;0;1;100
2020-12-01 03:55:30;40;0;1;100
2020-12-01 04:00:33;40;0;1;100
2020-12-01 04:05:32;40;0;1;100
2020-12-01 04:10:51;40;0;1;100
2020-12-01 04:15:33;40;0;1;100
2020-12-01 04:20:43;40;0;1;100
2020-12-01 04:25:39;40;0;1;100
2020-12-01 04:30:35;40;0;1;100
2020-12-01 04:35:36;40;0;1;100
2020-12-01 04:40:33;40;0;1;100
2020-12-01 04:45:30;40;0;1;100
2020-12-01 04:50:33;40;0;1;100
2020-12-01 04:55:41;40;0;1;100
2020-12-01 05:00:32;40;0;1;100
2020-12-01 05:05:42;40;0;1;100
2020-12-01 05:10:34;40;0;1;100
2020-12-01 05:15:56;40;0;1;100
2020-12-01 05:20:43;40;0;1;100
2020-12-01 05:25:37;40;0;1;100
2020-12-01 05:30:39;40;0;1;100
2020-12-01 05:35:37;40;0;1;100
2020-12-01 05:40:35;40;0;1;100
2020-12-01 05:45:38;40;0;1;100
2020-12-01 05:50:41;40;0;1;100
2020-12-01 05:55:36;40;0;1;100
2020-12-01 06:00:45;40;0;1;100
2020-12-01 06:05:38;40;0;1;100
2020-12-01 06:10:54;40;0;1;100
2020-12-01 06:15:40;40;0;1;100
2020-12-01 06:20:39;40;0;1;100
2020-12-01 06:25:47;40;0;1;100
2020-12-01 06:30:38;40;0;1;100
2020-12-01 06:35:43;40;0;1;100
2020-12-01 06:40:32;40;0;1;100
2020-12-01 06:45:34;40;0;1;100
2020-12-01 06:50:35;40;0;1;100
2020-12-01 06:55:41;40;0;1;100
2020-12-01 07:00:36;40;0;1;100
2020-12-01 07:05:32;40;0;1;100
2020-12-01 07:10:34;40;0;1;100
2020-12-01 07:15:40;40;0;1;100
2020-12-01 07:20:38;40;0;1;100
2020-12-01 07:25:41;40;0;1;100
2020-12-01 07:30:46;40;0;1;100
2020-12-01 07:35:39;40;0;1;100
2020-12-01 07:40:33;40;0;1;100
2020-12-01 07:45:35;40;0;1;100
2020-12-01 07:50:43;40;0;1;100
2020-12-01 07:55:35;40;0;1;100
2020-12-01 08:00:41;40;0;1;100
2020-12-01 08:05:45;40;0;1;100
2020-12-01 08:10:41;40;0;1;100
2020-12-01 08:15:38;40;0;1;100
2020-12-01 08:20:40;40;0;1;100
2020-12-01 08:25:42;40;0;1;100
2020-12-01 08:30:39;40;0;1;100
2020-12-01 08:35:33;40;0;1;100
2020-12-01 08:40:35;40;0;1;100
2020-12-01 08:45:35;40;0;1;100
2020-12-01 08:50:35;40;0;1;100
2020-12-01 08:55:36;40;0;1;100
2020-12-01 09:00:37;40;0;1;100
2020-12-01 09:05:33;40;0;1;100
2020-12-01 09:10:42;40;0;1;100
2020-12-01 09:15:35;40;0;1;100
2020-12-01 09:20:31;40;0;1;100
2020-12-01 09:25:29;40;0;1;100
2020-12-01 09:30:32;40;0;1;100
2020-12-01 09:35:31;40;0;1;100
2020-12-01 09:40:33;40;0;1;100
2020-12-01 09:45:39;40;0;1;100
2020-12-01 09:50:29;40;0;1;100
2020-12-01 09:55:36;40;0;1;100
2020-12-01 10:00:33;40;0;1;100
2020-12-01 10:05:37;40;0;1;100
2020-12-01 10:10:30;40;0;1;100
2020-12-01 10:15:29;40;0;1;100
2020-12-01 10:20:33;40;0;1;100
2020-12-01 10:25:31;40;0;1;100
2020-12-01 10:30:33;40;0;1;100
2020-12-01 10:35:33;40;0;1;100
2020-12-01 10:40:46;40;0;1;100
2020-12-01 10:45:27;40;0;1;100
2020-12-01 10:50:30;40;0;1;100
2020-12-01 10:55:25;40;0;1;100
2020-12-01 11:00:33;40;0;1;100
2020-12-01 11:05:29;40;0;1;100
2020-12-01 11:10:28;40;0;1;100
2020-12-01 11:15:28;40;0;1;100
2020-12-01 11:20:29;40;0;1;100
2020-12-01 11:25:24;40;0;1;100
2020-12-01 11:30:33;40;0;1;100
2020-12-01 11:35:27;40;0;1;100
2020-12-01 11:40:25;40;0;1;100
2020-12-01 11:45:27;40;0;1;100
2020-12-01 11:50:30;40;0;1;100
2020-12-01 11:55:39;40;0;1;100
2020-12-01 12:00:31;40;0;1;100
2020-12-01 12:05:29;40;0;1;100
2020-12-01 12:10:35;40;0;1;100
2020-12-01 12:15:30;40;0;1;100
2020-12-01 12:20:30;40;0;1;100
2020-12-01 12:25:28;40;0;1;100
2020-12-01 12:30:25;40;0;1;100
2020-12-01 12:35:35;40;0;1;100
2020-12-01 12:40:31;40;0;1;100
2020-12-01 12:45:33;40;0;1;100
2020-12-01 12:50:26;40;0;1;100
2020-12-01 12:55:34;40;0;1;100
2020-12-01 13:00:31;40;0;1;100
2020-12-01 13:05:29;40;0;1;100
2020-12-01 13:10:39;40;0;1;100
2020-12-01 13:15:32;40;0;1;100
2020-12-01 13:20:34;40;0;1;100
2020-12-01 13:25:29;40;0;1;100
2020-12-01 13:30:47;40;0;1;100
2020-12-01 13:35:29;40;0;1;100
2020-12-01 13:40:27;40;0;1;100
2020-12-01 13:45:25;40;0;1;100
2020-12-01 13:50:28;40;0;1;100
2020-12-01 13:55:30;40;0;1;100
2020-12-01 14:00:29;40;0;1;100
2020-12-01 14:05:48;40;0;1;100
2020-12-01 14:10:44;40;0;1;100
2020-12-01 14:15:30;40;0;1;100
2020-12-01 14:20:33;40;0;1;100
2020-12-01 14:25:26;40;0;1;100
2020-12-01 14:30:32;40;0;1;100
2020-12-01 14:35:28;40;0;1;100
2020-12-01 14:40:33;40;0;1;100
2020-12-01 14:45:29;40;0;1;100
2020-12-01 14:50:30;40;0;1;100
2020-12-01 14:55:33;40;0;1;100
2020-12-01 15:00:33;40;0;1;100
2020-12-01 15:05:31;40;0;1;100
2020-12-01 15:10:31;40;0;1;100
2020-12-01 15:15:28;40;0;1;100
2020-12-01 15:20:29;40;0;1;100
2020-12-01 15:25:27;40;0;1;100
2020-12-01 15:30:29;40;0;1;100
2020-12-01 15:35:29;40;0;1;100
2020-12-01 15:40:33;40;0;1;100
2020-12-01 15:45:30;40;0;1;100
2020-12-01 15:50:31;40;0;1;100
2020-12-01 15:55:31;40;0;1;100
2020-12-01 16:00:37;40;0;1;100
2020-12-01 16:05:27;40;0;1;100
2020-12-01 16:10:28;40;0;1;100
2020-12-01 16:15:30;40;0;1;100
2020-12-01 16:20:30;40;0;1;100
2020-12-01 16:25:29;40;0;1;100
2020-12-01 16:30:30;40;0;1;100
2020-12-01 16:35:31;40;0;1;100
2020-12-01 16:40:30;40;0;1;100
2020-12-01 16:45:32;40;0;1;100
2020-12-01 16:50:32;40;0;1;100
2020-12-01 16:55:31;40;0;1;100
2020-12-01 17:00:28;40;0;1;100
2020-12-01 17:05:38;40;0;1;100
2020-12-01 17:10:47;40;0;1;100
2020-12-01 17:15:33;40;0;1;100
2020-12-01 17:20:28;40;0;1;100
2020-12-01 17:25:32;40;0;1;100
2020-12-01 17:30:29;40;0;1;100
2020-12-01 17:35:28;40;0;1;100
2020-12-01 17:40:34;40;0;1;100
2020-12-01 17:45:36;40;0;1;100
2020-12-01 17:50:32;40;0;1;100
2020-12-01 17:55:33;40;0;1;100
2020-12-01 18:00:31;40;0;1;100
2020-12-01 18:05:36;40;0;1;100
2020-12-01 18:10:33;40;0;1;100
2020-12-01 18:15:38;40;0;1;100
2020-12-01 18:20:31;40;0;1;100
2020-12-01 18:25:37;40;0;1;100
2020-12-01 18:30:43;40;0;1;100
2020-12-01 18:35:28;40;0;1;100
2020-12-01 18:40:27;40;0;1;100
2020-12-01 18:45:33;40;0;1;100
2020-12-01 18:51:02;40;0;1;100
2020-12-01 18:55:39;40;0;1;100
2020-12-01 19:00:33;40;0;1;100
2020-12-01 19:05:34;40;0;1;100
2020-12-01 19:10:28;40;0;1;100
2020-12-01 19:15:28;40;0;1;100
2020-12-01 19:20:31;40;0;1;100
2020-12-01 19:25:37;40;0;1;100
2020-12-01 19:30:37;40;0;1;100
2020-12-01 19:35:38;40;0;1;100
2020-12-01 19:40:32;40;0;1;100
2020-12-01 19:45:29;40;0;1;100
2020-12-01 19:50:34;40;0;1;100
2020-12-01 19:55:31;40;0;1;100
2020-12-01 20:00:35;40;0;1;100
2020-12-01 20:05:47;40;0;1;100
2020-12-01 20:10:32;40;0;1;100
2020-12-01 20:15:33;40;0;1;100
2020-12-01 20:20:35;40;0;1;100
2020-12-01 20:25:31;40;0;1;100
2020-12-01 20:30:32;40;0;1;100
2020-12-01 20:35:38;40;0;1;100
2020-12-01 20:40:36;40;0;1;100
2020-12-01 20:45:31;40;0;1;100
2020-12-01 20:50:37;40;0;1;100
2020-12-01 20:55:30;40;0;1;100
2020-12-01 21:00:30;40;0;1;100
2020-12-01 21:05:31;40;0;1;100
2020-12-01 21:10:31;40;0;1;100
2020-12-01 21:15:35;40;0;1;100
2020-12-01 21:20:32;40;0;1;100
2020-12-01 21:25:28;40;0;1;100
2020-12-01 21:30:41;40;0;1;100
2020-12-01 21:35:25;40;0;1;100
2020-12-01 21:40:28;40;0;1;100
2020-12-01 21:45:33;40;0;1;100
2020-12-01 21:50:29;40;0;1;100
2020-12-01 21:55:29;40;0;1;100
2020-12-01 22:00:34;40;0;1;100
2020-12-01 22:05:31;40;0;1;100
2020-12-01 22:10:34;40;0;1;100
2020-12-01 22:15:34;40;0;1;100
2020-12-01 22:20:41;40;0;1;100
2020-12-01 22:25:34;40;0;1;100
2020-12-01 22:30:34;40;0;1;100
2020-12-01 22:35:31;40;0;1;100
2020-12-01 22:40:34;40;0;1;100
2020-12-01 22:45:28;40;0;1;100
2020-12-01 22:50:32;40;0;1;100
2020-12-01 22:55:33;40;0;1;100
2020-12-01 23:00:35;40;0;1;100
2020-12-01 23:05:33;40;0;1;100
2020-12-01 23:10:31;40;0;1;100
2020-12-01 23:15:30;40;0;1;100
2020-12-01 23:20:34;40;0;1;100
2020-12-01 23:25:33;40;0;1;100
2020-12-01 23:30:36;40;0;1;100
2020-12-01 23:35:36;40;0;1;100
2020-12-01 23:40:36;40;0;1;100
2020-12-01 23:45:32;40;0;1;100
2020-12-01 23:50:43;40;0;1;100
2020-12-01 23:55:38;40;0;1;100
2020-12-02 00:00:39;40;0;1;100
2020-12-02 00:05:31;40;0;1;100
2020-12-02 00:10:38;40;0;1;100
2020-12-02 00:15:31;40;0;1;100
2020-12-02 00:20:33;40;0;1;100
2020-12-02 00:25:30;40;0;1;100
2020-12-02 00:30:31;40;0;1;100
2020-12-02 00:35:32;40;0;1;100
2020-12-02 00:40:32;40;0;1;100
2020-12-02 00:45:33;40;0;1;100
2020-12-02 00:50:38;40;0;1;100
2020-12-02 00:55:41;40;0;1;100
2020-12-02 01:00:34;40;0;1;100
2020-12-02 01:05:37;40;0;1;100
2020-12-02 01:10:34;40;0;1;100
2020-12-02 01:15:41;40;0;1;100
2020-12-02 01:20:35;40;0;1;100
2020-12-02 01:25:29;40;0;1;100
2020-12-02 01:30:36;40;0;1;100
2020-12-02 01:35:32;40;0;1;100
2020-12-02 01:40:37;40;0;1;100
2020-12-02 01:45:34;40;0;1;100
2020-12-02 01:50:34;40;0;1;100
2020-12-02 01:55:30;40;0;1;100
2020-12-02 02:00:32;40;0;1;100
2020-12-02 02:05:36;40;0;1;100
2020-12-02 02:10:32;40;0;1;100
2020-12-02 02:15:34;40;0;1;100
2020-12-02 02:20:31;40;0;1;100
2020-12-02 02:25:34;40;0;1;100
2020-12-02 02:30:32;40;0;1;100
2020-12-02 02:35:33;40;0;1;100
2020-12-02 02:40:33;40;0;1;100
2020-12-02 02:45:34;40;0;1;100
2020-12-02 02:50:40;40;0;1;100
2020-12-02 02:55:34;40;0;1;100
2020-12-02 03:00:30;40;0;1;100
2020-12-02 03:05:34;40;0;1;100
2020-12-02 03:10:28;40;0;1;100
2020-12-02 03:15:30;40;0;1;100
2020-12-02 03:20:27;40;0;1;100
2020-12-02 03:25:27;40;0;1;100
2020-12-02 03:30:25;40;0;1;100
2020-12-02 03:35:33;40;0;1;100
2020-12-02 03:40:31;40;0;1;100
2020-12-02 03:45:33;40;0;1;100
2020-12-02 03:50:36;40;0;1;100
2020-12-02 03:55:33;40;0;1;100
2020-12-02 04:00:33;40;0;1;100
2020-12-02 04:05:31;40;0;1;100
2020-12-02 04:10:36;40;0;1;100
2020-12-02 04:15:35;40;0;1;100
2020-12-02 04:20:37;40;0;1;100
2020-12-02 04:25:36;40;0;1;100
2020-12-02 04:30:39;40;0;1;100
2020-12-02 04:35:32;40;0;1;100
2020-12-02 04:40:36;40;0;1;100
2020-12-02 04:45:32;40;0;1;100
2020-12-02 04:50:33;40;0;1;100
2020-12-02 04:55:30;40;0;1;100
2020-12-02 05:00:36;40;0;1;100
2020-12-02 05:05:30;40;0;1;100
2020-12-02 05:10:37;40;0;1;100
2020-12-02 05:15:31;40;0;1;100
2020-12-02 05:20:39;40;0;1;100
2020-12-02 05:25:36;40;0;1;100
2020-12-02 05:30:35;40;0;1;100
2020-12-02 05:35:37;40;0;1;100
2020-12-02 05:40:34;40;0;1;100
2020-12-02 05:45:30;40;0;1;100
2020-12-02 05:50:33;40;0;1;100
2020-12-02 05:55:32;40;0;1;100
2020-12-02 06:00:31;40;0;1;100
2020-12-02 06:05:31;40;0;1;100
2020-12-02 06:10:34;40;0;1;100
2020-12-02 06:15:33;40;0;1;100
2020-12-02 06:20:36;40;0;1;100
2020-12-02 06:25:34;40;0;1;100
2020-12-02 06:30:30;40;0;1;100
2020-12-02 06:35:37;40;0;1;100
2020-12-02 06:40:32;40;0;1;100
2020-12-02 06:45:39;40;0;1;100
2020-12-02 06:50:40;40;0;1;100
2020-12-02 06:55:35;40;0;1;100
2020-12-02 07:00:37;40;0;1;100
2020-12-02 07:05:33;40;0;1;100
2020-12-02 07:10:32;40;0;1;100
2020-12-02 07:15:34;40;0;1;100
2020-12-02 07:20:36;40;0;1;100
2020-12-02 07:25:38;40;0;1;100
2020-12-02 07:30:40;40;0;1;100
2020-12-02 07:35:36;40;0;1;100
2020-12-02 07:40:38;40;0;1;100
2020-12-02 07:45:31;40;0;1;100
2020-12-02 07:50:34;40;0;1;100
2020-12-02 07:55:35;40;0;1;100
2020-12-02 08:00:39;40;0;1;100
2020-12-02 08:05:40;40;0;1;100
2020-12-02 08:10:40;40;0;1;100
2020-12-02 08:15:36;40;0;1;100
2020-12-02 08:20:38;40;0;1;100
2020-12-02 08:25:36;40;0;1;100
2020-12-02 08:30:39;40;0;1;100
2020-12-02 08:35:32;40;0;1;100
2020-12-02 08:40:35;40;0;1;100
2020-12-02 08:45:33;40;0;1;100
2020-12-02 08:50:32;40;0;1;100
2020-12-02 08:55:34;40;0;1;100
2020-12-02 09:00:37;40;0;1;100
2020-12-02 09:05:39;40;0;1;100
2020-12-02 09:10:32;40;0;1;100
2020-12-02 09:15:31;40;0;1;100
2020-12-02 09:20:32;40;0;1;100
2020-12-02 09:25:29;40;0;1;100
2020-12-02 09:30:29;40;0;1;100
2020-12-02 09:35:37;40;0;1;100
2020-12-02 09:40:32;40;0;1;100
2020-12-02 09:45:30;40;0;1;100
2020-12-02 09:50:30;40;0;1;100
2020-12-02 09:55:44;40;0;1;100
2020-12-02 10:00:35;40;0;1;100
2020-12-02 10:05:51;40;0;1;100
2020-12-02 10:10:34;40;0;1;100
2020-12-02 10:15:35;40;0;1;100
2020-12-02 10:20:31;40;0;1;100
2020-12-02 10:25:29;40;0;1;100
2020-12-02 10:30:31;40;0;1;100
2020-12-02 10:35:29;40;0;1;100
2020-12-02 10:40:30;40;0;1;100
2020-12-02 10:45:37;40;0;1;100
2020-12-02 10:50:31;40;0;1;100
2020-12-02 10:55:29;40;0;1;100
2020-12-02 11:00:32;40;0;1;100
2020-12-02 11:05:38;40;0;1;100
2020-12-02 11:10:30;40;0;1;100
2020-12-02 11:15:30;40;0;1;100
2020-12-02 11:20:37;40;0;1;100
2020-12-02 11:25:39;40;0;1;100
2020-12-02 11:30:30;40;0;1;100
2020-12-02 11:35:37;40;0;1;100
2020-12-02 11:40:34;40;0;1;100
2020-12-02 11:45:32;40;0;1;100
2020-12-02 11:50:35;40;0;1;100
2020-12-02 11:55:34;40;0;1;100
2020-12-02 12:00:50;40;0;1;100
2020-12-02 12:05:31;40;0;1;100
2020-12-02 12:10:34;40;0;1;100
2020-12-02 12:15:39;40;0;1;100
2020-12-02 12:20:32;40;0;1;100
2020-12-02 12:25:32;40;0;1;100
2020-12-02 12:30:30;40;0;1;100
2020-12-02 12:35:28;40;0;1;100
2020-12-02 12:40:31;40;0;1;100
2020-12-02 12:45:28;40;0;1;100
2020-12-02 12:50:33;40;0;1;100
2020-12-02 12:55:30;40;0;1;100
2020-12-02 13:00:28;40;0;1;100
2020-12-02 13:05:31;40;0;1;100
2020-12-02 13:10:35;40;0;1;100
2020-12-02 13:15:28;40;0;1;100
2020-12-02 13:20:28;40;0;1;100
2020-12-02 13:25:34;40;0;1;100
2020-12-02 13:30:30;40;0;1;100
2020-12-02 13:35:31;40;0;1;100
2020-12-02 13:40:32;40;0;1;100
2020-12-02 13:45:30;40;0;1;100
2020-12-02 13:50:37;40;0;1;100
2020-12-02 13:55:36;40;0;1;100
2020-12-02 14:00:28;40;0;1;100
2020-12-02 14:05:28;40;0;1;100
2020-12-02 14:10:32;40;0;1;100
2020-12-02 14:15:32;40;0;1;100
2020-12-02 14:20:31;40;0;1;100
2020-12-02 14:25:30;40;0;1;100
2020-12-02 14:30:30;40;0;1;100
2020-12-02 14:35:33;40;0;1;100
2020-12-02 14:40:29;40;0;1;100
2020-12-02 14:45:37;40;0;1;100
2020-12-02 14:50:26;40;0;1;100
2020-12-02 14:55:37;40;0;1;100
2020-12-02 15:00:36;40;0;1;100
2020-12-02 15:05:32;40;0;1;100
2020-12-02 15:10:30;40;0;1;100
2020-12-02 15:15:30;40;0;1;100
2020-12-02 15:20:28;40;0;1;100
2020-12-02 15:25:29;40;0;1;100
2020-12-02 15:30:34;40;0;1;100
2020-12-02 15:35:33;40;0;1;100
2020-12-02 15:40:30;40;0;1;100
2020-12-02 15:45:31;40;0;1;100
2020-12-02 15:50:37;40;0;1;100
2020-12-02 15:55:32;40;0;1;100
2020-12-02 16:00:32;40;0;1;100
2020-12-02 16:05:29;40;0;1;100
2020-12-02 16:10:35;40;0;1;100
2020-12-02 16:15:35;40;0;1;100
2020-12-02 16:20:28;40;0;1;100
2020-12-02 16:25:30;40;0;1;100
2020-12-02 16:30:29;40;0;1;100
2020-12-02 16:35:30;40;0;1;100
2020-12-02 16:40:31;40;0;1;100
2020-12-02 16:45:30;40;0;1;100
2020-12-02 16:50:34;40;0;1;100
2020-12-02 16:55:35;40;0;1;100
2020-12-02 17:00:30;40;0;1;100
2020-12-02 17:05:36;40;0;1;100
2020-12-02 17:10:31;40;0;1;100
2020-12-02 17:15:29;40;0;1;100
2020-12-02 17:20:27;40;0;1;100
2020-12-02 17:25:32;40;0;1;100
2020-12-02 17:30:34;40;0;1;100
2020-12-02 17:35:25;40;0;1;100
2020-12-02 17:40:28;40;0;1;100
2020-12-02 17:45:26;40;0;1;100
2020-12-02 17:50:29;40;0;1;100
2020-12-02 17:55:31;40;0;1;100
2020-12-02 18:00:29;40;0;1;100
2020-12-02 18:05:27;40;0;1;100
2020-12-02 18:10:29;40;0;1;100
2020-12-02 18:15:29;40;0;1;100
2020-12-02 18:20:36;40;0;1;100
2020-12-02 18:25:32;40;0;1;100
2020-12-02 18:30:29;40;0;1;100
2020-12-02 18:35:30;40;0;1;100
2020-12-02 18:40:28;40;0;1;100
2020-12-02 18:45:30;40;0;1;100
2020-12-02 18:50:28;40;0;1;100
2020-12-02 18:55:31;40;0;1;100
2020-12-02 19:00:30;40;0;1;100
2020-12-02 19:05:28;40;0;1;100
2020-12-02 19:10:37;40;0;1;100
2020-12-02 19:15:32;40;0;1;100
2020-12-02 19:20:34;40;0;1;100
2020-12-02 19:25:29;40;0;1;100
2020-12-02 19:30:33;40;0;1;100
2020-12-02 19:35:31;40;0;1;100
2020-12-02 19:40:29;40;0;1;100
2020-12-02 19:45:30;40;0;1;100
2020-12-02 19:50:29;40;0;1;100
2020-12-02 19:55:29;40;0;1;100
2020-12-02 20:00:28;40;0;1;100
2020-12-02 20:05:30;40;0;1;100
2020-12-02 20:10:30;40;0;1;100
2020-12-02 20:15:28;40;0;1;100
2020-12-02 20:20:27;40;0;1;100
2020-12-02 20:25:30;40;0;1;100
2020-12-02 20:30:28;40;0;1;100
2020-12-02 20:35:29;40;0;1;100
2020-12-02 20:40:31;40;0;1;100
2020-12-02 20:45:32;40;0;1;100
2020-12-02 20:50:33;40;0;1;100
2020-12-02 20:55:28;40;0;1;100
2020-12-02 21:00:27;40;0;1;100
2020-12-02 21:05:26;40;0;1;100
2020-12-02 21:10:27;40;0;1;100
2020-12-02 21:15:29;40;0;1;100
2020-12-02 21:20:29;40;0;1;100
2020-12-02 21:25:34;40;0;1;100
2020-12-02 21:30:30;40;0;1;100
2020-12-02 21:35:30;40;0;1;100
2020-12-02 21:40:35;40;0;1;100
2020-12-02 21:45:37;40;0;1;100
2020-12-02 21:50:27;40;0;1;100
2020-12-02 21:55:26;40;0;1;100
2020-12-02 22:00:35;40;0;1;100
2020-12-02 22:05:27;40;0;1;100
2020-12-02 22:10:27;40;0;1;100
2020-12-02 22:15:34;40;0;1;100
2020-12-02 22:20:33;40;0;1;100
2020-12-02 22:25:31;40;0;1;100
2020-12-02 22:30:29;40;0;1;100
2020-12-02 22:35:32;40;0;1;100
2020-12-02 22:40:28;40;0;1;100
2020-12-02 22:45:28;40;0;1;100
2020-12-02 22:50:32;40;0;1;100
2020-12-02 22:55:27;40;0;1;100
2020-12-02 23:00:25;40;0;1;100
2020-12-02 23:05:35;40;0;1;100
2020-12-02 23:10:42;40;0;1;100
2020-12-02 23:15:30;40;0;1;100
2020-12-02 23:20:31;40;0;1;100
2020-12-02 23:25:29;40;0;1;100
2020-12-02 23:30:30;40;0;1;100
2020-12-02 23:35:28;40;0;1;100
2020-12-02 23:40:30;40;0;1;100
2020-12-02 23:45:29;40;0;1;100
2020-12-02 23:50:25;40;0;1;100
2020-12-02 23:55:28;40;0;1;100
2020-12-03 00:00:39;40;0;1;100
2020-12-03 00:05:27;40;0;1;100
2020-12-03 00:10:29;40;0;1;100
2020-12-03 00:15:29;40;0;1;100
2020-12-03 00:20:32;40;0;1;100
2020-12-03 00:25:29;40;0;1;100
2020-12-03 00:30:27;40;0;1;100
2020-12-03 00:35:27;40;0;1;100
2020-12-03 00:40:31;40;0;1;100
2020-12-03 00:45:33;40;0;1;100
2020-12-03 00:50:29;40;0;1;100
2020-12-03 00:55:25;40;0;1;100
2020-12-03 01:00:28;40;0;1;100
2020-12-03 01:05:27;40;0;1;100
2020-12-03 01:10:33;40;0;1;100
2020-12-03 01:15:36;40;0;1;100
2020-12-03 01:20:32;40;0;1;100
2020-12-03 01:25:32;40;0;1;100
2020-12-03 01:30:32;40;0;1;100
2020-12-03 01:35:29;40;0;1;100
2020-12-03 01:40:27;40;0;1;100
2020-12-03 01:45:25;40;0;1;100
2020-12-03 01:50:28;40;0;1;100
2020-12-03 01:55:26;40;0;1;100
2020-12-03 02:00:30;40;0;1;100
2020-12-03 02:05:32;40;0;1;100
2020-12-03 02:10:25;40;0;1;100
2020-12-03 02:15:29;40;0;1;100
2020-12-03 02:20:28;40;0;1;100
2020-12-03 02:25:33;40;0;1;100
2020-12-03 02:30:32;40;0;1;100
2020-12-03 02:35:33;40;0;1;100
2020-12-03 02:40:28;40;0;1;100
2020-12-03 02:45:30;40;0;1;100
2020-12-03 02:50:27;40;0;1;100
2020-12-03 02:55:31;40;0;1;100
2020-12-03 03:00:32;40;0;1;100
2020-12-03 03:05:37;40;0;1;100
2020-12-03 03:10:36;40;0;1;100
2020-12-03 03:15:29;40;0;1;100
2020-12-03 03:20:35;40;0;1;100
2020-12-03 03:25:29;40;0;1;100
2020-12-03 03:30:30;40;0;1;100
2020-12-03 03:35:29;40;0;1;100
2020-12-03 03:40:30;40;0;1;100
2020-12-03 03:45:28;40;0;1;100
2020-12-03 03:50:34;40;0;1;100
2020-12-03 03:55:28;40;0;1;100
2020-12-03 04:00:32;40;0;1;100
2020-12-03 04:05:30;40;0;1;100
2020-12-03 04:10:29;40;0;1;100
2020-12-03 04:15:30;40;0;1;100
2020-12-03 04:20:28;40;0;1;100
2020-12-03 04:25:27;40;0;1;100
2020-12-03 04:30:27;40;0;1;100
2020-12-03 04:35:25;40;0;1;100
2020-12-03 04:40:28;40;0;1;100
2020-12-03 04:45:28;40;0;1;100
2020-12-03 04:50:33;40;0;1;100
2020-12-03 04:55:30;40;0;1;100
2020-12-03 05:00:35;40;0;1;100
2020-12-03 05:05:27;40;0;1;100
2020-12-03 05:10:36;40;0;1;100
2020-12-03 05:15:32;40;0;1;100
2020-12-03 05:20:33;40;0;1;100
2020-12-03 05:25:28;40;0;1;100
2020-12-03 05:30:28;40;0;1;100
2020-12-03 05:35:30;40;0;1;100
2020-12-03 05:40:25;40;0;1;100
2020-12-03 05:45:33;40;0;1;100
2020-12-03 05:50:33;40;0;1;100
2020-12-03 05:55:29;40;0;1;100
2020-12-03 06:00:30;40;0;1;100
2020-12-03 06:05:29;40;0;1;100
2020-12-03 06:10:43;40;0;1;100
2020-12-03 06:15:33;40;0;1;100
2020-12-03 06:20:31;40;0;1;100
2020-12-03 06:25:36;40;0;1;100
2020-12-03 06:30:24;40;0;1;100
2020-12-03 06:35:30;40;0;1;100
2020-12-03 06:40:26;40;0;1;100
2020-12-03 06:45:33;40;0;1;100
2020-12-03 06:50:28;40;0;1;100
2020-12-03 06:55:31;40;0;1;100
2020-12-03 07:00:33;40;0;1;100
2020-12-03 07:05:26;40;0;1;100
2020-12-03 07:10:26;40;0;1;100
2020-12-03 07:15:32;40;0;1;100
2020-12-03 07:20:29;40;0;1;100
2020-12-03 07:25:29;40;0;1;100
2020-12-03 07:30:29;40;0;1;100
2020-12-03 07:35:29;40;0;1;100
2020-12-03 07:40:31;40;0;1;100
2020-12-03 07:45:31;40;0;1;100
2020-12-03 07:50:28;40;0;1;100
2020-12-03 07:55:27;40;0;1;100
2020-12-03 08:00:27;40;0;1;100
2020-12-03 08:05:30;40;0;1;100
2020-12-03 08:10:30;40;0;1;100
2020-12-03 08:15:28;40;0;1;100
2020-12-03 08:20:30;40;0;1;100
2020-12-03 08:25:31;40;0;1;100
2020-12-03 08:30:28;40;0;1;100
2020-12-03 08:35:32;40;0;1;100
2020-12-03 08:40:24;40;0;1;100
2020-12-03 08:45:30;40;0;1;100
2020-12-03 08:50:29;40;0;1;100
2020-12-03 08:55:36;40;0;1;100
2020-12-03 09:00:27;40;0;1;100
2020-12-03 09:05:31;40;0;1;100
2020-12-03 09:10:33;40;0;1;100
2020-12-03 09:15:32;40;0;1;100
2020-12-03 09:20:29;40;0;1;100
2020-12-03 09:25:29;40;0;1;100
2020-12-03 09:30:30;40;0;1;100
2020-12-03 09:35:33;40;0;1;100
2020-12-03 09:40:31;40;0;1;100
2020-12-03 09:45:35;40;0;1;100
2020-12-03 09:50:34;40;0;1;100
2020-12-03 09:55:33;40;0;1;100
2020-12-03 10:00:37;40;0;1;100
2020-12-03 10:05:28;40;0;1;100
2020-12-03 10:10:35;40;0;1;100
2020-12-03 10:15:33;40;0;1;100
2020-12-03 10:20:31;40;0;1;100
2020-12-03 10:25:34;40;0;1;100
2020-12-03 10:30:26;40;0;1;100
2020-12-03 10:35:25;40;0;1;100
2020-12-03 10:40:26;40;0;1;100
2020-12-03 10:45:26;40;0;1;100
2020-12-03 10:50:26;40;0;1;100
2020-12-03 10:55:30;40;0;1;100
2020-12-03 11:00:33;40;0;1;100
2020-12-03 11:05:31;40;0;1;100
2020-12-03 11:10:34;40;0;1;100
2020-12-03 11:15:30;40;0;1;100
2020-12-03 11:20:32;40;0;1;100
2020-12-03 11:25:27;40;0;1;100
2020-12-03 11:30:35;40;0;1;100
2020-12-03 11:35:30;40;0;1;100
2020-12-03 11:40:32;40;0;1;100
2020-12-03 11:45:33;40;0;1;100
2020-12-03 11:50:28;40;0;1;100
2020-12-03 11:55:25;40;0;1;100
2020-12-03 12:00:27;40;0;1;100
2020-12-03 12:05:37;40;0;1;100
2020-12-03 12:10:31;40;0;1;100
2020-12-03 12:15:29;40;0;1;100
2020-12-03 12:20:26;40;0;1;100
2020-12-03 12:25:33;40;0;1;100
2020-12-03 12:30:32;40;0;1;100
2020-12-03 12:35:27;40;0;1;100
2020-12-03 12:40:31;40;0;1;100
2020-12-03 12:45:32;40;0;1;100
2020-12-03 12:50:31;40;0;1;100
2020-12-03 12:55:28;40;0;1;100
2020-12-03 13:00:30;40;0;1;100
2020-12-03 13:05:29;40;0;1;100
2020-12-03 13:10:28;40;0;1;100
2020-12-03 13:15:30;40;0;1;100
2020-12-03 13:20:34;40;0;1;100
2020-12-03 13:25:40;40;0;1;100
2020-12-03 13:30:36;40;0;1;100
2020-12-03 13:35:38;40;0;1;100
2020-12-03 13:40:38;40;0;1;100
2020-12-03 13:45:33;40;0;1;100
2020-12-03 13:50:32;40;0;1;100
2020-12-03 13:55:33;40;0;1;100
2020-12-03 14:00:29;40;0;1;100
2020-12-03 14:05:36;40;0;1;100
2020-12-03 14:10:29;40;0;1;100
2020-12-03 14:15:33;40;0;1;100
2020-12-03 14:20:30;40;0;1;100
2020-12-03 14:25:33;40;0;1;100
2020-12-03 14:30:32;40;0;1;100
2020-12-03 14:35:30;40;0;1;100
2020-12-03 14:40:28;40;0;1;100
2020-12-03 14:45:38;40;0;1;100
2020-12-03 14:50:37;40;0;1;100
2020-12-03 14:55:31;40;0;1;100
2020-12-03 15:00:34;40;0;1;100
2020-12-03 15:05:30;40;0;1;100
2020-12-03 15:10:31;40;0;1;100
2020-12-03 15:15:28;40;0;1;100
2020-12-03 15:20:33;40;0;1;100
2020-12-03 15:25:29;40;0;1;100
2020-12-03 15:30:34;40;0;1;100
2020-12-03 15:35:28;40;0;1;100
2020-12-03 15:40:41;40;0;1;100
2020-12-03 15:45:27;40;0;1;100
2020-12-03 15:50:31;40;0;1;100
2020-12-03 15:55:40;40;0;1;100
2020-12-03 16:00:30;40;0;1;100
2020-12-03 16:05:29;40;0;1;100
2020-12-03 16:10:28;40;0;1;100
2020-12-03 16:15:30;40;0;1;100
2020-12-03 16:20:31;40;0;1;100
2020-12-03 16:25:28;40;0;1;100
2020-12-03 16:30:27;40;0;1;100
2020-12-03 16:35:25;40;0;1;100
2020-12-03 16:40:29;40;0;1;100
2020-12-03 16:45:28;40;0;1;100
2020-12-03 16:50:30;40;0;1;100
2020-12-03 16:55:27;40;0;1;100
2020-12-03 17:00:35;40;0;1;100
2020-12-03 17:05:28;40;0;1;100
2020-12-03 17:10:33;40;0;1;100
2020-12-03 17:15:36;40;0;1;100
2020-12-03 17:20:30;40;0;1;100
2020-12-03 17:25:35;40;0;1;100
2020-12-03 17:30:35;40;0;1;100
2020-12-03 17:35:26;40;0;1;100
2020-12-03 17:40:28;40;0;1;100
2020-12-03 17:45:32;40;0;1;100
2020-12-03 17:50:34;40;0;1;100
2020-12-03 17:55:30;40;0;1;100
2020-12-03 18:00:37;40;0;1;100
2020-12-03 18:05:32;40;0;1;100
2020-12-03 18:10:37;40;0;1;100
2020-12-03 18:15:35;40;0;1;100
2020-12-03 18:20:41;40;0;1;100
2020-12-03 18:25:36;40;0;1;100
2020-12-03 18:30:31;40;0;1;100
2020-12-03 18:35:25;40;0;1;100
2020-12-03 18:40:32;40;0;1;100
2020-12-03 18:45:34;40;0;1;100
2020-12-03 18:50:32;40;0;1;100
2020-12-03 18:55:33;40;0;1;100
2020-12-03 19:00:30;40;0;1;100
2020-12-03 19:05:39;40;0;1;100
2020-12-03 19:10:28;40;0;1;100
2020-12-03 19:15:34;40;0;1;100
2020-12-03 19:20:28;40;0;1;100
2020-12-03 19:25:31;40;0;1;100
2020-12-03 19:30:34;40;0;1;100
2020-12-03 19:35:31;40;0;1;100
2020-12-03 19:40:32;40;0;1;100
2020-12-03 19:45:31;40;0;1;100
2020-12-03 19:50:32;40;0;1;100
2020-12-03 19:55:30;40;0;1;100
2020-12-03 20:00:33;40;0;1;100
2020-12-03 20:05:26;40;0;1;100
2020-12-03 20:10:27;40;0;1;100
2020-12-03 20:15:31;40;0;1;100
2020-12-03 20:20:25;40;0;1;100
2020-12-03 20:25:27;40;0;1;100
2020-12-03 20:30:40;40;0;1;100
2020-12-03 20:35:30;40;0;1;100
2020-12-03 20:40:32;40;0;1;100
2020-12-03 20:45:28;40;0;1;100
2020-12-03 20:50:37;40;0;1;100
2020-12-03 20:55:33;40;0;1;100
2020-12-03 21:00:27;40;0;1;100
2020-12-03 21:05:27;40;0;1;100
2020-12-03 21:10:27;40;0;1;100
2020-12-03 21:15:32;40;0;1;100
2020-12-03 21:20:34;40;0;1;100
2020-12-03 21:25:33;40;0;1;100
2020-12-03 21:30:29;40;0;1;100
2020-12-03 21:35:33;40;0;1;100
2020-12-03 21:40:29;40;0;1;100
2020-12-03 21:45:36;40;0;1;100
2020-12-03 21:50:28;40;0;1;100
2020-12-03 21:55:31;40;0;1;100
2020-12-03 22:00:30;40;0;1;100
2020-12-03 22:05:38;40;0;1;100
2020-12-03 22:10:30;40;0;1;100
2020-12-03 22:15:27;40;0;1;100
2020-12-03 22:20:28;40;0;1;100
2020-12-03 22:25:32;40;0;1;100
2020-12-03 22:30:30;40;0;1;100
2020-12-03 22:35:26;40;0;1;100
2020-12-03 22:40:25;40;0;1;100
2020-12-03 22:45:29;40;0;1;100
2020-12-03 22:50:25;40;0;1;100
2020-12-03 22:55:29;40;0;1;100
2020-12-03 23:00:28;40;0;1;100
2020-12-03 23:05:31;40;0;1;100
2020-12-03 23:10:30;40;0;1;100
2020-12-03 23:15:31;40;0;1;100
2020-12-03 23:20:29;40;0;1;100
2020-12-03 23:25:35;40;0;1;100
2020-12-03 23:30:25;40;0;1;100
2020-12-03 23:35:34;40;0;1;100
2020-12-03 23:40:29;40;0;1;100
2020-12-03 23:45:27;40;0;1;100
2020-12-03 23:50:31;40;0;1;100
2020-12-03 23:55:32;40;0;1;100
2020-12-04 00:00:29;40;0;1;100
2020-12-04 00:05:35;40;0;1;100
2020-12-04 00:10:33;40;0;1;100
2020-12-04 00:15:39;40;0;1;100
2020-12-04 00:20:38;40;0;1;100
2020-12-04 00:25:28;40;0;1;100
2020-12-04 00:30:26;40;0;1;100
2020-12-04 00:35:26;40;0;1;100
2020-12-04 00:40:28;40;0;1;100
2020-12-04 00:45:31;40;0;1;100
2020-12-04 00:50:36;40;0;1;100
2020-12-04 00:55:33;40;0;1;100
2020-12-04 01:00:31;40;0;1;100
2020-12-04 01:05:28;40;0;1;100
2020-12-04 01:10:30;40;0;1;100
2020-12-04 01:15:29;40;0;1;100
2020-12-04 01:20:31;40;0;1;100
2020-12-04 01:25:29;40;0;1;100
2020-12-04 01:30:33;40;0;1;100
2020-12-04 01:35:27;40;0;1;100
2020-12-04 01:40:29;40;0;1;100
2020-12-04 01:45:37;40;0;1;100
2020-12-04 01:50:28;40;0;1;100
2020-12-04 01:55:28;40;0;1;100
2020-12-04 02:00:30;40;0;1;100
2020-12-04 02:05:33;40;0;1;100
2020-12-04 02:10:34;40;0;1;100
2020-12-04 02:15:28;40;0;1;100
2020-12-04 02:20:30;40;0;1;100
2020-12-04 02:25:31;40;0;1;100
2020-12-04 02:30:31;40;0;1;100
2020-12-04 02:35:29;40;0;1;100
2020-12-04 02:40:31;40;0;1;100
2020-12-04 02:45:33;40;0;1;100
2020-12-04 02:50:30;40;0;1;100
2020-12-04 02:55:25;40;0;1;100
2020-12-04 03:00:28;40;0;1;100
2020-12-04 03:05:32;40;0;1;100
2020-12-04 03:10:26;40;0;1;100
2020-12-04 03:15:28;40;0;1;100
2020-12-04 03:20:32;40;0;1;100
2020-12-04 03:25:33;40;0;1;100
2020-12-04 03:30:30;40;0;1;100
2020-12-04 03:35:29;40;0;1;100
2020-12-04 03:40:30;40;0;1;100
2020-12-04 03:45:30;40;0;1;100
2020-12-04 03:50:34;40;0;1;100
2020-12-04 03:55:32;40;0;1;100
2020-12-04 04:00:27;40;0;1;100
2020-12-04 04:05:30;40;0;1;100
2020-12-04 04:10:34;40;0;1;100
2020-12-04 04:15:26;40;0;1;100
2020-12-04 04:20:32;40;0;1;100
2020-12-04 04:25:29;40;0;1;100
2020-12-04 04:30:32;40;0;1;100
2020-12-04 04:35:37;40;0;1;100
2020-12-04 04:40:28;40;0;1;100
2020-12-04 04:45:28;40;0;1;100
2020-12-04 04:50:31;40;0;1;100
2020-12-04 04:55:29;40;0;1;100
2020-12-04 05:00:31;40;0;1;100
2020-12-04 05:05:28;40;0;1;100
2020-12-04 05:10:33;40;0;1;100
2020-12-04 05:15:34;40;0;1;100
2020-12-04 05:20:32;40;0;1;100
2020-12-04 05:25:29;40;0;1;100
2020-12-04 05:30:28;40;0;1;100
2020-12-04 05:35:31;40;0;1;100
2020-12-04 05:40:27;40;0;1;100
2020-12-04 05:45:27;40;0;1;100
2020-12-04 05:50:40;40;0;1;100
2020-12-04 05:55:28;40;0;1;100
2020-12-04 06:00:31;40;0;1;100
2020-12-04 06:05:34;40;0;1;100
2020-12-04 06:10:29;40;0;1;100
2020-12-04 06:15:34;40;0;1;100
2020-12-04 06:20:30;40;0;1;100
2020-12-04 06:25:36;40;0;1;100
2020-12-04 06:30:30;40;0;1;100
2020-12-04 06:35:33;40;0;1;100
2020-12-04 06:40:28;40;0;1;100
2020-12-04 06:45:29;40;0;1;100
2020-12-04 06:50:32;40;0;1;100
2020-12-04 06:55:31;40;0;1;100
2020-12-04 07:00:38;40;0;1;100
2020-12-04 07:05:27;40;0;1;100
2020-12-04 07:10:34;40;0;1;100
2020-12-04 07:15:35;40;0;1;100
2020-12-04 07:20:33;40;0;1;100
2020-12-04 07:25:32;40;0;1;100
2020-12-04 07:30:26;40;0;1;100
2020-12-04 07:35:25;40;0;1;100
2020-12-04 07:40:25;40;0;1;100
2020-12-04 07:45:35;40;0;1;100
2020-12-04 07:50:37;40;0;1;100
2020-12-04 07:55:37;40;0;1;100
2020-12-04 08:00:32;40;0;1;100
2020-12-04 08:05:28;40;0;1;100
2020-12-04 08:10:31;40;0;1;100
2020-12-04 08:15:28;40;0;1;100
2020-12-04 08:20:29;40;0;1;100
2020-12-04 08:25:30;40;0;1;100
2020-12-04 08:30:37;40;0;1;100
2020-12-04 08:35:29;40;0;1;100
2020-12-04 08:40:29;40;0;1;100
2020-12-04 08:45:28;40;0;1;100
2020-12-04 08:50:37;40;0;1;100
2020-12-04 08:55:33;40;0;1;100
2020-12-04 09:00:29;40;0;1;100
2020-12-04 09:05:32;40;0;1;100
2020-12-04 09:10:35;40;0;1;100
2020-12-04 09:15:39;40;0;1;100
2020-12-04 09:20:31;40;0;1;100
2020-12-04 09:25:31;40;0;1;100
2020-12-04 09:30:28;40;0;1;100
2020-12-04 09:35:34;40;0;1;100
2020-12-04 09:40:31;40;0;1;100
2020-12-04 09:45:33;40;0;1;100
2020-12-04 09:50:36;40;0;1;100
2020-12-04 09:55:34;40;0;1;100
2020-12-04 10:00:33;40;0;1;100
2020-12-04 10:05:33;40;0;1;100
2020-12-04 10:10:35;40;0;1;100
2020-12-04 10:15:30;40;0;1;100
2020-12-04 10:20:26;40;0;1;100
2020-12-04 10:25:28;40;0;1;100
2020-12-04 10:30:32;40;0;1;100
2020-12-04 10:35:30;40;0;1;100
2020-12-04 10:40:30;40;0;1;100
2020-12-04 10:45:32;40;0;1;100
2020-12-04 10:50:31;40;0;1;100
2020-12-04 10:55:30;40;0;1;100
2020-12-04 11:00:31;40;0;1;100
2020-12-04 11:05:30;40;0;1;100
2020-12-04 11:10:27;40;0;1;100
2020-12-04 11:15:26;40;0;1;100
2020-12-04 11:20:37;40;0;1;100
2020-12-04 11:25:26;40;0;1;100
2020-12-04 11:30:31;40;0;1;100
2020-12-04 11:35:28;40;0;1;100
2020-12-04 11:40:32;40;0;1;100
2020-12-04 11:45:35;40;0;1;100
2020-12-04 11:50:27;40;0;1;100
2020-12-04 11:55:29;40;0;1;100
2020-12-04 12:00:28;40;0;1;100
2020-12-04 12:05:33;40;0;1;100
2020-12-04 12:10:30;40;0;1;100
2020-12-04 12:15:34;40;0;1;100
2020-12-04 12:20:34;40;0;1;100
2020-12-04 12:25:35;40;0;1;100
2020-12-04 12:30:33;40;0;1;100
2020-12-04 12:35:31;40;0;1;100
2020-12-04 12:40:49;40;0;1;100
2020-12-04 12:45:33;40;0;1;100
2020-12-04 12:50:28;40;0;1;100
2020-12-04 12:55:38;40;0;1;100
2020-12-04 13:00:31;40;0;1;100
2020-12-04 13:05:25;40;0;1;100
2020-12-04 13:10:30;40;0;1;100
2020-12-04 13:15:35;40;0;1;100
2020-12-04 13:20:32;40;0;1;100
2020-12-04 13:25:28;40;0;1;100
2020-12-04 13:30:29;40;0;1;100
2020-12-04 13:35:27;40;0;1;100
2020-12-04 13:40:35;40;0;1;100
2020-12-04 13:45:27;40;0;1;100
2020-12-04 13:50:32;40;0;1;100
2020-12-04 13:55:35;40;0;1;100
2020-12-04 14:00:24;40;0;1;100
2020-12-04 14:05:34;40;0;1;100
2020-12-04 14:10:27;40;0;1;100
2020-12-04 14:15:31;40;0;1;100
2020-12-04 14:20:30;40;0;1;100
2020-12-04 14:25:27;40;0;1;100
2020-12-04 14:30:34;40;0;1;100
2020-12-04 14:35:27;40;0;1;100
2020-12-04 14:40:32;40;0;1;100
2020-12-04 14:45:29;40;0;1;100
2020-12-04 14:50:29;40;0;1;100
2020-12-04 14:55:30;40;0;1;100
2020-12-04 15:00:27;40;0;1;100
2020-12-04 15:05:27;40;0;1;100
2020-12-04 15:10:28;40;0;1;100
2020-12-04 15:15:29;40;0;1;100
2020-12-04 15:20:33;40;0;1;100
2020-12-04 15:25:28;40;0;1;100
2020-12-04 15:30:28;40;0;1;100
2020-12-04 15:35:37;40;0;1;100
2020-12-04 15:40:30;40;0;1;100
2020-12-04 15:45:28;40;0;1;100
2020-12-04 15:50:32;40;0;1;100
2020-12-04 15:55:25;40;0;1;100
2020-12-04 16:00:31;40;0;1;100
2020-12-04 16:05:31;40;0;1;100
2020-12-04 16:10:30;40;0;1;100
2020-12-04 16:15:39;40;0;1;100
2020-12-04 16:20:32;40;0;1;100
2020-12-04 16:25:43;40;0;1;100
2020-12-04 16:30:31;40;0;1;100
2020-12-04 16:35:31;40;0;1;100
2020-12-04 16:40:43;40;0;1;100
2020-12-04 16:45:32;40;0;1;100
2020-12-04 16:50:27;40;0;1;100
2020-12-04 16:55:30;40;0;1;100
2020-12-04 17:00:32;40;0;1;100
2020-12-04 17:05:28;40;0;1;100
2020-12-04 17:10:33;40;0;1;100
2020-12-04 17:15:44;40;0;1;100
2020-12-04 17:20:33;40;0;1;100
2020-12-04 17:25:33;40;0;1;100
2020-12-04 17:30:37;40;0;1;100
2020-12-04 17:35:29;40;0;1;100
2020-12-04 17:40:28;40;0;1;100
2020-12-04 17:45:37;40;0;1;100
2020-12-04 17:50:45;40;0;1;100
2020-12-04 17:55:37;40;0;1;100
2020-12-04 18:00:36;40;0;1;100
2020-12-04 18:05:34;40;0;1;100
2020-12-04 18:10:32;40;0;1;100
2020-12-04 18:15:39;40;0;1;100
2020-12-04 18:20:36;40;0;1;100
2020-12-04 18:25:38;40;0;1;100
2020-12-04 18:30:33;40;0;1;100
2020-12-04 18:35:36;40;0;1;100
2020-12-04 18:40:35;40;0;1;100
2020-12-04 18:45:40;40;0;1;100
2020-12-04 18:50:34;40;0;1;100
2020-12-04 18:55:30;40;0;1;100
2020-12-04 19:00:37;40;0;1;100
2020-12-04 19:05:33;40;0;1;100
2020-12-04 19:10:36;40;0;1;100
2020-12-04 19:15:41;40;0;1;100
2020-12-04 19:20:32;40;0;1;100
2020-12-04 19:25:33;40;0;1;100
2020-12-04 19:30:35;40;0;1;100
2020-12-04 19:35:40;40;0;1;100
2020-12-04 19:40:37;40;0;1;100
2020-12-04 19:45:35;40;0;1;100
2020-12-04 19:50:44;40;0;1;100
2020-12-04 19:55:41;40;0;1;100
2020-12-04 20:00:30;40;0;1;100
2020-12-04 20:05:36;40;0;1;100
2020-12-04 20:10:36;40;0;1;100
2020-12-04 20:15:41;40;0;1;100
2020-12-04 20:20:35;40;0;1;100
2020-12-04 20:25:39;40;0;1;100
2020-12-04 20:30:32;40;0;1;100
2020-12-04 20:35:38;40;0;1;100
2020-12-04 20:40:41;40;0;1;100
2020-12-04 20:45:39;40;0;1;100
2020-12-04 20:50:37;40;0;1;100
2020-12-04 20:55:44;40;0;1;100
2020-12-04 21:00:36;40;0;1;100
2020-12-04 21:05:41;40;0;1;100
2020-12-04 21:10:32;40;0;1;100
2020-12-04 21:15:37;40;0;1;100
2020-12-04 21:20:37;40;0;1;100
2020-12-04 21:25:44;40;0;1;100
2020-12-04 21:30:36;40;0;1;100
2020-12-04 21:35:31;40;0;1;100
2020-12-04 21:40:45;40;0;1;100
2020-12-04 21:45:40;40;0;1;100
2020-12-04 21:50:34;40;0;1;100
2020-12-04 21:55:36;40;0;1;100
2020-12-04 22:00:38;40;0;1;100
2020-12-04 22:05:32;40;0;1;100
2020-12-04 22:10:35;40;0;1;100
2020-12-04 22:15:37;40;0;1;100
2020-12-04 22:20:32;40;0;1;100
2020-12-04 22:25:35;40;0;1;100
2020-12-04 22:30:37;40;0;1;100
2020-12-04 22:35:35;40;0;1;100
2020-12-04 22:40:51;40;0;1;100
2020-12-04 22:45:44;40;0;1;100
2020-12-04 22:50:39;40;0;1;100
2020-12-04 22:55:30;40;0;1;100
2020-12-04 23:00:37;40;0;1;100
2020-12-04 23:05:40;40;0;1;100
2020-12-04 23:10:32;40;0;1;100
2020-12-04 23:15:36;40;0;1;100
2020-12-04 23:20:38;40;0;1;100
2020-12-04 23:25:32;40;0;1;100
2020-12-04 23:30:36;40;0;1;100
2020-12-04 23:35:33;40;0;1;100
2020-12-04 23:40:37;40;0;1;100
2020-12-04 23:45:33;40;0;1;100
2020-12-04 23:50:41;40;0;1;100
2020-12-04 23:55:35;40;0;1;100
2020-12-05 00:00:58;40;0;1;100
2020-12-05 00:05:32;40;0;1;100
2020-12-05 00:10:35;40;0;1;100
2020-12-05 00:15:40;40;0;1;100
2020-12-05 00:20:34;40;0;1;100
2020-12-05 00:25:35;40;0;1;100
2020-12-05 00:30:41;40;0;1;100
2020-12-05 00:35:29;40;0;1;100
2020-12-05 00:40:50;40;0;1;100
2020-12-05 00:45:33;40;0;1;100
2020-12-05 00:50:32;40;0;1;100
2020-12-05 00:55:37;40;0;1;100
2020-12-05 01:00:34;40;0;1;100
2020-12-05 01:05:38;40;0;1;100
2020-12-05 01:10:36;40;0;1;100
2020-12-05 01:15:38;40;0;1;100
2020-12-05 01:20:39;40;0;1;100
2020-12-05 01:25:31;40;0;1;100
2020-12-05 01:30:35;40;0;1;100
2020-12-05 01:35:39;40;0;1;100
2020-12-05 01:40:41;40;0;1;100
2020-12-05 01:45:39;40;0;1;100
2020-12-05 01:50:47;40;0;1;100
2020-12-05 01:55:33;40;0;1;100
2020-12-05 02:00:39;40;0;1;100
2020-12-05 02:05:42;40;0;1;100
2020-12-05 02:10:35;40;0;1;100
2020-12-05 02:15:38;40;0;1;100
2020-12-05 02:20:37;40;0;1;100
2020-12-05 02:25:31;40;0;1;100
2020-12-05 02:30:34;40;0;1;100
2020-12-05 02:35:29;40;0;1;100
2020-12-05 02:40:52;40;0;1;100
2020-12-05 02:45:41;40;0;1;100
2020-12-05 02:50:37;40;0;1;100
2020-12-05 02:55:33;40;0;1;100
2020-12-05 03:00:50;40;0;1;100
2020-12-05 03:05:35;40;0;1;100
2020-12-05 03:10:34;40;0;1;100
2020-12-05 03:15:29;40;0;1;100
2020-12-05 03:20:44;40;0;1;100
2020-12-05 03:25:38;40;0;1;100
2020-12-05 03:30:37;40;0;1;100
2020-12-05 03:35:32;40;0;1;100
2020-12-05 03:40:36;40;0;1;100
2020-12-05 03:45:35;40;0;1;100
2020-12-05 03:50:32;40;0;1;100
2020-12-05 03:55:31;40;0;1;100
2020-12-05 04:00:37;40;0;1;100
2020-12-05 04:05:33;40;0;1;100
2020-12-05 04:10:32;40;0;1;100
2020-12-05 04:15:39;40;0;1;100
2020-12-05 04:20:34;40;0;1;100
2020-12-05 04:25:30;40;0;1;100
2020-12-05 04:30:35;40;0;1;100
2020-12-05 04:35:57;40;0;1;100
2020-12-05 04:40:30;40;0;1;100
2020-12-05 04:45:38;40;0;1;100
2020-12-05 04:50:38;40;0;1;100
2020-12-05 04:55:29;40;0;1;100
2020-12-05 05:00:35;40;0;1;100
2020-12-05 05:05:52;40;0;1;100
2020-12-05 05:10:32;40;0;1;100
2020-12-05 05:15:44;40;0;1;100
2020-12-05 05:20:35;40;0;1;100
2020-12-05 05:25:36;40;0;1;100
2020-12-05 05:30:35;40;0;1;100
2020-12-05 05:35:29;40;0;1;100
2020-12-05 05:40:35;40;0;1;100
2020-12-05 05:45:30;40;0;1;100
2020-12-05 05:50:43;40;0;1;100
2020-12-05 05:55:36;40;0;1;100
2020-12-05 06:00:34;40;0;1;100
2020-12-05 06:05:37;40;0;1;100
2020-12-05 06:10:41;40;0;1;100
2020-12-05 06:15:49;40;0;1;100
2020-12-05 06:20:45;40;0;1;100
2020-12-05 06:25:37;40;0;1;100
2020-12-05 06:30:36;40;0;1;100
2020-12-05 06:35:32;40;0;1;100
2020-12-05 06:40:35;40;0;1;100
2020-12-05 06:45:46;40;0;1;100
2020-12-05 06:50:34;40;0;1;100
2020-12-05 06:55:51;40;0;1;100
2020-12-05 07:00:43;40;0;1;100
2020-12-05 07:05:36;40;0;1;100
2020-12-05 07:10:40;40;0;1;100
2020-12-05 07:15:33;40;0;1;100
2020-12-05 07:20:43;40;0;1;100
2020-12-05 07:25:39;40;0;1;100
2020-12-05 07:30:34;40;0;1;100
2020-12-05 07:35:33;40;0;1;100
2020-12-05 07:40:40;40;0;1;100
2020-12-05 07:45:32;40;0;1;100
2020-12-05 07:50:30;40;0;1;100
2020-12-05 07:55:41;40;0;1;100
2020-12-05 08:00:42;40;0;1;100
2020-12-05 08:05:42;40;0;1;100
2020-12-05 08:10:41;40;0;1;100
2020-12-05 08:15:39;40;0;1;100
2020-12-05 08:20:42;40;0;1;100
2020-12-05 08:25:34;40;0;1;100
2020-12-05 08:30:38;40;0;1;100
2020-12-05 08:35:42;40;0;1;100
2020-12-05 08:40:42;40;0;1;100
2020-12-05 08:45:44;40;0;1;100
2020-12-05 08:50:42;40;0;1;100
2020-12-05 08:55:49;40;0;1;100
2020-12-05 09:00:37;40;0;1;100
2020-12-05 09:05:43;40;0;1;100
2020-12-05 09:10:34;40;0;1;100
2020-12-05 09:15:37;40;0;1;100
2020-12-05 09:20:30;40;0;1;100
2020-12-05 09:25:31;40;0;1;100
2020-12-05 09:30:28;40;0;1;100
2020-12-05 09:35:30;40;0;1;100
2020-12-05 09:40:33;40;0;1;100
2020-12-05 09:45:30;40;0;1;100
2020-12-05 09:50:34;40;0;1;100
2020-12-05 09:55:36;40;0;1;100
2020-12-05 10:00:33;40;0;1;100
2020-12-05 10:05:42;40;0;1;100
2020-12-05 10:10:30;40;0;1;100
2020-12-05 10:15:35;40;0;1;100
2020-12-05 10:20:40;40;0;1;100
2020-12-05 10:25:29;40;0;1;100
2020-12-05 10:30:29;40;0;1;100
2020-12-05 10:35:28;40;0;1;100
2020-12-05 10:40:29;40;0;1;100
2020-12-05 10:45:28;40;0;1;100
2020-12-05 10:50:29;40;0;1;100
2020-12-05 10:55:29;40;0;1;100
2020-12-05 11:00:30;40;0;1;100
2020-12-05 11:05:27;40;0;1;100
2020-12-05 11:10:29;40;0;1;100
2020-12-05 11:15:28;40;0;1;100
2020-12-05 11:20:29;40;0;1;100
2020-12-05 11:25:31;40;0;1;100
2020-12-05 11:30:32;40;0;1;100
2020-12-05 11:35:28;40;0;1;100
2020-12-05 11:40:34;40;0;1;100
2020-12-05 11:45:31;40;0;1;100
2020-12-05 11:50:45;40;0;1;100
2020-12-05 11:55:29;40;0;1;100
2020-12-05 12:00:33;40;0;1;100
2020-12-05 12:05:36;40;0;1;100
2020-12-05 12:10:35;40;0;1;100
2020-12-05 12:15:34;40;0;1;100
2020-12-05 12:20:32;40;0;1;100
2020-12-05 12:25:34;40;0;1;100
2020-12-05 12:30:34;40;0;1;100
2020-12-05 12:35:31;40;0;1;100
2020-12-05 12:40:26;40;0;1;100
2020-12-05 12:45:32;40;0;1;100
2020-12-05 12:50:32;40;0;1;100
2020-12-05 12:55:32;40;0;1;100
2020-12-05 13:00:34;40;0;1;100
2020-12-05 13:05:39;40;0;1;100
2020-12-05 13:10:32;40;0;1;100
2020-12-05 13:15:33;40;0;1;100
2020-12-05 13:20:31;40;0;1;100
2020-12-05 13:25:35;40;0;1;100
2020-12-05 13:30:31;40;0;1;100
2020-12-05 13:35:30;40;0;1;100
2020-12-05 13:40:29;40;0;1;100
2020-12-05 13:45:32;40;0;1;100
2020-12-05 13:50:29;40;0;1;100
2020-12-05 13:55:33;40;0;1;100
2020-12-05 14:00:32;40;0;1;100
2020-12-05 14:05:33;40;0;1;100
2020-12-05 14:10:39;40;0;1;100
2020-12-05 14:15:31;40;0;1;100
2020-12-05 14:20:29;40;0;1;100
2020-12-05 14:25:27;40;0;1;100
2020-12-05 14:30:34;40;0;1;100
2020-12-05 14:35:29;40;0;1;100
2020-12-05 14:40:31;40;0;1;100
2020-12-05 14:45:39;40;0;1;100
2020-12-05 14:50:29;40;0;1;100
2020-12-05 14:55:35;40;0;1;100
2020-12-05 15:00:33;40;0;1;100
2020-12-05 15:05:32;40;0;1;100
2020-12-05 15:10:29;40;0;1;100
2020-12-05 15:15:31;40;0;1;100
2020-12-05 15:20:31;40;0;1;100
2020-12-05 15:25:34;40;0;1;100
2020-12-05 15:30:33;40;0;1;100
2020-12-05 15:35:29;40;0;1;100
2020-12-05 15:40:38;40;0;1;100
2020-12-05 15:45:43;40;0;1;100
2020-12-05 15:50:31;40;0;1;100
2020-12-05 15:55:35;40;0;1;100
2020-12-05 16:00:32;40;0;1;100
2020-12-05 16:05:32;40;0;1;100
2020-12-05 16:10:33;40;0;1;100
2020-12-05 16:15:30;40;0;1;100
2020-12-05 16:20:32;40;0;1;100
2020-12-05 16:25:27;40;0;1;100
2020-12-05 16:30:30;40;0;1;100
2020-12-05 16:35:31;40;0;1;100
2020-12-05 16:40:24;40;0;1;100
2020-12-05 16:45:29;40;0;1;100
2020-12-05 16:50:27;40;0;1;100
2020-12-05 16:55:31;40;0;1;100
2020-12-05 17:00:31;40;0;1;100
2020-12-05 17:05:30;40;0;1;100
2020-12-05 17:10:33;40;0;1;100
2020-12-05 17:15:36;40;0;1;100
2020-12-05 17:20:33;40;0;1;100
2020-12-05 17:25:35;40;0;1;100
2020-12-05 17:30:38;40;0;1;100
2020-12-05 17:35:29;40;0;1;100
2020-12-05 17:40:32;40;0;1;100
2020-12-05 17:45:28;40;0;1;100
2020-12-05 17:50:31;40;0;1;100
2020-12-05 17:55:33;40;0;1;100
2020-12-05 18:00:34;40;0;1;100
2020-12-05 18:05:28;40;0;1;100
2020-12-05 18:10:24;40;0;1;100
2020-12-05 18:15:30;40;0;1;100
2020-12-05 18:20:29;40;0;1;100
2020-12-05 18:25:28;40;0;1;100
2020-12-05 18:30:36;40;0;1;100
2020-12-05 18:35:29;40;0;1;100
2020-12-05 18:40:28;40;0;1;100
2020-12-05 18:45:30;40;0;1;100
2020-12-05 18:50:30;40;0;1;100
2020-12-05 18:55:31;40;0;1;100
2020-12-05 19:00:30;40;0;1;100
2020-12-05 19:05:34;40;0;1;100
2020-12-05 19:10:27;40;0;1;100
2020-12-05 19:15:30;40;0;1;100
2020-12-05 19:20:29;40;0;1;100
2020-12-05 19:25:33;40;0;1;100
2020-12-05 19:30:30;40;0;1;100
2020-12-05 19:35:31;40;0;1;100
2020-12-05 19:40:32;40;0;1;100
2020-12-05 19:45:30;40;0;1;100
2020-12-05 19:50:28;40;0;1;100
2020-12-05 19:55:27;40;0;1;100
2020-12-05 20:00:28;40;0;1;100
2020-12-05 20:05:31;40;0;1;100
2020-12-05 20:10:32;40;0;1;100
2020-12-05 20:15:32;40;0;1;100
2020-12-05 20:20:32;40;0;1;100
2020-12-05 20:25:27;40;0;1;100
2020-12-05 20:30:30;40;0;1;100
2020-12-05 20:35:31;40;0;1;100
2020-12-05 20:40:27;40;0;1;100
2020-12-05 20:45:27;40;0;1;100
2020-12-05 20:50:31;40;0;1;100
2020-12-05 20:55:32;40;0;1;100
2020-12-05 21:00:43;40;0;1;100
2020-12-05 21:05:29;40;0;1;100
2020-12-05 21:10:31;40;0;1;100
2020-12-05 21:15:33;40;0;1;100
2020-12-05 21:20:31;40;0;1;100
2020-12-05 21:25:44;40;0;1;100
2020-12-05 21:30:31;40;0;1;100
2020-12-05 21:35:38;40;0;1;100
2020-12-05 21:40:36;40;0;1;100
2020-12-05 21:45:25;40;0;1;100
2020-12-05 21:50:28;40;0;1;100
2020-12-05 21:55:32;40;0;1;100
2020-12-05 22:00:32;40;0;1;100
2020-12-05 22:05:34;40;0;1;100
2020-12-05 22:10:31;40;0;1;100
2020-12-05 22:15:34;40;0;1;100
2020-12-05 22:20:30;40;0;1;100
2020-12-05 22:25:34;40;0;1;100
2020-12-05 22:30:32;40;0;1;100
2020-12-05 22:35:37;40;0;1;100
2020-12-05 22:40:27;40;0;1;100
2020-12-05 22:45:32;40;0;1;100
2020-12-05 22:50:31;40;0;1;100
2020-12-05 22:55:42;40;0;1;100
2020-12-05 23:00:37;40;0;1;100
2020-12-05 23:05:36;40;0;1;100
2020-12-05 23:10:34;40;0;1;100
2020-12-05 23:15:30;40;0;1;100
2020-12-05 23:20:32;40;0;1;100
2020-12-05 23:25:31;40;0;1;100
2020-12-05 23:30:28;40;0;1;100
2020-12-05 23:35:31;40;0;1;100
2020-12-05 23:40:44;40;0;1;100
2020-12-05 23:45:30;40;0;1;100
2020-12-05 23:50:34;40;0;1;100
2020-12-05 23:55:28;40;0;1;100
2020-12-06 00:00:34;40;0;1;100
2020-12-06 00:05:41;40;0;1;100
2020-12-06 00:10:31;40;0;1;100
2020-12-06 00:15:27;40;0;1;100
2020-12-06 00:20:29;40;0;1;100
2020-12-06 00:25:28;40;0;1;100
2020-12-06 00:30:30;40;0;1;100
2020-12-06 00:35:32;40;0;1;100
2020-12-06 00:40:30;40;0;1;100
2020-12-06 00:45:39;40;0;1;100
2020-12-06 00:50:34;40;0;1;100
2020-12-06 00:55:27;40;0;1;100
2020-12-06 01:00:32;40;0;1;100
2020-12-06 01:05:35;40;0;1;100
2020-12-06 01:10:32;40;0;1;100
2020-12-06 01:15:37;40;0;1;100
2020-12-06 01:20:30;40;0;1;100
2020-12-06 01:25:32;40;0;1;100
2020-12-06 01:30:32;40;0;1;100
2020-12-06 01:35:36;40;0;1;100
2020-12-06 01:40:34;40;0;1;100
2020-12-06 01:45:33;40;0;1;100
2020-12-06 01:50:32;40;0;1;100
2020-12-06 01:55:33;40;0;1;100
2020-12-06 02:00:42;40;0;1;100
2020-12-06 02:05:35;40;0;1;100
2020-12-06 02:10:27;40;0;1;100
2020-12-06 02:15:30;40;0;1;100
2020-12-06 02:20:32;40;0;1;100
2020-12-06 02:25:26;40;0;1;100
2020-12-06 02:30:30;40;0;1;100
2020-12-06 02:35:29;40;0;1;100
2020-12-06 02:40:41;40;0;1;100
2020-12-06 02:45:28;40;0;1;100
2020-12-06 02:50:38;40;0;1;100
2020-12-06 02:55:34;40;0;1;100
2020-12-06 03:00:29;40;0;1;100
2020-12-06 03:05:30;40;0;1;100
2020-12-06 03:10:33;40;0;1;100
2020-12-06 03:15:34;40;0;1;100
2020-12-06 03:20:28;40;0;1;100
2020-12-06 03:25:37;40;0;1;100
2020-12-06 03:30:30;40;0;1;100
2020-12-06 03:35:28;40;0;1;100
2020-12-06 03:40:25;40;0;1;100
2020-12-06 03:45:29;40;0;1;100
2020-12-06 03:50:32;40;0;1;100
2020-12-06 03:55:32;40;0;1;100
2020-12-06 04:00:29;40;0;1;100
2020-12-06 04:05:30;40;0;1;100
2020-12-06 04:10:34;40;0;1;100
2020-12-06 04:15:33;40;0;1;100
2020-12-06 04:20:34;40;0;1;100
2020-12-06 04:25:38;40;0;1;100
2020-12-06 04:30:31;40;0;1;100
2020-12-06 04:35:30;40;0;1;100
2020-12-06 04:40:30;40;0;1;100
2020-12-06 04:45:33;40;0;1;100
2020-12-06 04:50:30;40;0;1;100
2020-12-06 04:55:30;40;0;1;100
2020-12-06 05:00:28;40;0;1;100
2020-12-06 05:05:34;40;0;1;100
2020-12-06 05:10:27;40;0;1;100
2020-12-06 05:15:30;40;0;1;100
2020-12-06 05:20:33;40;0;1;100
2020-12-06 05:25:35;40;0;1;100
2020-12-06 05:30:29;40;0;1;100
2020-12-06 05:35:28;40;0;1;100
2020-12-06 05:40:31;40;0;1;100
2020-12-06 05:45:31;40;0;1;100
2020-12-06 05:50:33;40;0;1;100
2020-12-06 05:55:27;40;0;1;100
2020-12-06 06:00:37;40;0;1;100
2020-12-06 06:05:34;40;0;1;100
2020-12-06 06:10:30;40;0;1;100
2020-12-06 06:15:32;40;0;1;100
2020-12-06 06:20:38;40;0;1;100
2020-12-06 06:25:41;40;0;1;100
2020-12-06 06:30:32;40;0;1;100
2020-12-06 06:35:34;40;0;1;100
2020-12-06 06:40:36;40;0;1;100
2020-12-06 06:45:27;40;0;1;100
2020-12-06 06:50:32;40;0;1;100
2020-12-06 06:55:33;40;0;1;100
2020-12-06 07:00:31;40;0;1;100
2020-12-06 07:05:29;40;0;1;100
2020-12-06 07:10:34;40;0;1;100
2020-12-06 07:15:29;40;0;1;100
2020-12-06 07:20:28;40;0;1;100
2020-12-06 07:25:28;40;0;1;100
2020-12-06 07:30:31;40;0;1;100
2020-12-06 07:35:31;40;0;1;100
2020-12-06 07:40:28;40;0;1;100
2020-12-06 07:45:26;40;0;1;100
2020-12-06 07:50:39;40;0;1;100
2020-12-06 07:55:34;40;0;1;100
2020-12-06 08:00:24;40;0;1;100
2020-12-06 08:05:31;40;0;1;100
2020-12-06 08:10:32;40;0;1;100
2020-12-06 08:15:30;40;0;1;100
2020-12-06 08:20:32;40;0;1;100
2020-12-06 08:25:29;40;0;1;100
2020-12-06 08:30:39;40;0;1;100
2020-12-06 08:35:30;40;0;1;100
2020-12-06 08:40:27;40;0;1;100
2020-12-06 08:45:31;40;0;1;100
2020-12-06 08:50:32;40;0;1;100
2020-12-06 08:55:31;40;0;1;100
2020-12-06 09:00:27;40;0;1;100
2020-12-06 09:05:31;40;0;1;100
2020-12-06 09:10:29;40;0;1;100
2020-12-06 09:15:27;40;0;1;100
2020-12-06 09:20:33;40;0;1;100
2020-12-06 09:25:27;40;0;1;100
2020-12-06 09:30:31;40;0;1;100
2020-12-06 09:35:31;40;0;1;100
2020-12-06 09:40:32;40;0;1;100
2020-12-06 09:45:31;40;0;1;100
2020-12-06 09:50:25;40;0;1;100
2020-12-06 09:55:29;40;0;1;100
2020-12-06 10:00:27;40;0;1;100
2020-12-06 10:05:31;40;0;1;100
2020-12-06 10:10:29;40;0;1;100
2020-12-06 10:15:35;40;0;1;100
2020-12-06 10:20:33;40;0;1;100
2020-12-06 10:25:29;40;0;1;100
2020-12-06 10:30:31;40;0;1;100
2020-12-06 10:35:28;40;0;1;100
2020-12-06 10:40:28;40;0;1;100
2020-12-06 10:45:35;40;0;1;100
2020-12-06 10:50:32;40;0;1;100
2020-12-06 10:55:26;40;0;1;100
2020-12-06 11:00:34;40;0;1;100
2020-12-06 11:05:30;40;0;1;100
2020-12-06 11:10:28;40;0;1;100
2020-12-06 11:15:33;40;0;1;100
2020-12-06 11:20:29;40;0;1;100
2020-12-06 11:25:35;40;0;1;100
2020-12-06 11:30:37;40;0;1;100
2020-12-06 11:35:31;40;0;1;100
2020-12-06 11:40:36;40;0;1;100
2020-12-06 11:45:28;40;0;1;100
2020-12-06 11:50:31;40;0;1;100
2020-12-06 11:55:34;40;0;1;100
2020-12-06 12:00:27;40;0;1;100
2020-12-06 12:05:29;40;0;1;100
2020-12-06 12:10:32;40;0;1;100
2020-12-06 12:15:29;40;0;1;100
2020-12-06 12:20:29;40;0;1;100
2020-12-06 12:25:31;40;0;1;100
2020-12-06 12:30:28;40;0;1;100
2020-12-06 12:35:28;40;0;1;100
2020-12-06 12:40:35;40;0;1;100
2020-12-06 12:45:30;40;0;1;100
2020-12-06 12:50:30;40;0;1;100
2020-12-06 12:55:28;40;0;1;100
2020-12-06 13:00:30;40;0;1;100
2020-12-06 13:05:28;40;0;1;100
2020-12-06 13:10:31;40;0;1;100
2020-12-06 13:15:30;40;0;1;100
2020-12-06 13:20:30;40;0;1;100
2020-12-06 13:25:33;40;0;1;100
2020-12-06 13:30:29;40;0;1;100
2020-12-06 13:35:34;40;0;1;100
2020-12-06 13:40:30;40;0;1;100
2020-12-06 13:45:29;40;0;1;100
2020-12-06 13:50:29;40;0;1;100
2020-12-06 13:55:33;40;0;1;100
2020-12-06 14:00:29;40;0;1;100
2020-12-06 14:05:29;40;0;1;100
2020-12-06 14:10:32;40;0;1;100
2020-12-06 14:15:31;40;0;1;100
2020-12-06 14:20:29;40;0;1;100
2020-12-06 14:25:29;40;0;1;100
2020-12-06 14:30:30;40;0;1;100
2020-12-06 14:35:42;40;0;1;100
2020-12-06 14:40:32;40;0;1;100
2020-12-06 14:45:39;40;0;1;100
2020-12-06 14:50:37;40;0;1;100
2020-12-06 14:55:26;40;0;1;100
2020-12-06 15:00:37;40;0;1;100
2020-12-06 15:05:33;40;0;1;100
2020-12-06 15:10:28;40;0;1;100
2020-12-06 15:15:28;40;0;1;100
2020-12-06 15:20:32;40;0;1;100
2020-12-06 15:25:28;40;0;1;100
2020-12-06 15:30:28;40;0;1;100
2020-12-06 15:35:35;40;0;1;100
2020-12-06 15:40:27;40;0;1;100
2020-12-06 15:45:32;40;0;1;100
2020-12-06 15:50:25;40;0;1;100
2020-12-06 15:55:27;40;0;1;100
2020-12-06 16:00:31;40;0;1;100
2020-12-06 16:05:26;40;0;1;100
2020-12-06 16:10:31;40;0;1;100
2020-12-06 16:15:27;40;0;1;100
2020-12-06 16:20:28;40;0;1;100
2020-12-06 16:25:28;40;0;1;100
2020-12-06 16:30:28;40;0;1;100
2020-12-06 16:35:28;40;0;1;100
2020-12-06 16:40:28;40;0;1;100
2020-12-06 16:45:36;40;0;1;100
2020-12-06 16:50:32;40;0;1;100
2020-12-06 16:55:30;40;0;1;100
2020-12-06 17:00:30;40;0;1;100
2020-12-06 17:05:32;40;0;1;100
2020-12-06 17:10:27;40;0;1;100
2020-12-06 17:15:34;40;0;1;100
2020-12-06 17:20:29;40;0;1;100
2020-12-06 17:25:37;40;0;1;100
2020-12-06 17:30:35;40;0;1;100
2020-12-06 17:35:28;40;0;1;100
2020-12-06 17:40:25;40;0;1;100
2020-12-06 17:45:25;40;0;1;100
2020-12-06 17:50:34;40;0;1;100
2020-12-06 17:55:30;40;0;1;100
2020-12-06 18:00:26;40;0;1;100
2020-12-06 18:05:28;40;0;1;100
2020-12-06 18:10:27;40;0;1;100
2020-12-06 18:15:26;40;0;1;100
2020-12-06 18:20:30;40;0;1;100
2020-12-06 18:25:30;40;0;1;100
2020-12-06 18:30:31;40;0;1;100
2020-12-06 18:35:33;40;0;1;100
2020-12-06 18:40:33;40;0;1;100
2020-12-06 18:45:31;40;0;1;100
2020-12-06 18:50:30;40;0;1;100
2020-12-06 18:55:25;40;0;1;100
2020-12-06 19:00:28;40;0;1;100
2020-12-06 19:05:29;40;0;1;100
2020-12-06 19:10:44;40;0;1;100
2020-12-06 19:15:30;40;0;1;100
2020-12-06 19:20:26;40;0;1;100
2020-12-06 19:25:33;40;0;1;100
2020-12-06 19:30:33;40;0;1;100
2020-12-06 19:35:28;40;0;1;100
2020-12-06 19:40:32;40;0;1;100
2020-12-06 19:45:32;40;0;1;100
2020-12-06 19:50:35;40;0;1;100
2020-12-06 19:55:31;40;0;1;100
2020-12-06 20:00:29;40;0;1;100
2020-12-06 20:05:31;40;0;1;100
2020-12-06 20:10:35;40;0;1;100
2020-12-06 20:15:26;40;0;1;100
2020-12-06 20:20:28;40;0;1;100
2020-12-06 20:25:32;40;0;1;100
2020-12-06 20:30:27;40;0;1;100
2020-12-06 20:35:29;40;0;1;100
2020-12-06 20:40:29;40;0;1;100
2020-12-06 20:45:41;40;0;1;100
2020-12-06 20:50:33;40;0;1;100
2020-12-06 20:55:34;40;0;1;100
2020-12-06 21:00:32;40;0;1;100
2020-12-06 21:05:35;40;0;1;100
2020-12-06 21:10:31;40;0;1;100
2020-12-06 21:15:28;40;0;1;100
2020-12-06 21:20:27;40;0;1;100
2020-12-06 21:25:43;40;0;1;100
2020-12-06 21:30:28;40;0;1;100
2020-12-06 21:35:37;40;0;1;100
2020-12-06 21:40:36;40;0;1;100
2020-12-06 21:45:27;40;0;1;100
2020-12-06 21:50:28;40;0;1;100
2020-12-06 21:55:25;40;0;1;100
2020-12-06 22:00:33;40;0;1;100
2020-12-06 22:05:31;40;0;1;100
2020-12-06 22:10:31;40;0;1;100
2020-12-06 22:15:26;40;0;1;100
2020-12-06 22:20:37;40;0;1;100
2020-12-06 22:25:31;40;0;1;100
2020-12-06 22:30:32;40;0;1;100
2020-12-06 22:35:32;40;0;1;100
2020-12-06 22:40:30;40;0;1;100
2020-12-06 22:45:30;40;0;1;100
2020-12-06 22:50:28;40;0;1;100
2020-12-06 22:55:31;40;0;1;100
2020-12-06 23:00:30;40;0;1;100
2020-12-06 23:05:30;40;0;1;100
2020-12-06 23:10:34;40;0;1;100
2020-12-06 23:15:29;40;0;1;100
2020-12-06 23:20:27;40;0;1;100
2020-12-06 23:25:30;40;0;1;100
2020-12-06 23:30:36;40;0;1;100
2020-12-06 23:35:35;40;0;1;100
2020-12-06 23:40:28;40;0;1;100
2020-12-06 23:45:43;40;0;1;100
2020-12-06 23:50:39;40;0;1;100
2020-12-06 23:55:29;40;0;1;100
2020-12-07 00:00:32;40;0;1;100
2020-12-07 00:05:32;40;0;1;100
2020-12-07 00:10:25;40;0;1;100
2020-12-07 00:15:27;40;0;1;100
2020-12-07 00:20:33;40;0;1;100
2020-12-07 00:25:31;40;0;1;100
2020-12-07 00:30:28;40;0;1;100
2020-12-07 00:35:31;40;0;1;100
2020-12-07 00:40:31;40;0;1;100
2020-12-07 00:45:36;40;0;1;100
2020-12-07 00:50:29;40;0;1;100
2020-12-07 00:55:37;40;0;1;100
2020-12-07 01:00:25;40;0;1;100
2020-12-07 01:05:30;40;0;1;100
2020-12-07 01:10:28;40;0;1;100
2020-12-07 01:15:30;40;0;1;100
2020-12-07 01:20:26;40;0;1;100
2020-12-07 01:25:35;40;0;1;100
2020-12-07 01:30:31;40;0;1;100
2020-12-07 01:35:31;40;0;1;100
2020-12-07 01:40:36;40;0;1;100
2020-12-07 01:45:28;40;0;1;100
2020-12-07 01:50:30;40;0;1;100
2020-12-07 01:55:29;40;0;1;100
2020-12-07 02:00:28;40;0;1;100
2020-12-07 02:05:32;40;0;1;100
2020-12-07 02:10:28;40;0;1;100
2020-12-07 02:15:36;40;0;1;100
2020-12-07 02:20:30;40;0;1;100
2020-12-07 02:25:29;40;0;1;100
2020-12-07 02:30:42;40;0;1;100
2020-12-07 02:35:29;40;0;1;100
2020-12-07 02:40:27;40;0;1;100
2020-12-07 02:45:29;40;0;1;100
2020-12-07 02:50:30;40;0;1;100
2020-12-07 02:55:32;40;0;1;100
2020-12-07 03:00:32;40;0;1;100
2020-12-07 03:05:30;40;0;1;100
2020-12-07 03:10:28;40;0;1;100
2020-12-07 03:15:28;40;0;1;100
2020-12-07 03:20:27;40;0;1;100
2020-12-07 03:25:30;40;0;1;100
2020-12-07 03:30:30;40;0;1;100
2020-12-07 03:35:26;40;0;1;100
2020-12-07 03:40:35;40;0;1;100
2020-12-07 03:45:33;40;0;1;100
2020-12-07 03:50:32;40;0;1;100
2020-12-07 03:55:33;40;0;1;100
2020-12-07 04:00:30;40;0;1;100
2020-12-07 04:05:29;40;0;1;100
2020-12-07 04:10:27;40;0;1;100
2020-12-07 04:15:33;40;0;1;100
2020-12-07 04:20:30;40;0;1;100
2020-12-07 04:25:27;40;0;1;100
2020-12-07 04:30:27;40;0;1;100
2020-12-07 04:35:32;40;0;1;100
2020-12-07 04:40:26;40;0;1;100
2020-12-07 04:45:27;40;0;1;100
2020-12-07 04:50:31;40;0;1;100
2020-12-07 04:55:30;40;0;1;100
2020-12-07 05:00:26;40;0;1;100
2020-12-07 05:05:31;40;0;1;100
2020-12-07 05:10:31;40;0;1;100
2020-12-07 05:15:31;40;0;1;100
2020-12-07 05:20:38;40;0;1;100
2020-12-07 05:25:37;40;0;1;100
2020-12-07 05:30:34;40;0;1;100
2020-12-07 05:35:28;40;0;1;100
2020-12-07 05:40:31;40;0;1;100
2020-12-07 05:45:39;40;0;1;100
2020-12-07 05:50:27;40;0;1;100
2020-12-07 05:55:27;40;0;1;100
2020-12-07 06:00:26;40;0;1;100
2020-12-07 06:05:31;40;0;1;100
2020-12-07 06:10:29;40;0;1;100
2020-12-07 06:15:31;40;0;1;100
2020-12-07 06:20:32;40;0;1;100
2020-12-07 06:25:35;40;0;1;100
2020-12-07 06:30:27;40;0;1;100
2020-12-07 06:35:30;40;0;1;100
2020-12-07 06:40:31;40;0;1;100
2020-12-07 06:45:30;40;0;1;100
2020-12-07 06:50:27;40;0;1;100
2020-12-07 06:55:32;40;0;1;100
2020-12-07 07:00:31;40;0;1;100
2020-12-07 07:05:35;40;0;1;100
2020-12-07 07:10:31;40;0;1;100
2020-12-07 07:15:31;40;0;1;100
2020-12-07 07:20:29;40;0;1;100
2020-12-07 07:25:32;40;0;1;100
2020-12-07 07:30:27;40;0;1;100
2020-12-07 07:35:30;40;0;1;100
2020-12-07 07:40:32;40;0;1;100
2020-12-07 07:45:27;40;0;1;100
2020-12-07 07:50:37;40;0;1;100
2020-12-07 07:55:28;40;0;1;100
2020-12-07 08:00:26;40;0;1;100
2020-12-07 08:05:29;40;0;1;100
2020-12-07 08:10:32;40;0;1;100
2020-12-07 08:15:27;40;0;1;100
2020-12-07 08:20:33;40;0;1;100
2020-12-07 08:25:29;40;0;1;100
2020-12-07 08:30:32;40;0;1;100
2020-12-07 08:35:31;40;0;1;100
2020-12-07 08:40:29;40;0;1;100
2020-12-07 08:45:28;40;0;1;100
2020-12-07 08:50:28;40;0;1;100
2020-12-07 08:55:32;40;0;1;100
2020-12-07 09:00:37;40;0;1;100
2020-12-07 09:05:30;40;0;1;100
2020-12-07 09:10:25;40;0;1;100
2020-12-07 09:15:37;40;0;1;100
2020-12-07 09:20:31;40;0;1;100
2020-12-07 09:25:34;40;0;1;100
2020-12-07 09:30:33;40;0;1;100
2020-12-07 09:35:33;40;0;1;100
2020-12-07 09:40:30;40;0;1;100
2020-12-07 09:45:44;40;0;1;100
2020-12-07 09:50:34;40;0;1;100
2020-12-07 09:55:34;40;0;1;100
2020-12-07 10:00:31;40;0;1;100
2020-12-07 10:05:32;40;0;1;100
2020-12-07 10:10:41;40;0;1;100
2020-12-07 10:15:29;40;0;1;100
2020-12-07 10:20:40;40;0;1;100
2020-12-07 10:25:30;40;0;1;100
2020-12-07 10:30:30;40;0;1;100
2020-12-07 10:35:24;40;0;1;100
2020-12-07 10:40:33;40;0;1;100
2020-12-07 10:45:30;40;0;1;100
2020-12-07 10:50:31;40;0;1;100
2020-12-07 10:55:28;40;0;1;100
2020-12-07 11:00:31;40;0;1;100
2020-12-07 11:05:30;40;0;1;100
2020-12-07 11:10:28;40;0;1;100
2020-12-07 11:15:27;40;0;1;100
2020-12-07 11:20:29;40;0;1;100
2020-12-07 11:25:33;40;0;1;100
2020-12-07 11:30:30;40;0;1;100
2020-12-07 11:35:25;40;0;1;100
2020-12-07 11:40:30;40;0;1;100
2020-12-07 11:45:33;40;0;1;100
2020-12-07 11:50:33;40;0;1;100
2020-12-07 11:55:45;40;0;1;100
2020-12-07 12:00:33;40;0;1;100
2020-12-07 12:05:44;40;0;1;100
2020-12-07 12:10:31;40;0;1;100
2020-12-07 12:15:37;40;0;1;100
2020-12-07 12:20:33;40;0;1;100
2020-12-07 12:25:27;40;0;1;100
2020-12-07 12:30:39;40;0;1;100
2020-12-07 12:35:30;40;0;1;100
2020-12-07 12:40:29;40;0;1;100
2020-12-07 12:45:29;40;0;1;100
2020-12-07 12:50:26;40;0;1;100
2020-12-07 12:55:28;40;0;1;100
2020-12-07 13:00:27;40;0;1;100
2020-12-07 13:05:28;40;0;1;100
2020-12-07 13:10:25;40;0;1;100
2020-12-07 13:15:35;40;0;1;100
2020-12-07 13:20:29;40;0;1;100
2020-12-07 13:25:29;40;0;1;100
2020-12-07 13:30:31;40;0;1;100
2020-12-07 13:35:31;40;0;1;100
2020-12-07 13:40:31;40;0;1;100
2020-12-07 13:45:28;40;0;1;100
2020-12-07 13:50:33;40;0;1;100
2020-12-07 13:55:28;40;0;1;100
2020-12-07 14:00:32;40;0;1;100
2020-12-07 14:05:27;40;0;1;100
2020-12-07 14:10:29;40;0;1;100
2020-12-07 14:15:33;40;0;1;100
2020-12-07 14:20:29;40;0;1;100
2020-12-07 14:25:29;40;0;1;100
2020-12-07 14:30:45;40;0;1;100
2020-12-07 14:35:34;40;0;1;100
2020-12-07 14:40:30;40;0;1;100
2020-12-07 14:45:31;40;0;1;100
2020-12-07 14:50:44;40;0;1;100
2020-12-07 14:55:32;40;0;1;100
2020-12-07 15:00:34;40;0;1;100
2020-12-07 15:05:33;40;0;1;100
2020-12-07 15:10:29;40;0;1;100
2020-12-07 15:15:35;40;0;1;100
2020-12-07 15:20:33;40;0;1;100
2020-12-07 15:25:27;40;0;1;100
2020-12-07 15:30:30;40;0;1;100
2020-12-07 15:35:27;40;0;1;100
2020-12-07 15:40:30;40;0;1;100
2020-12-07 15:45:28;40;0;1;100
2020-12-07 15:50:42;40;0;1;100
2020-12-07 15:55:28;40;0;1;100
2020-12-07 16:00:27;40;0;1;100
2020-12-07 16:05:28;40;0;1;100
2020-12-07 16:10:36;40;0;1;100
2020-12-07 16:15:28;40;0;1;100
2020-12-07 16:20:34;40;0;1;100
2020-12-07 16:25:26;40;0;1;100
2020-12-07 16:30:29;40;0;1;100
2020-12-07 16:35:29;40;0;1;100
2020-12-07 16:40:30;40;0;1;100
2020-12-07 16:45:34;40;0;1;100
2020-12-07 16:50:31;40;0;1;100
2020-12-07 16:55:27;40;0;1;100
2020-12-07 17:00:42;40;0;1;100
2020-12-07 17:05:30;40;0;1;100
2020-12-07 17:10:30;40;0;1;100
2020-12-07 17:15:32;40;0;1;100
2020-12-07 17:20:28;40;0;1;100
2020-12-07 17:25:33;40;0;1;100
2020-12-07 17:30:33;40;0;1;100
2020-12-07 17:35:29;40;0;1;100
2020-12-07 17:40:32;40;0;1;100
2020-12-07 17:45:35;40;0;1;100
2020-12-07 17:50:26;40;0;1;100
2020-12-07 17:55:28;40;0;1;100
2020-12-07 18:00:34;40;0;1;100
2020-12-07 18:05:30;40;0;1;100
2020-12-07 18:10:31;40;0;1;100
2020-12-07 18:15:29;40;0;1;100
2020-12-07 18:20:34;40;0;1;100
2020-12-07 18:25:33;40;0;1;100
2020-12-07 18:30:26;40;0;1;100
2020-12-07 18:35:36;40;0;1;100
2020-12-07 18:40:41;40;0;1;100
2020-12-07 18:45:30;40;0;1;100
2020-12-07 18:50:34;40;0;1;100
2020-12-07 18:55:34;40;0;1;100
2020-12-07 19:00:27;40;0;1;100
2020-12-07 19:05:29;40;0;1;100
2020-12-07 19:10:36;40;0;1;100
2020-12-07 19:15:32;40;0;1;100
2020-12-07 19:20:32;40;0;1;100
2020-12-07 19:25:30;40;0;1;100
2020-12-07 19:30:30;40;0;1;100
2020-12-07 19:35:30;40;0;1;100
2020-12-07 19:40:31;40;0;1;100
2020-12-07 19:45:31;40;0;1;100
2020-12-07 19:50:40;40;0;1;100
2020-12-07 19:55:34;40;0;1;100
2020-12-07 20:00:32;40;0;1;100
2020-12-07 20:05:31;40;0;1;100
2020-12-07 20:10:29;40;0;1;100
2020-12-07 20:15:32;40;0;1;100
2020-12-07 20:20:28;40;0;1;100
2020-12-07 20:25:30;40;0;1;100
2020-12-07 20:30:35;40;0;1;100
2020-12-07 20:35:29;40;0;1;100
2020-12-07 20:40:27;40;0;1;100
2020-12-07 20:45:25;40;0;1;100
2020-12-07 20:50:27;40;0;1;100
2020-12-07 20:55:30;40;0;1;100
2020-12-07 21:00:25;40;0;1;100
2020-12-07 21:05:32;40;0;1;100
2020-12-07 21:10:27;40;0;1;100
2020-12-07 21:15:27;40;0;1;100
2020-12-07 21:20:30;40;0;1;100
2020-12-07 21:25:26;40;0;1;100
2020-12-07 21:30:25;40;0;1;100
2020-12-07 21:35:28;40;0;1;100
2020-12-07 21:40:29;40;0;1;100
2020-12-07 21:45:29;40;0;1;100
2020-12-07 21:50:33;40;0;1;100
2020-12-07 21:55:34;40;0;1;100
2020-12-07 22:00:31;40;0;1;100
2020-12-07 22:05:32;40;0;1;100
2020-12-07 22:10:30;40;0;1;100
2020-12-07 22:15:31;40;0;1;100
2020-12-07 22:20:34;40;0;1;100
2020-12-07 22:25:33;40;0;1;100
2020-12-07 22:30:29;40;0;1;100
2020-12-07 22:35:30;40;0;1;100
2020-12-07 22:40:27;40;0;1;100
2020-12-07 22:45:29;40;0;1;100
2020-12-07 22:50:28;40;0;1;100
2020-12-07 22:55:30;40;0;1;100
2020-12-07 23:00:33;40;0;1;100
2020-12-07 23:05:31;40;0;1;100
2020-12-07 23:10:28;40;0;1;100
2020-12-07 23:15:25;40;0;1;100
2020-12-07 23:20:27;40;0;1;100
2020-12-07 23:25:28;40;0;1;100
2020-12-07 23:30:28;40;0;1;100
2020-12-07 23:35:24;40;0;1;100
2020-12-07 23:40:35;40;0;1;100
2020-12-07 23:45:28;40;0;1;100
2020-12-07 23:50:33;40;0;1;100
2020-12-07 23:55:26;40;0;1;100
2020-12-08 00:00:36;40;0;1;100
2020-12-08 00:05:28;40;0;1;100
2020-12-08 00:10:30;40;0;1;100
2020-12-08 00:15:33;40;0;1;100
2020-12-08 00:20:31;40;0;1;100
2020-12-08 00:25:27;40;0;1;100
2020-12-08 00:30:30;40;0;1;100
2020-12-08 00:35:28;40;0;1;100
2020-12-08 00:40:27;40;0;1;100
2020-12-08 00:45:28;40;0;1;100
2020-12-08 00:50:28;40;0;1;100
2020-12-08 00:55:27;40;0;1;100
2020-12-08 01:00:35;40;0;1;100
2020-12-08 01:05:32;40;0;1;100
2020-12-08 01:10:30;40;0;1;100
2020-12-08 01:15:28;40;0;1;100
2020-12-08 01:20:33;40;0;1;100
2020-12-08 01:25:27;40;0;1;100
2020-12-08 01:30:27;40;0;1;100
2020-12-08 01:35:26;40;0;1;100
2020-12-08 01:40:31;40;0;1;100
2020-12-08 01:45:34;40;0;1;100
2020-12-08 01:50:33;40;0;1;100
2020-12-08 01:55:25;40;0;1;100
2020-12-08 02:00:29;40;0;1;100
2020-12-08 02:05:36;40;0;1;100
2020-12-08 02:10:33;40;0;1;100
2020-12-08 02:15:29;40;0;1;100
2020-12-08 02:20:28;40;0;1;100
2020-12-08 02:25:25;40;0;1;100
2020-12-08 02:30:33;40;0;1;100
2020-12-08 02:35:25;40;0;1;100
2020-12-08 02:40:28;40;0;1;100
2020-12-08 02:45:27;40;0;1;100
2020-12-08 02:50:39;40;0;1;100
2020-12-08 02:55:29;40;0;1;100
2020-12-08 03:00:25;40;0;1;100
2020-12-08 03:05:32;40;0;1;100
2020-12-08 03:10:30;40;0;1;100
2020-12-08 03:15:31;40;0;1;100
2020-12-08 03:20:33;40;0;1;100
2020-12-08 03:25:28;40;0;1;100
2020-12-08 03:30:29;40;0;1;100
2020-12-08 03:35:33;40;0;1;100
2020-12-08 03:40:28;40;0;1;100
2020-12-08 03:45:29;40;0;1;100
2020-12-08 03:50:33;40;0;1;100
2020-12-08 03:55:27;40;0;1;100
2020-12-08 04:00:33;40;0;1;100
2020-12-08 04:05:33;40;0;1;100
2020-12-08 04:10:29;40;0;1;100
2020-12-08 04:15:28;40;0;1;100
2020-12-08 04:20:30;40;0;1;100
2020-12-08 04:25:30;40;0;1;100
2020-12-08 04:30:28;40;0;1;100
2020-12-08 04:35:32;40;0;1;100
2020-12-08 04:40:29;40;0;1;100
2020-12-08 04:45:28;40;0;1;100
2020-12-08 04:50:27;40;0;1;100
2020-12-08 04:55:29;40;0;1;100
2020-12-08 05:00:27;40;0;1;100
2020-12-08 05:05:29;40;0;1;100
2020-12-08 05:10:30;40;0;1;100
2020-12-08 05:15:26;40;0;1;100
2020-12-08 05:20:30;40;0;1;100
2020-12-08 05:25:32;40;0;1;100
2020-12-08 05:30:27;40;0;1;100
2020-12-08 05:35:33;40;0;1;100
2020-12-08 05:40:26;40;0;1;100
2020-12-08 05:45:32;40;0;1;100
2020-12-08 05:50:32;40;0;1;100
2020-12-08 05:55:30;40;0;1;100
2020-12-08 06:00:30;40;0;1;100
2020-12-08 06:05:31;40;0;1;100
2020-12-08 06:10:33;40;0;1;100
2020-12-08 06:15:37;40;0;1;100
2020-12-08 06:20:34;40;0;1;100
2020-12-08 06:25:32;40;0;1;100
2020-12-08 06:30:35;40;0;1;100
2020-12-08 06:35:30;40;0;1;100
2020-12-08 06:40:31;40;0;1;100
2020-12-08 06:45:38;40;0;1;100
2020-12-08 06:50:29;40;0;1;100
2020-12-08 06:55:32;40;0;1;100
2020-12-08 07:00:35;40;0;1;100
2020-12-08 07:05:33;40;0;1;100
2020-12-08 07:10:33;40;0;1;100
2020-12-08 07:15:33;40;0;1;100
2020-12-08 07:20:30;40;0;1;100
2020-12-08 07:25:31;40;0;1;100
2020-12-08 07:30:32;40;0;1;100
2020-12-08 07:35:30;40;0;1;100
2020-12-08 07:40:30;40;0;1;100
2020-12-08 07:45:36;40;0;1;100
2020-12-08 07:50:27;40;0;1;100
2020-12-08 07:55:31;40;0;1;100
2020-12-08 08:00:32;40;0;1;100
2020-12-08 08:05:37;40;0;1;100
2020-12-08 08:10:31;40;0;1;100
2020-12-08 08:15:48;40;0;1;100
2020-12-08 08:20:34;40;0;1;100
2020-12-08 08:25:33;40;0;1;100
2020-12-08 08:30:35;40;0;1;100
2020-12-08 08:35:36;40;0;1;100
2020-12-08 08:40:29;40;0;1;100
2020-12-08 08:45:33;40;0;1;100
2020-12-08 08:50:33;40;0;1;100
2020-12-08 08:55:33;40;0;1;100
2020-12-08 09:00:30;40;0;1;100
2020-12-08 09:05:28;40;0;1;100
2020-12-08 09:10:33;40;0;1;100
2020-12-08 09:15:36;40;0;1;100
2020-12-08 09:20:28;40;0;1;100
2020-12-08 09:25:30;40;0;1;100
2020-12-08 09:30:28;40;0;1;100
2020-12-08 09:35:31;40;0;1;100
2020-12-08 09:40:28;40;0;1;100
2020-12-08 09:45:28;40;0;1;100
2020-12-08 09:50:29;40;0;1;100
2020-12-08 09:55:30;40;0;1;100
2020-12-08 10:00:32;40;0;1;100
2020-12-08 10:05:39;40;0;1;100
2020-12-08 10:10:30;40;0;1;100
2020-12-08 10:15:30;40;0;1;100
2020-12-08 10:20:30;40;0;1;100
2020-12-08 10:25:32;40;0;1;100
2020-12-08 10:30:32;40;0;1;100
2020-12-08 10:35:30;40;0;1;100
2020-12-08 10:40:30;40;0;1;100
2020-12-08 10:45:41;40;0;1;100
2020-12-08 10:50:30;40;0;1;100
2020-12-08 10:55:31;40;0;1;100
2020-12-08 11:00:29;40;0;1;100
2020-12-08 11:05:32;40;0;1;100
2020-12-08 11:10:27;40;0;1;100
2020-12-08 11:15:28;40;0;1;100
2020-12-08 11:20:30;40;0;1;100
2020-12-08 11:25:30;40;0;1;100
2020-12-08 11:30:35;40;0;1;100
2020-12-08 11:35:36;40;0;1;100
2020-12-08 11:40:32;40;0;1;100
2020-12-08 11:45:28;40;0;1;100
2020-12-08 11:50:30;40;0;1;100
2020-12-08 11:55:32;40;0;1;100
2020-12-08 12:00:30;40;0;1;100
2020-12-08 12:05:29;40;0;1;100
2020-12-08 12:10:29;40;0;1;100
2020-12-08 12:15:31;40;0;1;100
2020-12-08 12:20:31;40;0;1;100
2020-12-08 12:25:30;40;0;1;100
2020-12-08 12:30:32;40;0;1;100
2020-12-08 12:35:36;40;0;1;100
2020-12-08 12:40:36;40;0;1;100
2020-12-08 12:45:32;40;0;1;100
2020-12-08 12:50:34;40;0;1;100
2020-12-08 12:55:28;40;0;1;100
2020-12-08 13:00:38;40;0;1;100
2020-12-08 13:05:33;40;0;1;100
2020-12-08 13:10:33;40;0;1;100
2020-12-08 13:15:27;40;0;1;100
2020-12-08 13:20:31;40;0;1;100
2020-12-08 13:25:34;40;0;1;100
2020-12-08 13:30:32;40;0;1;100
2020-12-08 13:35:31;40;0;1;100
2020-12-08 13:40:28;40;0;1;100
2020-12-08 13:45:28;40;0;1;100
2020-12-08 13:50:37;40;0;1;100
2020-12-08 13:55:32;40;0;1;100
2020-12-08 14:00:28;40;0;1;100
2020-12-08 14:05:25;40;0;1;100
2020-12-08 14:10:32;40;0;1;100
2020-12-08 14:15:29;40;0;1;100
2020-12-08 14:20:31;40;0;1;100
2020-12-08 14:25:29;40;0;1;100
2020-12-08 14:30:29;40;0;1;100
2020-12-08 14:35:30;40;0;1;100
2020-12-08 14:40:41;40;0;1;100
2020-12-08 14:45:26;40;0;1;100
2020-12-08 14:50:28;40;0;1;100
2020-12-08 14:55:32;40;0;1;100
2020-12-08 15:00:30;40;0;1;100
2020-12-08 15:05:28;40;0;1;100
2020-12-08 15:10:34;40;0;1;100
2020-12-08 15:15:30;40;0;1;100
2020-12-08 15:20:31;40;0;1;100
2020-12-08 15:25:29;40;0;1;100
2020-12-08 15:30:29;40;0;1;100
2020-12-08 15:35:30;40;0;1;100
2020-12-08 15:40:35;40;0;1;100
2020-12-08 15:45:28;40;0;1;100
2020-12-08 15:50:29;40;0;1;100
2020-12-08 15:55:38;40;0;1;100
2020-12-08 16:00:29;40;0;1;100
2020-12-08 16:05:35;40;0;1;100
2020-12-08 16:10:28;40;0;1;100
2020-12-08 16:15:28;40;0;1;100
2020-12-08 16:20:26;40;0;1;100
2020-12-08 16:25:29;40;0;1;100
2020-12-08 16:30:28;40;0;1;100
2020-12-08 16:35:27;40;0;1;100
2020-12-08 16:40:29;40;0;1;100
2020-12-08 16:45:30;40;0;1;100
