2020-12-08 15:50:29;-209;-246;1770;1547
2020-12-08 15:55:38;625;-239;1669;1288
2020-12-08 16:00:29;626;-236;2609;1380
2020-12-08 16:05:35;630;-242;1932;2488
2020-12-08 16:10:28;624;-236;1319;1288
2020-12-08 16:15:28;626;-232;1529;1291
2020-12-08 16:20:26;623;-228;1330;1291
2020-12-08 16:25:29;618;-228;1322;1294
2020-12-08 16:30:28;615;-229;1335;1866
2020-12-08 16:35:27;636;-225;1538;1305
2020-12-08 16:40:29;618;-226;1346;2521
2020-12-08 16:45:30;631;-222;1320;2630
