2020-11-30 00:00:40;1427;-779;3230;1823
2020-11-30 00:05:34;1430;-777;2606;1768
2020-11-30 00:10:30;1431;-774;2496;1788
2020-11-30 00:15:36;1435;-773;1823;1724
2020-11-30 00:20:31;1423;-778;3246;2204
2020-11-30 00:25:38;1409;-785;3497;2299
2020-11-30 00:30:28;1454;-778;1998;2055
2020-11-30 00:35:33;1439;-779;1804;2907
2020-11-30 00:40:36;1426;-778;2633;2065
2020-11-30 00:45:33;-30;-779;2313;2061
2020-11-30 00:50:37;1423;-788;2085;2893
2020-11-30 00:55:34;-30;-772;1800;1982
2020-11-30 01:00:35;1418;-771;2251;2216
2020-11-30 01:05:34;1415;-783;1736;2220
2020-11-30 01:10:27;1415;-786;2863;3426
2020-11-30 01:15:31;1414;-778;2916;1697
2020-11-30 01:20:38;1422;-788;2450;1595
2020-11-30 01:25:41;1409;-781;1685;1613
2020-11-30 01:30:31;1410;-788;1664;1611
2020-11-30 01:35:44;1401;-788;1641;1692
2020-11-30 01:40:34;1388;-786;3281;1680
2020-11-30 01:45:29;1384;-781;1601;1561
2020-11-30 01:50:30;1373;-2200;1665;1905
2020-11-30 01:55:34;-30;-2200;2726;1642
2020-11-30 02:00:34;1376;-790;1663;1922
2020-11-30 02:05:28;1373;-794;2631;1658
2020-11-30 02:10:36;1363;-796;3149;3236
2020-11-30 02:15:34;1363;-785;1776;1487
2020-11-30 02:21:02;1352;-780;1623;1441
2020-11-30 02:25:36;1346;-2200;1656;1697
2020-11-30 02:30:32;1348;-788;1585;1596
2020-11-30 02:35:37;1346;-787;1622;1565
2020-11-30 02:40:29;1336;-782;2946;1537
2020-11-30 02:45:32;1341;-782;3148;1710
2020-11-30 02:50:45;1350;-789;3182;3145
2020-11-30 02:55:29;1344;-787;2051;1514
2020-11-30 03:00:26;1331;-813;1925;1483
2020-11-30 03:05:29;1336;-789;2904;2293
2020-11-30 03:10:30;1330;-788;2153;2479
2020-11-30 03:15:27;1320;-781;2383;1527
2020-11-30 03:20:33;1320;-779;1657;2085
2020-11-30 03:25:31;1311;-789;2787;2428
2020-11-30 03:30:33;1331;-789;1829;1530
2020-11-30 03:35:37;1327;-779;1632;1630
2020-11-30 03:40:29;1316;-788;2273;3060
2020-11-30 03:45:42;1308;-787;2597;1494
2020-11-30 03:50:29;1308;-788;2327;1622
2020-11-30 03:55:29;1303;-787;1762;1538
2020-11-30 04:00:40;1307;-791;1596;1616
2020-11-30 04:05:31;1304;-780;2862;1617
2020-11-30 04:10:40;1287;-788;3106;1858
2020-11-30 04:15:31;1298;-788;3201;1950
2020-11-30 04:20:51;-214;-787;2769;1561
2020-11-30 04:25:45;1384;-778;1844;1569
2020-11-30 04:30:36;1383;-785;1819;2189
2020-11-30 04:35:34;1375;-782;1873;1610
2020-11-30 04:40:31;1339;-781;3049;1564
2020-11-30 04:45:44;1333;-772;1733;1489
2020-11-30 04:50:37;1316;-781;1735;1578
2020-11-30 04:55:39;1311;-792;1604;1567
2020-11-30 05:00:34;1308;-776;1589;1557
2020-11-30 05:05:32;1305;-784;1696;1625
2020-11-30 05:10:31;1309;-783;1587;1532
2020-11-30 05:15:38;1291;-782;3117;1660
2020-11-30 05:20:34;1294;-773;2661;1605
2020-11-30 05:25:38;1295;-781;1477;2621
2020-11-30 05:30:32;1302;-779;1872;1646
2020-11-30 05:35:32;1301;-788;1745;1734
2020-11-30 05:40:41;1293;-778;2420;1450
2020-11-30 05:45:33;1310;-784;2363;1552
2020-11-30 05:50:40;1303;-779;2473;1623
2020-11-30 05:55:30;-214;-785;1439;1898
2020-11-30 06:00:42;1293;-794;1877;1725
2020-11-30 06:05:36;1277;-783;1885;2184
2020-11-30 06:10:30;1272;-2200;2273;1597
2020-11-30 06:15:41;1262;-790;1988;1610
2020-11-30 06:20:33;1260;-783;2863;1449
2020-11-30 06:25:56;1248;-786;1705;1564
2020-11-30 06:30:33;1263;-789;1541;2340
2020-11-30 06:35:33;1272;-789;1699;1786
2020-11-30 06:40:37;1265;-788;1935;1522
2020-11-30 06:45:32;1272;-783;2175;1465
2020-11-30 06:50:30;1267;-794;1566;2951
2020-11-30 06:55:29;1256;-2200;1475;1758
2020-11-30 07:00:32;1249;-780;1429;1479
2020-11-30 07:05:32;1244;-773;1294;1548
2020-11-30 07:10:46;1227;-782;2711;1483
2020-11-30 07:15:29;1309;-784;1516;1497
2020-11-30 07:20:34;1323;-782;2252;1420
2020-11-30 07:25:27;1311;-778;1584;1499
2020-11-30 07:30:34;-212;-794;1668;2380
2020-11-30 07:35:30;1310;-781;2797;1389
2020-11-30 07:40:30;1288;-779;1988;1290
2020-11-30 07:45:42;1294;-779;1740;1598
2020-11-30 07:50:32;1306;-780;1592;1226
2020-11-30 07:55:30;1400;-792;1578;1358
2020-11-30 08:00:32;1391;-2200;2591;2786
2020-11-30 08:05:30;1367;-782;2167;1464
2020-11-30 08:10:35;1394;-779;2527;1932
2020-11-30 08:15:35;1352;-775;2120;1876
2020-11-30 08:20:32;1338;-775;1753;1513
2020-11-30 08:25:34;1340;-784;1683;1562
2020-11-30 08:30:29;1358;-776;1646;2234
2020-11-30 08:35:39;1358;-786;1491;1768
2020-11-30 08:40:37;1360;-789;2641;1681
2020-11-30 08:45:40;1367;-782;2541;1379
2020-11-30 08:50:29;1353;-771;1345;1422
2020-11-30 08:55:27;1357;-1143;2212;1566
2020-11-30 09:00:31;1357;-781;1774;2806
2020-11-30 09:05:43;1346;-778;2331;1522
2020-11-30 09:10:33;1355;-779;1493;2327
2020-11-30 09:15:30;1357;-788;2901;2193
2020-11-30 09:20:35;1360;-788;1472;1240
2020-11-30 09:25:34;1364;-787;2760;1242
2020-11-30 09:30:36;1371;-777;1449;1355
2020-11-30 09:35:40;1360;-784;1525;1320
2020-11-30 09:40:30;1352;-784;1487;2404
2020-11-30 09:45:36;1358;-790;1549;1258
2020-11-30 09:50:38;1354;-790;1850;1767
2020-11-30 09:55:54;1352;-787;2389;1910
2020-11-30 10:00:39;1354;-786;1523;2413
2020-11-30 10:05:35;1322;-773;2027;1869
2020-11-30 10:10:52;1358;-788;2911;2361
2020-11-30 10:15:32;1339;-769;2744;1581
2020-11-30 10:20:34;1343;-767;2282;1483
2020-11-30 10:25:38;1343;-780;2135;1383
2020-11-30 10:30:28;1330;-777;1456;2665
2020-11-30 10:35:29;1336;-775;1719;1279
2020-11-30 10:40:32;1330;-2200;2644;1458
2020-11-30 10:45:37;1333;-776;1354;1336
2020-11-30 10:50:38;1336;-768;1318;1330
2020-11-30 10:55:29;1337;-778;2545;1319
2020-11-30 11:00:27;-30;-776;1333;2374
2020-11-30 11:05:34;1326;-780;2444;1787
2020-11-30 11:10:34;1320;-775;2749;1415
2020-11-30 11:15:34;1304;-781;1561;1235
2020-11-30 11:20:34;1309;-781;2371;1517
2020-11-30 11:25:32;1321;-777;2271;1449
2020-11-30 11:30:32;1325;-779;1550;1379
2020-11-30 11:35:35;1326;-776;2279;1373
2020-11-30 11:40:41;1338;-783;1708;1762
2020-11-30 11:45:31;1342;-785;2772;1395
2020-11-30 11:50:34;1346;-783;1490;1070
2020-11-30 11:55:38;1348;-788;1519;1418
2020-11-30 12:00:29;1347;-791;1414;1371
2020-11-30 12:05:28;1347;-780;1729;1274
2020-11-30 12:10:31;1344;-788;2047;1245
2020-11-30 12:15:28;1343;-782;1892;2231
2020-11-30 12:20:43;1444;-787;1044;1175
2020-11-30 12:25:33;-211;-792;1731;2652
2020-11-30 12:30:37;1247;-831;1600;1968
2020-11-30 12:35:38;1240;-803;1909;1991
2020-11-30 12:40:34;1241;-834;1647;1874
2020-11-30 12:45:39;1273;-837;1800;1857
2020-11-30 12:50:36;1302;-828;1704;2320
2020-11-30 12:55:45;1288;-830;2475;2440
2020-11-30 13:00:33;1303;-831;1676;2777
2020-11-30 13:05:34;1211;-836;2422;1724
2020-11-30 13:10:35;-229;-829;1821;1557
2020-11-30 13:15:42;-30;-1143;1672;1916
2020-11-30 13:20:39;1234;-819;2451;1579
2020-11-30 13:25:35;1179;-827;1648;1699
2020-11-30 13:30:33;1293;-822;2338;1570
2020-11-30 13:35:34;1161;-818;2197;1934
2020-11-30 13:40:37;1158;-811;2184;2424
2020-11-30 13:45:39;1349;-802;2168;1723
2020-11-30 13:50:51;1198;-813;1649;2164
2020-11-30 13:55:32;1136;-813;2015;2553
2020-11-30 14:00:35;1226;-805;2262;1515
2020-11-30 14:05:34;1244;-792;1744;1638
2020-11-30 14:10:44;1164;-796;2140;1559
2020-11-30 14:15:52;1248;-784;2738;1557
2020-11-30 14:20:30;1349;-777;1714;3002
2020-11-30 14:25:33;1159;-775;2342;2306
2020-11-30 14:30:34;1241;-749;2582;1999
2020-11-30 14:35:39;1262;-760;1704;1669
2020-11-30 14:40:34;1271;-755;2065;1661
2020-11-30 14:45:37;1305;-759;1586;1852
2020-11-30 14:50:38;1106;-762;2279;1658
2020-11-30 14:55:34;1309;-741;1712;1893
2020-11-30 15:00:37;1330;-749;2099;2601
2020-11-30 15:05:48;1349;-2200;2115;2827
2020-11-30 15:10:33;1358;-747;2852;2800
2020-11-30 15:15:38;1379;-734;1681;1848
2020-11-30 15:20:53;1400;-731;1833;2128
2020-11-30 15:25:38;1389;-728;1799;1984
2020-11-30 15:30:38;1373;-727;1668;1664
2020-11-30 15:35:34;1410;-723;2001;2355
2020-11-30 15:40:32;1379;-712;1613;2227
2020-11-30 15:45:57;1410;-721;1966;1907
2020-11-30 15:50:34;1406;-711;2320;2226
2020-11-30 15:55:30;1377;-709;2361;2346
2020-11-30 16:00:32;1288;-734;1869;1561
2020-11-30 16:05:36;1238;-741;1714;2594
2020-11-30 16:10:36;1331;-2200;2286;2088
2020-11-30 16:15:35;1330;-750;1624;2510
2020-11-30 16:20:31;1331;-752;3067;3073
2020-11-30 16:25:34;1326;-790;2984;2940
2020-11-30 16:30:38;1304;-798;1753;1682
2020-11-30 16:35:45;1196;-789;2506;1693
2020-11-30 16:40:41;1331;-788;2493;1896
2020-11-30 16:45:37;1323;-2200;2055;3317
2020-11-30 16:50:37;1307;-788;2553;1762
2020-11-30 16:55:32;1324;-775;1988;2876
2020-11-30 17:00:35;1315;-771;2741;1757
2020-11-30 17:05:32;1291;-773;2643;1753
2020-11-30 17:10:44;1323;-762;2246;1773
2020-11-30 17:15:41;1302;-757;2466;1918
2020-11-30 17:20:42;1362;-766;2150;1961
2020-11-30 17:25:35;1329;-758;3107;2027
2020-11-30 17:30:35;1325;-763;2627;1766
2020-11-30 17:35:31;1330;-759;2446;2066
2020-11-30 17:40:45;-30;-752;2334;2133
2020-11-30 17:45:39;-30;-743;2234;2181
2020-11-30 17:50:46;1336;-740;2702;1997
2020-11-30 17:55:38;1340;-745;2955;2502
2020-11-30 18:00:40;1337;-732;1861;2349
2020-11-30 18:05:41;1366;-730;1873;1847
2020-11-30 18:10:43;1378;-722;1853;2496
2020-11-30 18:15:31;1325;-728;1974;3368
2020-11-30 18:20:39;1291;-718;3020;2655
2020-11-30 18:25:37;1323;-732;3079;2410
2020-11-30 18:30:45;1328;-725;2614;2462
2020-11-30 18:35:50;1320;-721;2009;2973
2020-11-30 18:40:52;1329;-710;2611;2510
2020-11-30 18:45:38;1335;-1143;2805;2527
2020-11-30 18:50:37;1352;-711;3114;2712
2020-11-30 18:55:41;1307;-693;2879;2082
2020-11-30 19:00:31;1204;-689;1880;1990
2020-11-30 19:05:34;1206;-683;2783;1871
2020-11-30 19:10:44;1212;-653;1931;3103
2020-11-30 19:15:36;1127;-614;2647;3006
2020-11-30 19:20:32;1114;-622;2735;2786
2020-11-30 19:25:32;1141;-648;2135;2310
2020-11-30 19:30:40;1233;-724;2098;3015
2020-11-30 19:35:38;-218;-709;3570;2858
2020-11-30 19:40:43;1245;-712;2089;1937
2020-11-30 19:45:33;1250;-702;2111;2579
2020-11-30 19:50:36;1171;-649;2007;2923
2020-11-30 19:55:46;1241;-721;2361;2088
2020-11-30 20:00:40;1244;-705;2620;2619
2020-11-30 20:05:42;1267;-707;3312;3060
2020-11-30 20:10:37;1261;-675;3194;3043
2020-11-30 20:15:35;1259;-682;2677;2628
2020-11-30 20:20:21;1264;-675;2822;2506
2020-11-30 20:25:34;1274;-2200;2266;2273
2020-11-30 20:30:41;1268;-675;2294;2548
2020-11-30 20:35:38;1279;-674;3524;2679
2020-11-30 20:40:47;1281;-664;4079;3227
2020-11-30 20:45:34;1277;-648;2852;2835
2020-11-30 20:50:42;1283;-647;2857;3372
2020-11-30 20:55:59;1273;-637;3399;3800
2020-11-30 21:00:44;1288;-642;2855;2419
2020-11-30 21:05:40;1289;-629;2998;2707
2020-11-30 21:10:42;1291;-624;2992;2026
2020-11-30 21:15:36;-217;-617;3309;3417
2020-11-30 21:20:39;1300;-613;2752;3846
2020-11-30 21:25:42;1293;-609;2888;2455
2020-11-30 21:30:37;1303;-605;2901;2178
2020-11-30 21:35:40;1308;-599;2340;3307
2020-11-30 21:40:40;1308;-601;3198;2190
2020-11-30 21:45:45;1297;-592;3054;3172
2020-11-30 21:50:39;1292;-588;3587;3176
2020-11-30 21:55:37;1289;-566;2489;2740
2020-11-30 22:00:43;1279;-558;2487;2729
2020-11-30 22:05:40;1276;-574;3178;2451
2020-11-30 22:10:34;1264;-581;3048;2579
2020-11-30 22:15:37;-30;-568;3588;2024
2020-11-30 22:20:48;1246;-578;3019;2856
2020-11-30 22:25:31;1244;-563;4099;2705
2020-11-30 22:30:41;1245;-557;2446;3238
2020-11-30 22:35:41;1243;-555;2715;2415
2020-11-30 22:40:55;1254;-547;4087;2960
2020-11-30 22:45:39;1241;-557;2277;2073
2020-11-30 22:50:37;1278;-687;2558;2740
2020-11-30 22:55:41;1287;-2200;1984;2240
2020-11-30 23:00:39;1262;-669;2901;2649
2020-11-30 23:05:35;1304;-689;2396;3827
2020-11-30 23:10:35;1272;-684;2246;2080
2020-11-30 23:15:40;1267;-688;3210;2221
2020-11-30 23:20:44;1261;-680;3388;3033
2020-11-30 23:25:36;1271;-696;3300;2721
2020-11-30 23:30:35;1275;-693;3659;3496
2020-11-30 23:35:51;-30;-695;2526;2628
2020-11-30 23:40:34;1284;-698;2922;1922
2020-11-30 23:45:41;1264;-701;2619;2584
2020-11-30 23:50:45;-30;-700;2377;3004
2020-11-30 23:55:39;1291;-701;2743;2224
2020-12-01 00:00:44;-228;-722;2369;1942
2020-12-01 00:05:39;1250;-721;2990;2087
2020-12-01 00:10:38;1198;-715;2216;2855
2020-12-01 00:15:41;1216;-717;2316;2305
2020-12-01 00:20:38;1178;-720;2361;2175
2020-12-01 00:25:52;1218;-728;2993;2622
2020-12-01 00:30:39;1109;-740;2870;2606
2020-12-01 00:35:42;1241;-731;3866;2623
2020-12-01 00:40:33;1202;-788;2730;2784
2020-12-01 00:45:42;1116;-792;1922;1888
2020-12-01 00:50:34;1179;-813;2201;2429
2020-12-01 00:55:47;1156;-789;2120;1881
2020-12-01 01:00:33;1219;-787;2158;2713
2020-12-01 01:05:40;1155;-790;2303;1891
2020-12-01 01:10:34;1142;-794;2406;2813
2020-12-01 01:15:31;1044;-793;2075;2292
2020-12-01 01:20:39;1114;-801;2821;2473
2020-12-01 01:25:45;1146;-813;1887;2704
2020-12-01 01:30:35;1135;-812;2017;2581
2020-12-01 01:35:30;-207;-818;2662;2489
2020-12-01 01:40:33;1139;-816;1925;2028
2020-12-01 01:45:31;1089;-813;2604;2260
2020-12-01 01:50:37;1060;-817;2755;2632
2020-12-01 01:55:32;-30;-832;3238;2457
2020-12-01 02:00:31;922;-815;2036;1868
2020-12-01 02:05:37;952;-819;2430;2115
2020-12-01 02:10:34;1094;-806;3688;1876
2020-12-01 02:15:38;1027;-813;2640;2714
2020-12-01 02:20:37;949;-829;2685;2240
2020-12-01 02:25:39;944;-813;3014;2525
2020-12-01 02:30:40;997;-815;2925;2366
2020-12-01 02:35:43;972;-822;2172;1858
2020-12-01 02:40:35;926;-822;2469;1959
2020-12-01 02:45:39;1173;-815;2352;2123
2020-12-01 02:50:38;935;-811;1861;2424
2020-12-01 02:55:40;954;-828;1997;2255
2020-12-01 03:00:33;975;-828;2935;1862
2020-12-01 03:05:33;991;-797;2262;1847
2020-12-01 03:10:35;979;-825;2649;2650
2020-12-01 03:15:30;895;-809;2420;1846
2020-12-01 03:20:35;960;-834;3294;1948
2020-12-01 03:25:30;946;-824;2838;2691
2020-12-01 03:30:34;947;-829;2382;2183
2020-12-01 03:35:32;995;-833;2815;2308
2020-12-01 03:40:38;996;-820;3583;2759
2020-12-01 03:45:32;1261;-829;3260;2440
2020-12-01 03:50:34;1065;-814;2299;2102
2020-12-01 03:55:30;1037;-820;3074;1845
2020-12-01 04:00:33;1027;-829;2080;2185
2020-12-01 04:05:32;961;-843;3346;1867
2020-12-01 04:10:51;1082;-823;3518;1836
2020-12-01 04:15:33;1021;-818;2432;2240
2020-12-01 04:20:43;1024;-825;1903;2121
2020-12-01 04:25:39;1058;-840;2116;2659
2020-12-01 04:30:35;1274;-828;2925;2063
2020-12-01 04:35:36;1155;-822;3299;2483
2020-12-01 04:40:33;991;-829;3296;2754
2020-12-01 04:45:30;1020;-829;1871;1873
2020-12-01 04:50:33;1037;-815;1885;2772
2020-12-01 04:55:41;1053;-836;2363;2378
2020-12-01 05:00:32;1069;-832;2460;2442
2020-12-01 05:05:42;1016;-835;1816;1874
2020-12-01 05:10:34;1033;-829;2205;2468
2020-12-01 05:15:56;1038;-824;2626;1820
2020-12-01 05:20:43;976;-826;2333;2743
2020-12-01 05:25:37;1015;-822;3090;1950
2020-12-01 05:30:39;-30;-831;2354;1967
2020-12-01 05:35:37;1065;-830;1974;1879
2020-12-01 05:40:35;1092;-822;2465;2838
2020-12-01 05:45:38;961;-816;2618;3352
2020-12-01 05:50:41;1077;-818;2564;2549
2020-12-01 05:55:36;1249;-836;2145;2068
2020-12-01 06:00:45;1278;-828;2092;1864
2020-12-01 06:05:38;-233;-845;2895;3150
2020-12-01 06:10:54;1314;-861;2347;2389
2020-12-01 06:15:40;1231;-852;1823;1843
2020-12-01 06:20:39;1070;-860;2107;1901
2020-12-01 06:25:47;1085;-857;3158;2361
2020-12-01 06:30:38;1082;-847;2171;2472
2020-12-01 06:35:43;1197;-850;3161;2266
2020-12-01 06:40:32;1207;-871;2196;1845
2020-12-01 06:45:34;1052;-886;2695;2523
2020-12-01 06:50:35;1056;-868;2898;2530
2020-12-01 06:55:41;1041;-852;3583;1757
2020-12-01 07:00:36;1051;-860;2085;1855
2020-12-01 07:05:32;1139;-879;3502;1808
2020-12-01 07:10:34;1060;-856;2564;2608
2020-12-01 07:15:40;1056;-861;3090;1934
2020-12-01 07:20:38;1036;-768;2165;1828
2020-12-01 07:25:41;-30;-804;2987;2782
2020-12-01 07:30:46;1074;-833;1978;2664
2020-12-01 07:35:39;1079;-823;3292;2053
2020-12-01 07:40:33;1053;-819;2275;2931
2020-12-01 07:45:35;1147;-856;2206;1826
2020-12-01 07:50:43;1173;-825;2563;2035
2020-12-01 07:55:35;1174;-824;2121;2735
2020-12-01 08:00:41;1096;-831;2317;1864
2020-12-01 08:05:45;1099;-788;2225;2246
2020-12-01 08:10:41;1114;-815;1840;2302
2020-12-01 08:15:38;1009;-829;2934;2258
2020-12-01 08:20:40;1149;-839;1885;2348
2020-12-01 08:25:42;1247;-841;2219;2168
2020-12-01 08:30:39;1176;-830;3248;1744
2020-12-01 08:35:33;1220;-832;2501;3199
2020-12-01 08:40:35;1168;-771;3286;2127
2020-12-01 08:45:35;1224;-846;3401;1803
2020-12-01 08:50:35;1250;-835;2395;1814
2020-12-01 08:55:36;1245;-823;2014;2700
2020-12-01 09:00:37;1277;-834;2687;2025
2020-12-01 09:05:33;1247;-839;2676;2492
2020-12-01 09:10:42;1251;-829;2788;1961
2020-12-01 09:15:35;1027;-858;1813;2608
2020-12-01 09:20:31;1172;-827;1775;2969
2020-12-01 09:25:29;1176;-811;2460;1955
2020-12-01 09:30:32;1156;-818;3118;2107
2020-12-01 09:35:31;1143;-808;3117;1692
2020-12-01 09:40:33;1132;-820;1940;2294
2020-12-01 09:45:39;1101;-822;1592;1648
2020-12-01 09:50:29;1103;-803;1640;1618
2020-12-01 09:55:36;1089;-808;2240;1752
2020-12-01 10:00:33;1106;-766;2651;2623
2020-12-01 10:05:37;1232;-800;1691;2326
2020-12-01 10:10:30;1228;-797;3227;2837
2020-12-01 10:15:29;1215;-807;2275;3021
2020-12-01 10:20:33;1191;-807;2574;1467
2020-12-01 10:25:31;1182;-802;1657;1968
2020-12-01 10:30:33;1187;-813;1970;2227
2020-12-01 10:35:33;1162;-822;1641;1599
2020-12-01 10:40:46;1139;-822;1603;2427
2020-12-01 10:45:27;1143;-809;1581;1499
2020-12-01 10:50:30;-215;-805;3082;1553
2020-12-01 10:55:25;1133;-817;3170;1892
2020-12-01 11:00:33;1123;-830;1687;2658
2020-12-01 11:05:29;1105;-824;1867;1424
2020-12-01 11:10:28;1096;-829;3256;2018
2020-12-01 11:15:28;1027;-838;1465;1482
2020-12-01 11:20:29;1137;-807;2989;3142
2020-12-01 11:25:24;1135;-801;3347;1533
2020-12-01 11:30:33;-30;-798;2981;3103
2020-12-01 11:35:27;1105;-811;3269;2076
2020-12-01 11:40:25;1103;-803;1463;1449
2020-12-01 11:45:27;1098;-819;1879;1545
2020-12-01 11:50:30;1093;-821;2854;1471
2020-12-01 11:55:39;1089;-813;2079;2644
2020-12-01 12:00:31;1076;-824;1849;1614
2020-12-01 12:05:29;1071;-821;1575;2120
2020-12-01 12:10:35;1064;-826;2586;2856
2020-12-01 12:15:30;1060;-827;2579;1395
2020-12-01 12:20:30;1040;-837;2223;1822
2020-12-01 12:25:28;1045;-838;2452;1887
2020-12-01 12:30:25;1040;-845;2688;1386
2020-12-01 12:35:35;1034;-839;1535;1419
2020-12-01 12:40:31;1024;-833;1338;1478
2020-12-01 12:45:33;1024;-846;2430;1415
2020-12-01 12:50:26;1019;-840;2267;1412
2020-12-01 12:55:34;1027;-846;3138;2150
2020-12-01 13:00:31;1013;-841;2135;2845
2020-12-01 13:05:29;1015;-804;2765;1802
2020-12-01 13:10:39;1055;-800;1692;1263
2020-12-01 13:15:32;1060;-792;2930;1419
2020-12-01 13:20:34;1049;-789;2958;1449
2020-12-01 13:25:29;1038;-803;2137;1552
2020-12-01 13:30:47;1022;-805;2570;2069
2020-12-01 13:35:29;1016;-801;2811;1579
2020-12-01 13:40:27;1052;-782;2931;1466
2020-12-01 13:45:25;1061;-778;1316;1477
2020-12-01 13:50:28;1067;-772;1490;1379
2020-12-01 13:55:30;1060;-757;2726;1495
2020-12-01 14:00:29;1059;-762;1375;1378
2020-12-01 14:05:48;1048;-778;1428;1364
2020-12-01 14:10:44;1043;-784;1368;1556
2020-12-01 14:15:30;1048;-770;2293;1127
2020-12-01 14:20:33;1047;-762;1533;1270
2020-12-01 14:25:26;1062;-757;1665;6
2020-12-01 14:30:32;1060;-763;1754;1227
2020-12-01 14:35:28;1056;-759;735;95
2020-12-01 14:40:33;1104;-756;1872;458
2020-12-01 14:45:29;1135;-765;2000;452
2020-12-01 14:50:30;1117;-805;2058;1529
2020-12-01 14:55:33;-215;-807;2525;1722
2020-12-01 15:00:33;1086;-811;1702;1751
2020-12-01 15:05:31;1083;-806;1586;1479
2020-12-01 15:10:31;1088;-809;1450;1525
2020-12-01 15:15:28;1079;-808;1849;1963
2020-12-01 15:20:29;1082;-806;1697;1426
2020-12-01 15:25:27;1071;-804;2255;1520
2020-12-01 15:30:29;1073;-808;1593;1527
2020-12-01 15:35:29;1075;-801;2142;2155
2020-12-01 15:40:33;-215;-804;1726;2101
2020-12-01 15:45:30;1071;-807;2118;1412
2020-12-01 15:50:31;1064;-809;1947;1507
2020-12-01 15:55:31;1061;-804;2185;1488
2020-12-01 16:00:37;1061;-804;1822;1304
2020-12-01 16:05:27;1057;-797;2944;2846
2020-12-01 16:10:28;1060;-793;1410;1859
2020-12-01 16:15:30;1064;-770;1973;1992
2020-12-01 16:20:30;1068;-772;1966;1722
2020-12-01 16:25:29;1060;-792;1488;1440
2020-12-01 16:30:30;1059;-783;2093;1379
2020-12-01 16:35:31;1061;-785;1746;1562
2020-12-01 16:40:30;1066;-754;1386;1519
2020-12-01 16:45:32;936;-755;1488;1638
2020-12-01 16:50:32;1110;-2200;1375;1646
2020-12-01 16:55:31;1096;-790;1643;1392
2020-12-01 17:00:28;1079;-802;1802;1683
2020-12-01 17:05:38;1076;-800;1468;1343
2020-12-01 17:10:47;1079;-786;1444;1466
2020-12-01 17:15:33;1073;-787;1399;1487
2020-12-01 17:20:28;1066;-787;1444;1361
2020-12-01 17:25:32;1085;-813;2244;1768
2020-12-01 17:30:29;1081;-779;2188;3095
2020-12-01 17:35:28;1081;-785;1977;1928
2020-12-01 17:40:34;1084;-772;2109;1886
2020-12-01 17:45:36;1078;-765;1460;1959
2020-12-01 17:50:32;1078;-760;2635;1755
2020-12-01 17:55:33;-30;-758;2148;1841
2020-12-01 18:00:31;1105;-767;1448;1761
2020-12-01 18:05:36;1122;-757;3285;2029
2020-12-01 18:10:33;1120;-755;1962;1476
2020-12-01 18:15:38;1118;-743;2471;1513
2020-12-01 18:20:31;1108;-749;1591;1438
2020-12-01 18:25:37;1127;-754;1570;1585
2020-12-01 18:30:43;1144;-727;2520;2226
2020-12-01 18:35:28;1149;-734;1593;1538
2020-12-01 18:40:27;1143;-736;1579;1588
2020-12-01 18:45:33;-30;-741;2159;1805
2020-12-01 18:51:02;1137;-741;2331;2160
2020-12-01 18:55:39;1134;-743;2432;1605
2020-12-01 19:00:33;1154;-724;2079;2210
2020-12-01 19:05:34;1143;-725;2083;2327
2020-12-01 19:10:28;1153;-724;1793;1649
2020-12-01 19:15:28;1156;-723;2102;1899
2020-12-01 19:20:31;1152;-721;2904;2449
2020-12-01 19:25:37;1151;-718;1906;1806
2020-12-01 19:30:37;1156;-708;2346;1559
2020-12-01 19:35:38;1073;-692;2693;1522
2020-12-01 19:40:32;1085;-697;1720;1766
2020-12-01 19:45:29;1163;-706;1599;1643
2020-12-01 19:50:34;1165;-718;2302;2200
2020-12-01 19:55:31;1160;-713;2559;1538
2020-12-01 20:00:35;1144;-713;2476;1637
2020-12-01 20:05:47;1158;-705;1962;1583
2020-12-01 20:10:32;1152;-705;1584;1987
2020-12-01 20:15:33;-30;-701;2207;1617
2020-12-01 20:20:35;1150;-699;2600;1613
2020-12-01 20:25:31;1165;-695;2584;2141
2020-12-01 20:30:32;1173;-1143;2487;1643
2020-12-01 20:35:38;1171;-684;1916;1973
2020-12-01 20:40:36;1178;-692;2056;1968
2020-12-01 20:45:31;1184;-686;2169;2128
2020-12-01 20:50:37;1179;-685;2080;2434
2020-12-01 20:55:30;1180;-687;1888;1565
2020-12-01 21:00:30;1197;-683;1817;2230
2020-12-01 21:05:31;1206;-676;2492;1914
2020-12-01 21:10:31;-30;-669;2618;2222
2020-12-01 21:15:35;1222;-662;1603;2372
2020-12-01 21:20:32;1233;-660;1622;2247
2020-12-01 21:25:28;1237;-654;2237;1872
2020-12-01 21:30:41;1235;-653;2151;2329
2020-12-01 21:35:25;1238;-643;3167;2483
2020-12-01 21:40:28;1245;-646;2085;2502
2020-12-01 21:45:33;1280;-2200;2452;1682
2020-12-01 21:50:29;1275;-747;2211;1673
2020-12-01 21:55:29;1290;-652;1680;2999
2020-12-01 22:00:34;1339;-638;3276;2747
2020-12-01 22:05:31;1443;-632;1704;2174
2020-12-01 22:10:34;1380;-629;1815;1644
2020-12-01 22:15:34;1384;-619;2294;2924
2020-12-01 22:20:41;1238;-612;3290;1718
2020-12-01 22:25:34;1392;-616;2982;2047
2020-12-01 22:30:34;1234;-608;2080;1650
2020-12-01 22:35:31;1319;-612;2832;1694
2020-12-01 22:40:34;1083;-604;2319;2119
2020-12-01 22:45:28;961;-603;2101;2274
2020-12-01 22:50:32;931;-605;2652;2466
2020-12-01 22:55:33;936;-602;2838;2992
2020-12-01 23:00:35;943;-589;2513;1683
2020-12-01 23:05:33;1266;-593;1726;1790
2020-12-01 23:10:31;944;-593;2585;2202
2020-12-01 23:15:30;1009;-587;2554;2169
2020-12-01 23:20:34;1054;-573;1759;1595
2020-12-01 23:25:33;1083;-582;2751;1719
2020-12-01 23:30:36;1121;-583;1785;1712
2020-12-01 23:35:36;1095;-567;2990;1773
2020-12-01 23:40:36;1356;-569;2124;1748
2020-12-01 23:45:32;1348;-566;1893;2635
2020-12-01 23:50:43;1112;-566;2661;2271
2020-12-01 23:55:38;1117;-576;2099;2155
2020-12-02 00:00:39;1109;-551;1883;2132
2020-12-02 00:05:31;1107;-544;2486;3143
2020-12-02 00:10:38;1440;-544;2534;2409
2020-12-02 00:15:31;989;-482;2777;1706
2020-12-02 00:20:33;1120;-575;2836;2086
2020-12-02 00:25:30;1119;-557;1768;1734
2020-12-02 00:30:31;1118;-565;2151;1745
2020-12-02 00:35:32;1100;-568;2677;2018
2020-12-02 00:40:32;1095;-560;1974;1909
2020-12-02 00:45:33;1087;-555;2263;2148
2020-12-02 00:50:38;1039;-555;2637;1768
2020-12-02 00:55:41;-254;-551;2377;2278
2020-12-02 01:00:34;1038;-550;2043;2531
2020-12-02 01:05:37;1070;-548;2338;2699
2020-12-02 01:10:34;-30;-542;3079;2166
2020-12-02 01:15:41;977;-543;2393;2870
2020-12-02 01:20:35;996;-528;3275;2412
2020-12-02 01:25:29;-406;-528;2815;1826
2020-12-02 01:30:36;1090;-527;2999;2387
2020-12-02 01:35:32;1168;-527;2123;2603
2020-12-02 01:40:37;1465;-523;2567;1969
2020-12-02 01:45:34;1460;-521;2342;2177
2020-12-02 01:50:34;1434;-515;2630;1827
2020-12-02 01:55:30;1167;-511;2560;1832
2020-12-02 02:00:32;1489;-2200;1971;3134
2020-12-02 02:05:36;1423;-507;2342;2788
2020-12-02 02:10:32;1418;-508;3368;2459
2020-12-02 02:15:34;1442;-501;3134;2039
2020-12-02 02:20:31;1389;-495;2437;2341
2020-12-02 02:25:34;232;-495;2993;2073
2020-12-02 02:30:32;1391;-495;2201;2250
2020-12-02 02:35:33;1395;-532;1871;1850
2020-12-02 02:40:33;1381;-536;2251;2577
2020-12-02 02:45:34;1373;-535;3062;2805
2020-12-02 02:50:40;1399;-535;2843;2216
2020-12-02 02:55:34;1370;-528;3062;1825
2020-12-02 03:00:30;1354;-527;2763;1863
2020-12-02 03:05:34;1391;-529;3189;1830
2020-12-02 03:10:28;1177;-510;3490;1860
2020-12-02 03:15:30;1383;-515;2602;3150
2020-12-02 03:20:27;1086;-505;3454;1845
2020-12-02 03:25:27;1371;-510;2093;2076
2020-12-02 03:30:25;1373;-502;3291;1853
2020-12-02 03:35:33;1362;-501;2760;2994
2020-12-02 03:40:31;1131;-489;2145;1870
2020-12-02 03:45:33;1361;-493;2651;2245
2020-12-02 03:50:36;1366;-481;3803;2574
2020-12-02 03:55:33;1358;-476;1917;2931
2020-12-02 04:00:33;1356;-470;3446;2730
2020-12-02 04:05:31;1365;-471;1934;1908
2020-12-02 04:10:36;1357;-473;2051;2759
2020-12-02 04:15:35;1362;-468;2539;2179
2020-12-02 04:20:37;1357;-459;2992;2331
2020-12-02 04:25:36;1359;-454;1946;2564
2020-12-02 04:30:39;1368;-449;1967;1916
2020-12-02 04:35:32;1344;-450;2344;2171
2020-12-02 04:40:36;-30;-445;2363;2462
2020-12-02 04:45:32;1360;-444;1931;1912
2020-12-02 04:50:33;1367;-432;2870;2687
2020-12-02 04:55:30;1434;-443;2626;3235
2020-12-02 05:00:36;-30;-427;2744;2987
2020-12-02 05:05:30;1359;-424;3491;2086
2020-12-02 05:10:37;1378;-430;2746;2469
2020-12-02 05:15:31;-30;-435;2573;2851
2020-12-02 05:20:39;1354;-460;2613;3392
2020-12-02 05:25:36;1357;-465;2348;2076
2020-12-02 05:30:35;1361;-458;2915;1951
2020-12-02 05:35:37;1359;-453;2759;2332
2020-12-02 05:40:34;1358;-450;2627;2469
2020-12-02 05:45:30;1360;-447;2626;2079
2020-12-02 05:50:33;-30;-445;3962;2880
2020-12-02 05:55:32;1368;-441;2248;2349
2020-12-02 06:00:31;1361;-436;3033;2469
2020-12-02 06:05:31;1366;-446;2765;2099
2020-12-02 06:10:34;1361;-430;2795;2370
2020-12-02 06:15:33;1367;-433;2401;3553
2020-12-02 06:20:36;-30;-426;2694;2512
2020-12-02 06:25:34;1364;-423;3374;2399
2020-12-02 06:30:30;1387;-419;2546;2791
2020-12-02 06:35:37;1369;-413;2822;2776
2020-12-02 06:40:32;1368;-410;2433;2276
2020-12-02 06:45:39;1379;-452;3236;1974
2020-12-02 06:50:40;1394;-453;2848;1998
2020-12-02 06:55:35;1388;-443;2036;2817
2020-12-02 07:00:37;1386;-438;2981;2967
2020-12-02 07:05:33;1388;-440;3398;3380
2020-12-02 07:10:32;1392;-436;2720;2285
2020-12-02 07:15:34;1392;-433;2035;3342
2020-12-02 07:20:36;1394;-427;2829;2419
2020-12-02 07:25:38;1400;-432;3130;3532
2020-12-02 07:30:40;1394;-425;3355;2277
2020-12-02 07:35:36;1397;-419;2741;2012
2020-12-02 07:40:38;1392;-418;2743;2852
2020-12-02 07:45:31;1401;-405;2896;2858
2020-12-02 07:50:34;1403;-406;2612;2165
2020-12-02 07:55:35;1388;-448;3309;2861
2020-12-02 08:00:39;1399;-428;3174;2449
2020-12-02 08:05:40;1395;-420;2345;2460
2020-12-02 08:10:40;1417;-419;2916;3315
2020-12-02 08:15:36;1420;-402;2914;3170
2020-12-02 08:20:38;1421;-390;3053;3025
2020-12-02 08:25:36;1425;-377;2348;2854
2020-12-02 08:30:39;1436;-350;3055;2323
2020-12-02 08:35:32;1421;-413;3034;3016
2020-12-02 08:40:35;1521;-417;2622;2178
2020-12-02 08:45:33;1574;-403;2589;2430
2020-12-02 08:50:32;1664;-406;3268;3109
2020-12-02 08:55:34;1591;-398;2590;2688
2020-12-02 09:00:37;1358;-377;3250;2011
2020-12-02 09:05:39;1392;-480;2031;2561
2020-12-02 09:10:32;1392;-478;2171;2001
2020-12-02 09:15:31;1374;-473;2173;2388
2020-12-02 09:20:32;1244;-463;3350;2789
2020-12-02 09:25:29;1397;-455;3412;3248
2020-12-02 09:30:29;1458;-446;2633;2591
2020-12-02 09:35:37;1714;-449;2357;2223
2020-12-02 09:40:32;1724;-450;2623;1968
2020-12-02 09:45:30;1635;-455;3155;1956
2020-12-02 09:50:30;1708;-460;2494;2826
2020-12-02 09:55:44;1551;-478;2201;2820
2020-12-02 10:00:35;1603;-491;2347;2563
2020-12-02 10:05:51;1534;-485;2606;2302
2020-12-02 10:10:34;1495;-491;1964;2956
2020-12-02 10:15:35;1472;-487;2049;3140
2020-12-02 10:20:31;1470;-496;1853;2521
2020-12-02 10:25:29;1453;-500;2781;1867
2020-12-02 10:30:31;1425;-506;1882;1862
2020-12-02 10:35:29;1416;-502;3779;2610
2020-12-02 10:40:30;1419;-488;2249;1825
2020-12-02 10:45:37;1403;-503;1787;2070
2020-12-02 10:50:31;1389;-508;2243;3178
2020-12-02 10:55:29;1373;-521;2583;2394
2020-12-02 11:00:32;1363;-528;1841;1820
2020-12-02 11:05:38;1355;-544;2305;1698
2020-12-02 11:10:30;1359;-614;2636;1822
2020-12-02 11:15:30;1348;-595;2056;2367
2020-12-02 11:20:37;1335;-611;2274;2351
2020-12-02 11:25:39;1357;-586;2304;1771
2020-12-02 11:30:30;1363;-586;1765;1747
2020-12-02 11:35:37;1368;-589;1755;1970
2020-12-02 11:40:34;1354;-595;2411;2742
2020-12-02 11:45:32;1323;-619;2578;1718
2020-12-02 11:50:35;1327;-612;1932;1698
2020-12-02 11:55:34;1325;-609;2844;2615
2020-12-02 12:00:50;1312;-634;2236;1651
2020-12-02 12:05:31;1300;-670;2249;1819
2020-12-02 12:10:34;1299;-660;3078;2469
2020-12-02 12:15:39;1294;-674;2483;3184
2020-12-02 12:20:32;1278;-699;1644;1476
2020-12-02 12:25:32;1279;-708;2416;1568
2020-12-02 12:30:30;1298;-673;3057;3139
2020-12-02 12:35:28;1280;-743;3292;1557
2020-12-02 12:40:31;1252;-747;1871;2437
2020-12-02 12:45:28;1232;-763;2218;1757
2020-12-02 12:50:33;1238;-771;2578;1634
2020-12-02 12:55:30;1225;-783;3199;1670
2020-12-02 13:00:28;1220;-795;1908;1557
2020-12-02 13:05:31;1225;-805;2199;1704
2020-12-02 13:10:35;1257;-763;2858;2461
2020-12-02 13:15:28;1284;-761;2865;2606
2020-12-02 13:20:28;1277;-780;2136;1542
2020-12-02 13:25:34;1269;-774;2888;2706
2020-12-02 13:30:30;1268;-793;1597;1897
2020-12-02 13:35:31;1263;-783;2515;1580
2020-12-02 13:40:32;1261;-786;1847;1446
2020-12-02 13:45:30;1257;-792;1768;1741
2020-12-02 13:50:37;1256;-801;1526;2703
2020-12-02 13:55:36;1257;-808;2995;2400
2020-12-02 14:00:28;1249;-814;2169;2035
2020-12-02 14:05:28;1239;-879;2555;1341
2020-12-02 14:10:32;1256;-806;1640;1559
2020-12-02 14:15:32;1254;-846;1548;1478
2020-12-02 14:20:31;1245;-825;2640;1474
2020-12-02 14:25:30;1231;-831;1527;2222
2020-12-02 14:30:30;1241;-816;1472;1644
2020-12-02 14:35:33;1220;-853;2333;1728
2020-12-02 14:40:29;-213;-806;3222;1596
2020-12-02 14:45:37;-30;-829;1408;1817
2020-12-02 14:50:26;1234;-813;1499;1383
2020-12-02 14:55:37;1222;-809;2819;2548
2020-12-02 15:00:36;1201;-809;2665;2037
2020-12-02 15:05:32;1204;-814;1574;1333
2020-12-02 15:10:30;1192;-832;1806;1339
2020-12-02 15:15:30;1192;-816;1965;1743
2020-12-02 15:20:28;-208;-792;2878;2494
2020-12-02 15:25:29;1200;-794;2758;1486
2020-12-02 15:30:34;1159;-797;1572;2818
2020-12-02 15:35:33;1204;-792;1535;1180
2020-12-02 15:40:30;1183;-796;1378;1295
2020-12-02 15:45:31;1207;-804;2073;1896
2020-12-02 15:50:37;1201;-793;1815;1448
2020-12-02 15:55:32;1188;-805;1772;1725
2020-12-02 16:00:32;1179;-815;2468;2656
2020-12-02 16:05:29;1169;-813;1934;1663
2020-12-02 16:10:35;1205;-774;2743;1503
2020-12-02 16:15:35;1163;-2200;1540;1515
2020-12-02 16:20:28;1154;-802;1558;2357
2020-12-02 16:25:30;1166;-816;1256;1986
2020-12-02 16:30:29;1178;-793;2029;1358
2020-12-02 16:35:30;-216;-808;2736;2218
2020-12-02 16:40:31;1166;-819;2181;1395
2020-12-02 16:45:30;1154;-819;2246;1844
2020-12-02 16:50:34;1143;-813;2079;2036
2020-12-02 16:55:35;1138;-836;1364;1517
2020-12-02 17:00:30;1132;-818;1915;1309
2020-12-02 17:05:36;1027;-810;1541;1110
2020-12-02 17:10:31;1131;-846;1718;2637
2020-12-02 17:15:29;1143;-846;1358;1213
2020-12-02 17:20:27;1124;-825;1222;1181
2020-12-02 17:25:32;1120;-818;1979;1237
2020-12-02 17:30:34;1139;-793;1322;2209
2020-12-02 17:35:25;1137;-799;2042;1162
2020-12-02 17:40:28;1139;-803;1456;1267
2020-12-02 17:45:26;1120;-822;1249;1197
2020-12-02 17:50:29;1117;-821;1371;1077
2020-12-02 17:55:31;1109;-820;2407;1206
2020-12-02 18:00:29;1158;-805;1648;1210
2020-12-02 18:05:27;1157;-808;2825;1215
2020-12-02 18:10:29;1141;-800;1266;1123
2020-12-02 18:15:29;1155;-797;1631;1483
2020-12-02 18:20:36;1160;-785;1311;1283
2020-12-02 18:25:32;1161;-785;2072;1064
2020-12-02 18:30:29;1146;-807;1907;1180
2020-12-02 18:35:30;-30;-798;1565;1048
2020-12-02 18:40:28;1134;-813;2584;1539
2020-12-02 18:45:30;1066;-763;1913;1779
2020-12-02 18:50:28;1052;-758;2471;1106
2020-12-02 18:55:31;1156;-791;1862;1288
2020-12-02 19:00:30;1164;-798;2851;1198
2020-12-02 19:05:28;1134;-808;1314;3147
2020-12-02 19:10:37;1130;-812;2245;3026
2020-12-02 19:15:32;1126;-818;1855;1358
2020-12-02 19:20:34;1123;-793;2207;1271
2020-12-02 19:25:29;1119;-2200;1267;1490
2020-12-02 19:30:33;-216;-805;2665;1138
2020-12-02 19:35:31;1120;-815;1343;2446
2020-12-02 19:40:29;1114;-879;2176;1183
2020-12-02 19:45:30;-30;-802;1445;2366
2020-12-02 19:50:29;1114;-809;1341;1935
2020-12-02 19:55:29;1108;-816;3002;2609
2020-12-02 20:00:28;1110;-828;1073;1107
2020-12-02 20:05:30;1111;-813;1548;2221
2020-12-02 20:10:30;1102;-821;2832;1068
2020-12-02 20:15:28;1093;-814;2218;1424
2020-12-02 20:20:27;1097;-879;2046;986
2020-12-02 20:25:30;-222;-801;1195;1114
2020-12-02 20:30:28;1099;-799;2640;1064
2020-12-02 20:35:29;1080;-796;2090;1086
2020-12-02 20:40:31;1099;-814;1543;1008
2020-12-02 20:45:32;1092;-821;2820;2596
2020-12-02 20:50:33;1101;-808;1165;1214
2020-12-02 20:55:28;1090;-815;1162;1012
2020-12-02 21:00:27;1096;-804;1733;1168
2020-12-02 21:05:26;-219;-806;1539;1264
2020-12-02 21:10:27;1101;-821;1596;1160
2020-12-02 21:15:29;1081;-824;1070;2000
2020-12-02 21:20:29;1081;-809;1130;1503
2020-12-02 21:25:34;1073;-813;1175;1409
2020-12-02 21:30:30;1063;-815;1250;1037
2020-12-02 21:35:30;1065;-811;1287;1322
2020-12-02 21:40:35;1071;-799;1655;1311
2020-12-02 21:45:37;1068;-811;1489;1365
2020-12-02 21:50:27;1118;-813;1426;1228
2020-12-02 21:55:26;1123;-815;1252;1305
2020-12-02 22:00:35;1111;-821;941;921
2020-12-02 22:05:27;1101;-823;1419;1170
2020-12-02 22:10:27;1099;-811;1202;1024
2020-12-02 22:15:34;1101;-783;1038;920
2020-12-02 22:20:33;-215;-788;1302;1193
2020-12-02 22:25:31;1091;-807;1473;664
2020-12-02 22:30:29;1088;-805;1365;1948
2020-12-02 22:35:32;1093;-803;1660;2284
2020-12-02 22:40:28;1095;-803;2125;1078
2020-12-02 22:45:28;1098;-802;2467;1555
2020-12-02 22:50:32;1085;-797;2232;1722
2020-12-02 22:55:27;1098;-794;964;984
2020-12-02 23:00:25;1096;-788;2076;2258
2020-12-02 23:05:35;1095;-797;1531;1190
2020-12-02 23:10:42;1097;-796;1558;938
2020-12-02 23:15:30;1087;-792;1106;835
2020-12-02 23:20:31;1088;-807;1107;1476
2020-12-02 23:25:29;-30;-790;2186;1395
2020-12-02 23:30:30;1090;-802;1604;1203
2020-12-02 23:35:28;996;-768;1136;742
2020-12-02 23:40:30;1100;-823;1205;786
2020-12-02 23:45:29;1091;-813;1118;1058
2020-12-02 23:50:25;1088;-824;913;1003
2020-12-02 23:55:28;1096;-805;1313;887
2020-12-03 00:00:39;1099;-818;1124;1346
2020-12-03 00:05:27;1113;-813;1957;871
2020-12-03 00:10:29;1113;-806;2584;1231
2020-12-03 00:15:29;1121;-812;1190;836
2020-12-03 00:20:32;1114;-814;2175;1703
2020-12-03 00:25:29;1117;-812;1810;988
2020-12-03 00:30:27;1116;-810;1516;1074
2020-12-03 00:35:27;1116;-817;2523;1073
2020-12-03 00:40:31;1115;-824;1555;1109
2020-12-03 00:45:33;1109;-820;573;915
2020-12-03 00:50:29;1110;-822;1831;875
2020-12-03 00:55:25;1105;-818;1149;1240
2020-12-03 01:00:28;1105;-819;2274;1159
2020-12-03 01:05:27;1092;-820;1877;2320
2020-12-03 01:10:33;1088;-819;2572;1460
2020-12-03 01:15:36;1095;-825;1246;922
2020-12-03 01:20:32;1089;-817;1354;1050
2020-12-03 01:25:32;1083;-818;1214;1495
2020-12-03 01:30:32;1086;-826;849;1111
2020-12-03 01:35:29;1078;-824;1911;1946
2020-12-03 01:40:27;1076;-826;2343;969
2020-12-03 01:45:25;1084;-815;974;647
2020-12-03 01:50:28;1091;-825;1639;1651
2020-12-03 01:55:26;1090;-819;1103;2079
2020-12-03 02:00:30;1090;-817;1896;1814
2020-12-03 02:05:32;1083;-818;1995;2332
2020-12-03 02:10:25;1078;-821;2220;1588
2020-12-03 02:15:29;1066;-827;1603;2139
2020-12-03 02:20:28;1073;-822;1935;2089
2020-12-03 02:25:33;1073;-826;1554;800
2020-12-03 02:30:32;1071;-826;889;852
2020-12-03 02:35:33;1066;-826;1974;1830
2020-12-03 02:40:28;1063;-821;1738;748
2020-12-03 02:45:30;1073;-819;1676;852
2020-12-03 02:50:27;1064;-826;1469;1563
2020-12-03 02:55:31;1064;-823;1265;990
2020-12-03 03:00:32;1068;-879;1059;543
2020-12-03 03:05:37;1068;-825;844;712
2020-12-03 03:10:36;-218;-821;1326;935
2020-12-03 03:15:29;1063;-812;775;684
2020-12-03 03:20:35;1061;-817;790;836
2020-12-03 03:25:29;1052;-816;1962;900
2020-12-03 03:30:30;1051;-825;1422;586
2020-12-03 03:35:29;1054;-824;1471;931
2020-12-03 03:40:30;1053;-826;869;707
2020-12-03 03:45:28;1048;-817;1194;315
2020-12-03 03:50:34;1057;-803;1226;685
2020-12-03 03:55:28;1063;-802;1480;711
2020-12-03 04:00:32;1053;-815;888;574
2020-12-03 04:05:30;1056;-814;1331;1118
2020-12-03 04:10:29;1051;-811;1648;1026
2020-12-03 04:15:30;1069;-799;1317;561
2020-12-03 04:20:28;1092;-803;1338;754
2020-12-03 04:25:27;-217;-796;2018;1422
2020-12-03 04:30:27;1087;-792;1893;1567
2020-12-03 04:35:25;1075;-792;1744;880
2020-12-03 04:40:28;1085;-800;1370;887
2020-12-03 04:45:28;1081;-797;1416;780
2020-12-03 04:50:33;1075;-798;1666;1726
2020-12-03 04:55:30;1074;-2200;1003;1035
2020-12-03 05:00:35;1078;-801;1515;1519
2020-12-03 05:05:27;-207;-807;956;994
2020-12-03 05:10:36;1061;-812;1044;988
2020-12-03 05:15:32;1057;-812;1105;718
2020-12-03 05:20:33;-211;-798;1528;743
2020-12-03 05:25:28;1060;-800;1263;1001
2020-12-03 05:30:28;1071;-814;1174;1473
2020-12-03 05:35:30;1068;-810;1044;1136
2020-12-03 05:40:25;1066;-804;674;933
2020-12-03 05:45:33;1066;-812;1110;743
2020-12-03 05:50:33;1061;-817;2181;1343
2020-12-03 05:55:29;-30;-816;977;890
2020-12-03 06:00:30;1052;-816;1068;612
2020-12-03 06:05:29;1047;-819;1003;1110
2020-12-03 06:10:43;1048;-823;1870;1745
2020-12-03 06:15:33;1044;-809;1358;582
2020-12-03 06:20:31;1048;-814;2181;862
2020-12-03 06:25:36;1045;-821;1222;720
2020-12-03 06:30:24;1040;-820;640;942
2020-12-03 06:35:30;1041;-827;1131;586
2020-12-03 06:40:26;1033;-824;1947;2153
2020-12-03 06:45:33;1030;-823;2255;1786
2020-12-03 06:50:28;1049;-791;1161;530
2020-12-03 06:55:31;1037;-798;1639;1753
2020-12-03 07:00:33;1025;-801;2122;1814
2020-12-03 07:05:26;1022;-811;2137;688
2020-12-03 07:10:26;1019;-816;1130;629
2020-12-03 07:15:32;1014;-815;1714;765
2020-12-03 07:20:29;1020;-781;835;880
2020-12-03 07:25:29;1031;-2200;1146;1214
2020-12-03 07:30:29;1055;-790;2319;1202
2020-12-03 07:35:29;1062;-776;2159;1335
2020-12-03 07:40:31;1052;-2200;2986;2488
2020-12-03 07:45:31;1052;-787;1148;834
2020-12-03 07:50:28;1042;-794;1337;941
2020-12-03 07:55:27;1031;-783;682;992
2020-12-03 08:00:27;1018;-795;812;543
2020-12-03 08:05:30;1014;-793;764;1072
2020-12-03 08:10:30;1019;-794;652;544
2020-12-03 08:15:28;1152;-778;2097;1483
2020-12-03 08:20:30;1186;-794;1732;1297
2020-12-03 08:25:31;1202;-794;2475;871
2020-12-03 08:30:28;-210;-796;1239;786
2020-12-03 08:35:32;1149;-879;1192;2177
2020-12-03 08:40:24;1209;-791;1090;1034
2020-12-03 08:45:30;1203;-793;1563;994
2020-12-03 08:50:29;1196;-781;1062;849
2020-12-03 08:55:36;1192;-786;1149;845
2020-12-03 09:00:27;1200;-779;1036;649
2020-12-03 09:05:31;1192;-786;1054;1093
2020-12-03 09:10:33;1191;-797;1271;1090
2020-12-03 09:15:32;1195;-789;1205;1110
2020-12-03 09:20:29;1190;-784;1031;1002
2020-12-03 09:25:29;1195;-797;1011;1156
2020-12-03 09:30:30;1196;-799;1253;1144
2020-12-03 09:35:33;1027;-802;1141;1397
2020-12-03 09:40:31;1192;-806;2871;1464
2020-12-03 09:45:35;1172;-801;1065;818
2020-12-03 09:50:34;1159;-790;1213;1046
2020-12-03 09:55:33;1182;-813;1638;761
2020-12-03 10:00:37;1182;-787;844;781
2020-12-03 10:05:28;1185;-799;1685;615
2020-12-03 10:10:35;1182;-799;1741;693
2020-12-03 10:15:33;1187;-796;937;804
2020-12-03 10:20:31;1190;-796;1091;716
2020-12-03 10:25:34;1191;-800;1742;1048
2020-12-03 10:30:26;1185;-793;1044;644
2020-12-03 10:35:25;1192;-802;882;970
2020-12-03 10:40:26;-214;-2200;1496;656
2020-12-03 10:45:26;1189;-781;1750;1653
2020-12-03 10:50:26;1185;-782;676;590
2020-12-03 10:55:30;1175;-791;830;1002
2020-12-03 11:00:33;1169;-792;1486;880
2020-12-03 11:05:31;1181;-796;1221;746
2020-12-03 11:10:34;1184;-806;1450;560
2020-12-03 11:15:30;1189;-793;725;685
2020-12-03 11:20:32;1190;-787;1076;790
2020-12-03 11:25:27;1199;-782;1925;999
2020-12-03 11:30:35;1193;-798;2052;2197
2020-12-03 11:35:30;1194;-797;2423;2532
2020-12-03 11:40:32;1179;-2200;2025;1060
2020-12-03 11:45:33;1197;-792;1601;990
2020-12-03 11:50:28;-209;-783;1098;1377
2020-12-03 11:55:25;1189;-799;1281;1412
2020-12-03 12:00:27;1189;-803;1471;1243
2020-12-03 12:05:37;1027;-793;1500;1520
2020-12-03 12:10:31;1196;-791;2293;1495
2020-12-03 12:15:29;1188;-813;1139;1370
2020-12-03 12:20:26;1148;-787;770;1071
2020-12-03 12:25:33;1192;-792;1773;1669
2020-12-03 12:30:32;1189;-2200;3219;1699
2020-12-03 12:35:27;1027;-798;1271;1526
2020-12-03 12:40:31;1186;-792;1338;1928
2020-12-03 12:45:32;1191;-783;1560;1478
2020-12-03 12:50:31;1174;-788;1333;1582
2020-12-03 12:55:28;1182;-789;1280;808
2020-12-03 13:00:30;1184;-791;814;749
2020-12-03 13:05:29;1184;-791;1014;1082
2020-12-03 13:10:28;1182;-789;884;725
2020-12-03 13:15:30;1183;-794;1167;863
2020-12-03 13:20:34;-30;-789;1030;788
2020-12-03 13:25:40;1161;-795;1540;447
2020-12-03 13:30:36;1174;-786;887;891
2020-12-03 13:35:38;1175;-784;947;936
2020-12-03 13:40:38;1182;-785;974;1291
2020-12-03 13:45:33;1165;-795;1245;1286
2020-12-03 13:50:32;1167;-796;1510;1215
2020-12-03 13:55:33;1166;-800;1731;1541
2020-12-03 14:00:29;1156;-797;1387;1397
2020-12-03 14:05:36;1156;-796;1239;705
2020-12-03 14:10:29;1154;-791;1101;892
2020-12-03 14:15:33;1151;-795;1269;1369
2020-12-03 14:20:30;1152;-793;1510;947
2020-12-03 14:25:33;1150;-793;1604;842
2020-12-03 14:30:32;1158;-796;444;752
2020-12-03 14:35:30;1164;-791;943;966
2020-12-03 14:40:28;-210;-782;909;747
2020-12-03 14:45:38;1148;-800;1294;944
2020-12-03 14:50:37;1154;-794;826;763
2020-12-03 14:55:31;1150;-812;1047;940
2020-12-03 15:00:34;1168;-797;690;985
2020-12-03 15:05:30;1166;-794;923;603
2020-12-03 15:10:31;1166;-793;1307;951
2020-12-03 15:15:28;1152;-804;1077;1148
2020-12-03 15:20:33;1163;-798;1100;821
2020-12-03 15:25:29;1156;-792;1207;1028
2020-12-03 15:30:34;1157;-795;1402;878
2020-12-03 15:35:28;1155;-802;842;694
2020-12-03 15:40:41;1110;-778;1825;1001
2020-12-03 15:45:27;1184;-788;958;1099
2020-12-03 15:50:31;1167;-802;1754;1062
2020-12-03 15:55:40;1144;-794;1235;1055
2020-12-03 16:00:30;1142;-784;1022;949
2020-12-03 16:05:29;1156;-791;1063;964
2020-12-03 16:10:28;1156;-792;722;659
2020-12-03 16:15:30;1150;-780;1167;1020
2020-12-03 16:20:31;1150;-786;1062;870
2020-12-03 16:25:28;1142;-799;957;659
2020-12-03 16:30:27;1174;-782;1011;882
2020-12-03 16:35:25;1158;-792;915;747
2020-12-03 16:40:29;1144;-779;699;1039
2020-12-03 16:45:28;1153;-787;1044;1103
2020-12-03 16:50:30;1152;-770;1007;717
2020-12-03 16:55:27;1146;-787;837;1051
2020-12-03 17:00:35;1150;-2200;1819;857
2020-12-03 17:05:28;1153;-775;1603;924
2020-12-03 17:10:33;1151;-780;832;1015
2020-12-03 17:15:36;1159;-1143;791;968
2020-12-03 17:20:30;1160;-792;939;904
2020-12-03 17:25:35;1156;-2200;1035;589
2020-12-03 17:30:35;1150;-788;1529;1496
2020-12-03 17:35:26;1146;-793;2868;1292
2020-12-03 17:40:28;-30;-797;1350;1438
2020-12-03 17:45:32;1157;-801;1534;844
2020-12-03 17:50:34;1179;-794;1260;1405
2020-12-03 17:55:30;1156;-792;956;690
2020-12-03 18:00:37;1161;-783;661;923
2020-12-03 18:05:32;1164;-784;942;737
2020-12-03 18:10:37;1181;-788;448;1192
2020-12-03 18:15:35;1163;-793;667;1127
2020-12-03 18:20:41;1154;-783;1441;962
2020-12-03 18:25:36;1157;-780;2506;631
2020-12-03 18:30:31;1160;-786;1009;576
2020-12-03 18:35:25;1161;-789;1196;1193
2020-12-03 18:40:32;1149;-778;1552;750
2020-12-03 18:45:34;1157;-786;2678;1278
2020-12-03 18:50:32;1158;-782;1003;743
2020-12-03 18:55:33;1143;-793;917;1125
2020-12-03 19:00:30;1148;-789;799;798
2020-12-03 19:05:39;1160;-792;677;819
2020-12-03 19:10:28;1157;-785;511;90
2020-12-03 19:15:34;1343;-771;1118;2483
2020-12-03 19:20:28;1330;-770;695;609
2020-12-03 19:25:31;1344;-794;1012;289
2020-12-03 19:30:34;-30;-785;718;596
2020-12-03 19:35:31;1421;-809;920;687
2020-12-03 19:40:32;1407;-785;347;536
2020-12-03 19:45:31;1396;-879;534;437
2020-12-03 19:50:32;1416;-783;334;317
2020-12-03 19:55:30;1395;-786;365;393
2020-12-03 20:00:33;1381;-797;412;383
2020-12-03 20:05:26;1400;-788;708;569
2020-12-03 20:10:27;1410;-779;928;518
2020-12-03 20:15:31;1405;-779;826;582
2020-12-03 20:20:25;1398;-783;571;758
2020-12-03 20:25:27;1407;-770;514;589
2020-12-03 20:30:40;1405;-790;496;514
2020-12-03 20:35:30;1399;-781;886;791
2020-12-03 20:40:32;1397;-788;716;409
2020-12-03 20:45:28;1378;-795;498;319
2020-12-03 20:50:37;1361;-793;718;372
2020-12-03 20:55:33;1375;-793;366;367
2020-12-03 21:00:27;1373;-773;1122;776
2020-12-03 21:05:27;1379;-777;704;492
2020-12-03 21:10:27;1394;-768;832;537
2020-12-03 21:15:32;1382;-769;796;446
2020-12-03 21:20:34;1376;-778;508;893
2020-12-03 21:25:33;1376;-780;545;664
2020-12-03 21:30:29;1362;-782;762;835
2020-12-03 21:35:33;1359;-786;577;628
2020-12-03 21:40:29;1361;-788;1602;757
2020-12-03 21:45:36;1355;-788;2498;633
2020-12-03 21:50:28;1357;-775;396;704
2020-12-03 21:55:31;1353;-784;922;822
2020-12-03 22:00:30;1358;-794;1102;849
2020-12-03 22:05:38;1346;-789;1128;552
2020-12-03 22:10:30;1364;-799;483;770
2020-12-03 22:15:27;1354;-798;1206;933
2020-12-03 22:20:28;1346;-803;864;898
2020-12-03 22:25:32;1338;-802;841;850
2020-12-03 22:30:30;1354;-802;1405;1158
2020-12-03 22:35:26;1355;-802;898;1529
2020-12-03 22:40:25;1349;-800;1673;532
2020-12-03 22:45:29;1348;-795;2330;1316
2020-12-03 22:50:25;1351;-2200;1666;429
2020-12-03 22:55:29;1291;-791;1103;437
2020-12-03 23:00:28;1361;-788;633;666
2020-12-03 23:05:31;1362;-797;1280;571
2020-12-03 23:10:30;1353;-794;1556;970
2020-12-03 23:15:31;1351;-800;3126;472
2020-12-03 23:20:29;1350;-793;1281;1314
2020-12-03 23:25:35;1356;-790;1885;1162
2020-12-03 23:30:25;1353;-798;1152;2254
2020-12-03 23:35:34;1337;-797;1828;1805
2020-12-03 23:40:29;1324;-803;2587;1146
2020-12-03 23:45:27;1320;-806;2823;1118
2020-12-03 23:50:31;1325;-808;1675;1025
2020-12-03 23:55:32;1324;-810;2966;984
2020-12-04 00:00:29;1321;-805;1196;646
2020-12-04 00:05:35;1357;-760;1222;904
2020-12-04 00:10:33;1327;-784;1446;947
2020-12-04 00:15:39;1316;-793;1440;867
2020-12-04 00:20:38;1320;-786;3391;1239
2020-12-04 00:25:28;1326;-788;2227;2518
2020-12-04 00:30:26;1329;-779;733;701
2020-12-04 00:35:26;1328;-787;2741;966
2020-12-04 00:40:28;1324;-785;1620;1019
2020-12-04 00:45:31;1330;-785;1101;903
2020-12-04 00:50:36;1327;-781;631;1734
2020-12-04 00:55:33;1316;-784;1433;532
2020-12-04 01:00:31;1325;-788;2233;669
2020-12-04 01:05:28;1326;-780;2166;2639
2020-12-04 01:10:30;1320;-785;799;650
2020-12-04 01:15:29;1326;-790;687;452
2020-12-04 01:20:31;1326;-789;2281;171
2020-12-04 01:25:29;1313;-786;2593;1177
2020-12-04 01:30:33;1304;-797;1291;1737
2020-12-04 01:35:27;1303;-799;2254;911
2020-12-04 01:40:29;1309;-788;558;1045
2020-12-04 01:45:37;1308;-797;1366;1396
2020-12-04 01:50:28;1304;-798;1418;1520
2020-12-04 01:55:28;1306;-800;1676;730
2020-12-04 02:00:30;1306;-788;1448;2557
2020-12-04 02:05:33;1323;-787;1762;656
2020-12-04 02:10:34;1351;-809;1646;551
2020-12-04 02:15:28;1353;-800;3126;1957
2020-12-04 02:20:30;1347;-793;1889;872
2020-12-04 02:25:31;1406;-768;2462;902
2020-12-04 02:30:31;1396;-788;2519;1590
2020-12-04 02:35:29;1376;-789;1847;1563
2020-12-04 02:40:31;1357;-2200;1569;1590
2020-12-04 02:45:33;1354;-799;1499;1091
2020-12-04 02:50:30;1334;-801;1290;1204
2020-12-04 02:55:25;1316;-792;1795;1094
2020-12-04 03:00:28;1309;-798;1981;1190
2020-12-04 03:05:32;-217;-794;1824;1049
2020-12-04 03:10:26;1311;-791;944;669
2020-12-04 03:15:28;1319;-796;1307;937
2020-12-04 03:20:32;1325;-783;1636;675
2020-12-04 03:25:33;1343;-784;1969;863
2020-12-04 03:30:30;1350;-791;934;906
2020-12-04 03:35:29;1365;-771;827;1060
2020-12-04 03:40:30;1372;-775;1486;905
2020-12-04 03:45:30;1382;-778;980;814
2020-12-04 03:50:34;1387;-790;730;934
2020-12-04 03:55:32;1370;-788;979;733
2020-12-04 04:00:27;1361;-790;990;834
2020-12-04 04:05:30;1356;-796;640;949
2020-12-04 04:10:34;1353;-798;884;1008
2020-12-04 04:15:26;1356;-800;1807;1029
2020-12-04 04:20:32;1361;-796;1611;1487
2020-12-04 04:25:29;1365;-790;1604;695
2020-12-04 04:30:32;1358;-788;1738;674
2020-12-04 04:35:37;1354;-796;1362;2256
2020-12-04 04:40:28;1348;-797;585;1592
2020-12-04 04:45:28;1357;-794;1816;924
2020-12-04 04:50:31;1359;-788;1320;843
2020-12-04 04:55:29;1368;-788;905;978
2020-12-04 05:00:31;-30;-783;940;1707
2020-12-04 05:05:28;1387;-774;2080;1364
2020-12-04 05:10:33;1357;-772;722;1920
2020-12-04 05:15:34;1373;-777;921;548
2020-12-04 05:20:32;1365;-781;987;1292
2020-12-04 05:25:29;1370;-781;1009;792
2020-12-04 05:30:28;1367;-786;2040;580
2020-12-04 05:35:31;1369;-784;1758;605
2020-12-04 05:40:27;1377;-779;824;751
2020-12-04 05:45:27;1376;-772;701;708
2020-12-04 05:50:40;1388;-774;2204;1593
2020-12-04 05:55:28;1396;-770;1667;728
2020-12-04 06:00:31;1407;-778;1677;691
2020-12-04 06:05:34;1399;-765;1538;900
2020-12-04 06:10:29;1389;-782;2373;1141
2020-12-04 06:15:34;1378;-772;495;909
2020-12-04 06:20:30;1396;-774;1054;969
2020-12-04 06:25:36;1383;-784;1750;1753
2020-12-04 06:30:30;1397;-770;1533;974
2020-12-04 06:35:33;1399;-768;1221;801
2020-12-04 06:40:28;1416;-763;1367;1176
2020-12-04 06:45:29;1412;-761;2028;1503
2020-12-04 06:50:32;1435;-767;1031;960
2020-12-04 06:55:31;1418;-772;1488;987
2020-12-04 07:00:38;1410;-773;958;892
2020-12-04 07:05:27;1415;-780;1728;2118
2020-12-04 07:10:34;1420;-763;1314;931
2020-12-04 07:15:35;1443;-752;1004;1550
2020-12-04 07:20:33;-216;-754;1624;1313
2020-12-04 07:25:32;1429;-879;1916;1023
2020-12-04 07:30:26;1443;-763;1830;939
2020-12-04 07:35:25;1447;-772;860;794
2020-12-04 07:40:25;1433;-746;1546;1289
2020-12-04 07:45:35;1451;-746;890;726
2020-12-04 07:50:37;1461;-738;859;1041
2020-12-04 07:55:37;1440;-728;1069;1378
2020-12-04 08:00:32;1478;-726;1005;909
2020-12-04 08:05:28;1472;-731;1314;1026
2020-12-04 08:10:31;1463;-728;2097;1096
2020-12-04 08:15:28;1454;-725;1623;949
2020-12-04 08:20:29;2766;-710;1005;1060
2020-12-04 08:25:30;1559;-750;1372;1063
2020-12-04 08:30:37;1551;-762;796;1190
2020-12-04 08:35:29;1547;-765;2294;913
2020-12-04 08:40:29;1576;-746;1455;1038
2020-12-04 08:45:28;1572;-741;1328;975
2020-12-04 08:50:37;-209;-750;2332;2124
2020-12-04 08:55:33;1536;-737;890;1237
2020-12-04 09:00:29;1522;-738;2148;1034
2020-12-04 09:05:32;1512;-721;1106;865
2020-12-04 09:10:35;1502;-708;1077;1908
2020-12-04 09:15:39;1500;-712;1093;831
2020-12-04 09:20:31;1494;-2200;961;917
2020-12-04 09:25:31;1466;-709;1508;1567
2020-12-04 09:30:28;1472;-704;1691;1085
2020-12-04 09:35:34;1472;-712;1403;975
2020-12-04 09:40:31;1463;-711;965;1061
2020-12-04 09:45:33;1458;-747;797;1504
2020-12-04 09:50:36;1482;-714;1551;772
2020-12-04 09:55:34;1495;-752;1509;453
2020-12-04 10:00:33;1475;-744;1542;823
2020-12-04 10:05:33;1443;-772;1088;685
2020-12-04 10:10:35;1424;-778;1073;1752
2020-12-04 10:15:30;1399;-786;1629;1226
2020-12-04 10:20:26;1417;-771;1363;640
2020-12-04 10:25:28;1405;-784;1342;871
2020-12-04 10:30:32;1357;-772;2590;549
2020-12-04 10:35:30;1421;-773;1690;1704
2020-12-04 10:40:30;1416;-782;1429;1127
2020-12-04 10:45:32;1426;-776;1402;655
2020-12-04 10:50:31;1419;-786;752;724
2020-12-04 10:55:30;1423;-790;2767;727
2020-12-04 11:00:31;1427;-788;1376;812
2020-12-04 11:05:30;1414;-879;2460;500
2020-12-04 11:10:27;1413;-805;2102;2156
2020-12-04 11:15:26;1432;-796;2212;1253
2020-12-04 11:20:37;1428;-799;1201;625
2020-12-04 11:25:26;1414;-810;1034;804
2020-12-04 11:30:31;1416;-812;768;738
2020-12-04 11:35:28;-30;-814;2406;2057
2020-12-04 11:40:32;1429;-829;2019;2487
2020-12-04 11:45:35;1421;-823;1405;948
2020-12-04 11:50:27;1424;-823;2683;2288
2020-12-04 11:55:29;1433;-821;1322;792
2020-12-04 12:00:28;1427;-826;1389;2133
2020-12-04 12:05:33;1407;-815;770;831
2020-12-04 12:10:30;1413;-2200;673;683
2020-12-04 12:15:34;1420;-831;1689;995
2020-12-04 12:20:34;1422;-826;960;891
2020-12-04 12:25:35;1435;-821;990;1944
2020-12-04 12:30:33;1411;-838;1726;490
2020-12-04 12:35:31;1410;-848;1780;1696
2020-12-04 12:40:49;1399;-838;1408;821
2020-12-04 12:45:33;1404;-770;968;1061
2020-12-04 12:50:28;1291;-805;666;706
2020-12-04 12:55:38;1402;-792;1013;669
2020-12-04 13:00:31;1385;-793;2148;914
2020-12-04 13:05:25;1419;-750;1294;1752
2020-12-04 13:10:30;1370;-783;2350;683
2020-12-04 13:15:35;1374;-781;750;1333
2020-12-04 13:20:32;1368;-789;2829;2514
2020-12-04 13:25:28;1372;-781;1547;693
2020-12-04 13:30:29;1367;-785;2068;2310
2020-12-04 13:35:27;1371;-789;2345;1998
2020-12-04 13:40:35;1378;-783;2263;1277
2020-12-04 13:45:27;1363;-794;2400;2814
2020-12-04 13:50:32;1368;-797;1413;614
2020-12-04 13:55:35;1382;-781;722;1061
2020-12-04 14:00:24;1411;-744;1321;624
2020-12-04 14:05:34;1352;-802;2139;571
2020-12-04 14:10:27;1361;-785;1835;2053
2020-12-04 14:15:31;1349;-799;298;795
2020-12-04 14:20:30;1348;-805;1065;488
2020-12-04 14:25:27;1347;-780;1691;438
2020-12-04 14:30:34;1366;-743;1848;1433
2020-12-04 14:35:27;1291;-2200;1458;815
2020-12-04 14:40:32;1427;-769;1919;752
2020-12-04 14:45:29;1385;-777;635;633
2020-12-04 14:50:29;1419;-757;1005;765
2020-12-04 14:55:30;1400;-766;882;785
2020-12-04 15:00:27;1411;-764;1753;1345
2020-12-04 15:05:27;1439;-767;723;684
2020-12-04 15:10:28;1426;-813;988;1726
2020-12-04 15:15:29;1438;-772;891;1089
2020-12-04 15:20:33;-214;-760;704;1271
2020-12-04 15:25:28;1430;-776;1251;976
2020-12-04 15:30:28;1398;-781;1236;449
2020-12-04 15:35:37;1400;-2200;801;650
2020-12-04 15:40:30;1406;-791;1603;667
2020-12-04 15:45:28;1402;-796;812;621
2020-12-04 15:50:32;1444;-793;614;847
2020-12-04 15:55:25;1449;-790;693;102
2020-12-04 16:00:31;1457;-779;1396;1612
2020-12-04 16:05:31;1457;-779;559;901
2020-12-04 16:10:30;1449;-2200;1735;1662
2020-12-04 16:15:39;1412;-798;1245;1573
2020-12-04 16:20:32;1455;-759;1399;682
2020-12-04 16:25:43;1439;-763;1023;633
2020-12-04 16:30:31;1439;-759;412;794
2020-12-04 16:35:31;1478;-762;733;1177
2020-12-04 16:40:43;-30;-762;1054;717
2020-12-04 16:45:32;1457;-766;1227;855
2020-12-04 16:50:27;1447;-772;634;623
2020-12-04 16:55:30;1450;-774;913;1846
2020-12-04 17:00:32;1465;-747;1639;1060
2020-12-04 17:05:28;1505;-716;1624;614
2020-12-04 17:10:33;1445;-780;871;700
2020-12-04 17:15:44;1442;-796;1866;1351
2020-12-04 17:20:33;1455;-2200;1345;1263
2020-12-04 17:25:33;1471;-765;1652;834
2020-12-04 17:30:37;1477;-752;1431;585
2020-12-04 17:35:29;1478;-756;807;777
2020-12-04 17:40:28;1441;-747;1500;1392
2020-12-04 17:45:37;1462;-706;1344;797
2020-12-04 17:50:45;1425;-728;1069;839
2020-12-04 17:55:37;1406;-729;972;771
2020-12-04 18:00:36;1398;-736;860;585
2020-12-04 18:05:34;1433;-785;1267;1340
2020-12-04 18:10:32;1444;-761;818;997
2020-12-04 18:15:39;1449;-757;1303;690
2020-12-04 18:20:36;1443;-758;2250;1223
2020-12-04 18:25:38;1027;-767;1223;704
2020-12-04 18:30:33;1473;-753;1515;1318
2020-12-04 18:35:36;1463;-762;695;775
2020-12-04 18:40:35;1465;-760;1764;940
2020-12-04 18:45:40;1432;-761;1264;1235
2020-12-04 18:50:34;1493;-744;854;899
2020-12-04 18:55:30;1027;-762;1708;980
2020-12-04 19:00:37;1404;-717;1731;1073
2020-12-04 19:05:33;1402;-679;1403;654
2020-12-04 19:10:36;1432;-720;844;1206
2020-12-04 19:15:41;1456;-753;1165;1143
2020-12-04 19:20:32;1508;-813;751;1336
2020-12-04 19:25:33;1494;-780;959;1176
2020-12-04 19:30:35;1499;-767;839;982
2020-12-04 19:35:40;1500;-772;1092;795
2020-12-04 19:40:37;1510;-759;1243;1636
2020-12-04 19:45:35;-225;-767;986;796
2020-12-04 19:50:44;1546;-746;1455;1094
2020-12-04 19:55:41;1572;-723;1433;1318
2020-12-04 20:00:30;1524;-705;1477;820
2020-12-04 20:05:36;1555;-781;890;1015
2020-12-04 20:10:36;1548;-782;1483;1116
2020-12-04 20:15:41;1523;-778;1536;1126
2020-12-04 20:20:35;1560;-769;1142;1879
2020-12-04 20:25:39;1566;-766;1715;1018
2020-12-04 20:30:32;1575;-764;1164;670
2020-12-04 20:35:38;1570;-770;677;792
2020-12-04 20:40:41;1573;-767;1019;1147
2020-12-04 20:45:39;1585;-767;1012;1583
2020-12-04 20:50:37;1582;-761;1411;1333
2020-12-04 20:55:44;1621;-746;1254;788
2020-12-04 21:00:36;1627;-755;1635;1102
2020-12-04 21:05:41;1616;-760;1792;980
2020-12-04 21:10:32;1617;-760;1167;999
2020-12-04 21:15:37;-216;-751;1502;1153
2020-12-04 21:20:37;1636;-2200;1940;1503
2020-12-04 21:25:44;1627;-2200;1381;1393
2020-12-04 21:30:36;1642;-741;1179;1123
2020-12-04 21:35:31;1656;-734;2148;924
2020-12-04 21:40:45;1652;-727;1990;1442
2020-12-04 21:45:40;1665;-723;1158;1762
2020-12-04 21:50:34;1660;-729;1740;1466
2020-12-04 21:55:36;1687;-730;1262;1587
2020-12-04 22:00:38;1678;-723;1125;1602
2020-12-04 22:05:32;1680;-720;1165;842
2020-12-04 22:10:35;1673;-721;1393;1596
2020-12-04 22:15:37;1681;-720;1108;1171
2020-12-04 22:20:32;1684;-719;901;802
2020-12-04 22:25:35;1684;-721;1917;1434
2020-12-04 22:30:37;1708;-705;1336;907
2020-12-04 22:35:35;1704;-716;1413;1341
2020-12-04 22:40:51;1711;-715;1112;862
2020-12-04 22:45:44;1707;-715;892;854
2020-12-04 22:50:39;1696;-715;2054;732
2020-12-04 22:55:30;1688;-717;1311;779
2020-12-04 23:00:37;1690;-718;1559;1441
2020-12-04 23:05:40;1685;-707;1548;1364
2020-12-04 23:10:32;1716;-719;985;1567
2020-12-04 23:15:36;1698;-702;1213;978
2020-12-04 23:20:38;1719;-704;1374;1197
2020-12-04 23:25:32;1756;-695;1715;1099
2020-12-04 23:30:36;1723;-714;1180;1255
2020-12-04 23:35:33;1748;-714;1234;1968
2020-12-04 23:40:37;1734;-713;1213;1118
2020-12-04 23:45:33;1739;-782;1124;1581
2020-12-04 23:50:41;1758;-813;1449;1639
2020-12-04 23:55:35;1730;-759;1362;1510
2020-12-05 00:00:58;1722;-2200;2288;1153
2020-12-05 00:05:32;1722;-795;1459;1373
2020-12-05 00:10:35;1721;-797;1647;2114
2020-12-05 00:15:40;1708;-796;1230;1633
2020-12-05 00:20:34;1741;-789;1624;1408
2020-12-05 00:25:35;1728;-779;1690;1959
2020-12-05 00:30:41;1762;-776;1225;1797
2020-12-05 00:35:29;1763;-775;1915;1804
2020-12-05 00:40:50;-30;-778;2132;1649
2020-12-05 00:45:33;1766;-777;1347;1225
2020-12-05 00:50:32;1752;-761;1407;1126
2020-12-05 00:55:37;1765;-764;1081;717
2020-12-05 01:00:34;1817;-736;1827;1043
2020-12-05 01:05:38;1803;-763;1475;1066
2020-12-05 01:10:36;1798;-773;1256;1796
2020-12-05 01:15:38;1785;-2200;1628;1726
2020-12-05 01:20:39;1798;-763;1430;1760
2020-12-05 01:25:31;1816;-751;1576;1659
2020-12-05 01:30:35;1822;-1143;1522;1315
2020-12-05 01:35:39;1802;-780;1563;2031
2020-12-05 01:40:41;-30;-746;1728;1547
2020-12-05 01:45:39;1847;-738;1706;1307
2020-12-05 01:50:47;1853;-2200;1140;998
2020-12-05 01:55:33;1872;-740;1391;1316
2020-12-05 02:00:39;1833;-2200;1603;1780
2020-12-05 02:05:42;1924;-726;1275;1443
2020-12-05 02:10:35;1894;-727;2152;1194
2020-12-05 02:15:38;1914;-719;1014;1510
2020-12-05 02:20:37;1845;-730;1752;1254
2020-12-05 02:25:31;1934;-729;1440;2065
2020-12-05 02:30:34;1863;-744;1967;1166
2020-12-05 02:35:29;1812;-732;1320;1603
2020-12-05 02:40:52;1805;-725;1647;1161
2020-12-05 02:45:41;1825;-729;1409;1147
2020-12-05 02:50:37;1855;-716;2117;1058
2020-12-05 02:55:33;1868;-718;2165;1193
2020-12-05 03:00:50;1751;-708;1592;995
2020-12-05 03:05:35;1752;-707;1174;1038
2020-12-05 03:10:34;1754;-709;2305;1239
2020-12-05 03:15:29;1893;-770;1671;2152
2020-12-05 03:20:44;1857;-777;1565;1124
2020-12-05 03:25:38;1783;-778;1452;1285
2020-12-05 03:30:37;1767;-780;1306;1347
2020-12-05 03:35:32;1803;-759;1453;2242
2020-12-05 03:40:36;1802;-771;2017;890
2020-12-05 03:45:35;1841;-756;1751;1334
2020-12-05 03:50:32;1955;-759;2277;1115
2020-12-05 03:55:31;1842;-754;1224;1637
2020-12-05 04:00:37;1807;-743;1249;1405
2020-12-05 04:05:33;1957;-738;2181;1456
2020-12-05 04:10:32;1837;-749;1606;1765
2020-12-05 04:15:39;1831;-747;1718;1363
2020-12-05 04:20:34;1773;-741;1795;1533
2020-12-05 04:25:30;1750;-729;1380;1506
2020-12-05 04:30:35;1866;-739;1412;1482
2020-12-05 04:35:57;1818;-731;1434;1558
2020-12-05 04:40:30;1823;-738;1140;1795
2020-12-05 04:45:38;1784;-721;1860;1065
2020-12-05 04:50:38;1786;-714;1580;1737
2020-12-05 04:55:29;1556;-716;1699;1399
2020-12-05 05:00:35;-30;-704;1741;1367
2020-12-05 05:05:52;1798;-698;1668;1233
2020-12-05 05:10:32;1556;-707;1717;2024
2020-12-05 05:15:44;-301;-695;1887;1551
2020-12-05 05:20:35;1812;-701;2009;1455
2020-12-05 05:25:36;1809;-687;1618;994
2020-12-05 05:30:35;1806;-1143;1373;1746
2020-12-05 05:35:29;1826;-735;1362;1500
2020-12-05 05:40:35;1830;-737;1754;1635
2020-12-05 05:45:30;1866;-722;1310;1302
2020-12-05 05:50:43;1842;-714;1395;1695
2020-12-05 05:55:36;1867;-713;1404;2194
2020-12-05 06:00:34;1861;-705;1761;1828
2020-12-05 06:05:37;1864;-710;2241;1700
2020-12-05 06:10:41;1866;-707;1525;1289
2020-12-05 06:15:49;1858;-711;1940;1394
2020-12-05 06:20:45;1863;-708;1727;1624
2020-12-05 06:25:37;1884;-704;1998;1872
2020-12-05 06:30:36;1881;-698;1834;1510
2020-12-05 06:35:32;1888;-690;2458;1246
2020-12-05 06:40:35;1880;-693;1464;2084
2020-12-05 06:45:46;1878;-697;1702;2023
2020-12-05 06:50:34;1896;-684;1573;1098
2020-12-05 06:55:51;1986;-686;1612;2399
2020-12-05 07:00:43;1929;-684;2887;1262
2020-12-05 07:05:36;1908;-676;1264;2223
2020-12-05 07:10:40;1918;-685;1735;1399
2020-12-05 07:15:33;1933;-680;1350;1400
2020-12-05 07:20:43;1886;-676;2115;1670
2020-12-05 07:25:39;1889;-678;2387;1501
2020-12-05 07:30:34;1894;-677;1537;1907
2020-12-05 07:35:33;1909;-672;1711;1700
2020-12-05 07:40:40;1917;-670;2370;1817
2020-12-05 07:45:32;1910;-2200;1663;2482
2020-12-05 07:50:30;1885;-670;1785;1261
2020-12-05 07:55:41;1905;-660;2549;2174
2020-12-05 08:00:42;1719;-1143;2122;1970
2020-12-05 08:05:42;-30;-714;2249;2003
2020-12-05 08:10:41;1633;-731;1845;1417
2020-12-05 08:15:39;1644;-716;2221;1587
2020-12-05 08:20:42;1639;-730;2204;2341
2020-12-05 08:25:34;1695;-733;1874;1523
2020-12-05 08:30:38;1714;-719;1874;2243
2020-12-05 08:35:42;1721;-715;2168;2012
2020-12-05 08:40:42;1705;-2200;2344;1741
2020-12-05 08:45:44;1793;-2200;1601;1976
2020-12-05 08:50:42;1787;-691;1524;1911
2020-12-05 08:55:49;1626;-682;2278;2475
2020-12-05 09:00:37;1773;-692;1567;1471
2020-12-05 09:05:43;-236;-733;2356;1623
2020-12-05 09:10:34;1764;-716;1587;1812
2020-12-05 09:15:37;1745;-706;1514;1471
2020-12-05 09:20:30;2028;-696;2264;1471
2020-12-05 09:25:31;2007;-687;1401;1425
2020-12-05 09:30:28;1960;-681;2348;1323
2020-12-05 09:35:30;1919;-688;1869;1366
2020-12-05 09:40:33;1919;-687;1691;1328
2020-12-05 09:45:30;1923;-703;1998;2184
2020-12-05 09:50:34;1876;-693;1554;1257
2020-12-05 09:55:36;1825;-715;2451;1558
2020-12-05 10:00:33;1852;-711;1818;1744
2020-12-05 10:05:42;1814;-710;1317;1214
2020-12-05 10:10:30;1803;-2200;2143;1548
2020-12-05 10:15:35;1779;-2200;1518;1145
2020-12-05 10:20:40;1748;-747;1134;2052
2020-12-05 10:25:29;1745;-752;1167;1084
2020-12-05 10:30:29;1732;-748;1485;1820
2020-12-05 10:35:28;1734;-759;1982;929
2020-12-05 10:40:29;1735;-760;1727;950
2020-12-05 10:45:28;1732;-758;1615;979
2020-12-05 10:50:29;1716;-766;1519;906
2020-12-05 10:55:29;1709;-879;429;1540
2020-12-05 11:00:30;1706;-762;1254;862
2020-12-05 11:05:27;1706;-775;1833;1494
2020-12-05 11:10:29;1701;-772;1638;1531
2020-12-05 11:15:28;1692;-782;1383;1349
2020-12-05 11:20:29;1027;-789;2277;1161
2020-12-05 11:25:31;1667;-802;880;190
2020-12-05 11:30:32;1675;-797;1512;1707
2020-12-05 11:35:28;1684;-792;2031;1302
2020-12-05 11:40:34;1671;-814;684;732
2020-12-05 11:45:31;1622;-807;1531;676
2020-12-05 11:50:45;1617;-731;2026;901
2020-12-05 11:55:29;-30;-751;910;1208
2020-12-05 12:00:33;1682;-778;1763;1295
2020-12-05 12:05:36;1672;-779;1670;1197
2020-12-05 12:10:35;1659;-780;581;626
2020-12-05 12:15:34;1671;-789;1671;855
2020-12-05 12:20:32;1656;-794;731;1259
2020-12-05 12:25:34;1642;-808;1895;792
2020-12-05 12:30:34;1644;-815;1455;425
2020-12-05 12:35:31;1632;-2200;870;734
2020-12-05 12:40:26;1607;-2200;1079;851
2020-12-05 12:45:32;1635;-814;861;942
2020-12-05 12:50:32;1620;-827;1165;822
2020-12-05 12:55:32;1600;-842;1678;1368
2020-12-05 13:00:34;1607;-821;1113;935
2020-12-05 13:05:39;1615;-813;712;705
2020-12-05 13:10:32;1597;-838;799;780
2020-12-05 13:15:33;1605;-821;962;1161
2020-12-05 13:20:31;1572;-848;1200;665
2020-12-05 13:25:35;1600;-815;1950;1432
2020-12-05 13:30:31;1590;-844;717;953
2020-12-05 13:35:30;1583;-879;1757;765
2020-12-05 13:40:29;1586;-845;1296;689
2020-12-05 13:45:32;1603;-824;972;827
2020-12-05 13:50:29;1560;-861;1189;771
2020-12-05 13:55:33;1569;-857;625;425
2020-12-05 14:00:32;1579;-846;900;868
2020-12-05 14:05:33;1565;-855;1232;654
2020-12-05 14:10:39;1568;-858;1168;894
2020-12-05 14:15:31;1550;-872;990;864
2020-12-05 14:20:29;1540;-2200;762;777
2020-12-05 14:25:27;1532;-857;1507;670
2020-12-05 14:30:34;1600;-764;718;1420
2020-12-05 14:35:29;1603;-799;1169;1044
2020-12-05 14:40:31;1596;-800;1180;810
2020-12-05 14:45:39;1628;-767;1356;713
2020-12-05 14:50:29;1604;-805;1895;803
2020-12-05 14:55:35;1594;-803;1080;632
2020-12-05 15:00:33;1556;-782;1122;424
2020-12-05 15:05:32;1530;-728;608;478
2020-12-05 15:10:29;1597;-720;771;830
2020-12-05 15:15:31;1596;-753;1177;970
2020-12-05 15:20:31;1606;-730;856;618
2020-12-05 15:25:34;1575;-726;1218;1274
2020-12-05 15:30:33;1498;-750;724;590
2020-12-05 15:35:29;1601;-747;706;980
2020-12-05 15:40:38;1574;-741;1191;826
2020-12-05 15:45:43;1598;-723;766;647
2020-12-05 15:50:31;1615;-700;2052;880
2020-12-05 15:55:35;1481;-803;577;372
2020-12-05 16:00:32;1561;-704;920;557
2020-12-05 16:05:32;1593;-714;431;738
2020-12-05 16:10:33;1549;-755;1098;581
2020-12-05 16:15:30;1542;-837;1142;500
2020-12-05 16:20:32;1511;-840;682;454
2020-12-05 16:25:27;1546;-809;1207;172
2020-12-05 16:30:30;1488;-803;741;543
2020-12-05 16:35:31;1426;-745;729;554
2020-12-05 16:40:24;1542;-724;1151;532
2020-12-05 16:45:29;1566;-792;566;609
2020-12-05 16:50:27;1423;-796;1352;574
2020-12-05 16:55:31;1545;-807;881;883
2020-12-05 17:00:31;1555;-775;695;979
2020-12-05 17:05:30;1027;-802;1244;714
2020-12-05 17:10:33;1559;-760;572;926
2020-12-05 17:15:36;1553;-774;1449;1115
2020-12-05 17:20:33;1539;-788;975;241
2020-12-05 17:25:35;1518;-789;314;457
2020-12-05 17:30:38;1291;-782;983;503
2020-12-05 17:35:29;1526;-787;861;792
2020-12-05 17:40:32;1524;-770;821;674
2020-12-05 17:45:28;1539;-786;629;585
2020-12-05 17:50:31;1550;-772;1024;1182
2020-12-05 17:55:33;1529;-2200;1266;989
2020-12-05 18:00:34;1534;-786;697;802
2020-12-05 18:05:28;1525;-792;668;857
2020-12-05 18:10:24;1548;-780;1604;981
2020-12-05 18:15:30;1553;-2200;823;353
2020-12-05 18:20:29;1535;-782;1083;1002
2020-12-05 18:25:28;1535;-777;589;780
2020-12-05 18:30:36;1534;-781;798;674
2020-12-05 18:35:29;1522;-772;1159;550
2020-12-05 18:40:28;1526;-779;990;294
2020-12-05 18:45:30;1528;-780;1324;871
2020-12-05 18:50:30;1506;-879;732;789
2020-12-05 18:55:31;1532;-765;1502;718
2020-12-05 19:00:30;1518;-879;1146;930
2020-12-05 19:05:34;1519;-777;451;452
2020-12-05 19:10:27;1502;-789;1456;1174
2020-12-05 19:15:30;1462;-739;310;1230
2020-12-05 19:20:29;1480;-737;1314;1515
2020-12-05 19:25:33;1522;-778;1232;853
2020-12-05 19:30:30;1522;-768;1971;1149
2020-12-05 19:35:31;1534;-783;1233;757
2020-12-05 19:40:32;1521;-767;1070;666
2020-12-05 19:45:30;1535;-772;1197;674
2020-12-05 19:50:28;1509;-799;1034;718
2020-12-05 19:55:27;1510;-794;564;929
2020-12-05 20:00:28;-214;-793;1489;906
2020-12-05 20:05:31;1493;-788;783;860
2020-12-05 20:10:32;1495;-799;609;1468
2020-12-05 20:15:32;1505;-753;1173;599
2020-12-05 20:20:32;1480;-771;935;777
2020-12-05 20:25:27;1478;-775;1136;536
2020-12-05 20:30:30;1478;-777;963;1165
2020-12-05 20:35:31;1475;-772;820;596
2020-12-05 20:40:27;1482;-772;1158;1855
2020-12-05 20:45:27;1488;-779;1440;1143
2020-12-05 20:50:31;1500;-741;1890;490
2020-12-05 20:55:32;1471;-766;1072;848
2020-12-05 21:00:43;1461;-731;1677;1324
2020-12-05 21:05:29;1488;-745;1773;779
2020-12-05 21:10:31;1481;-738;2047;1939
2020-12-05 21:15:33;1473;-748;1907;666
2020-12-05 21:20:31;1478;-735;1654;1613
2020-12-05 21:25:44;1460;-744;2414;928
2020-12-05 21:30:31;1456;-741;845;1094
2020-12-05 21:35:38;1463;-753;1055;537
2020-12-05 21:40:36;1470;-738;1283;728
2020-12-05 21:45:25;1466;-740;2097;896
2020-12-05 21:50:28;1448;-753;1116;552
2020-12-05 21:55:32;1432;-771;958;759
2020-12-05 22:00:32;1423;-752;998;1173
2020-12-05 22:05:34;1456;-742;771;474
2020-12-05 22:10:31;1422;-785;1659;835
2020-12-05 22:15:34;1430;-763;1164;482
2020-12-05 22:20:30;1440;-765;1183;526
2020-12-05 22:25:34;1431;-774;1512;1231
2020-12-05 22:30:32;1437;-772;2173;1211
2020-12-05 22:35:37;1423;-776;1702;666
2020-12-05 22:40:27;1427;-773;971;1740
2020-12-05 22:45:32;1425;-777;1303;1199
2020-12-05 22:50:31;1434;-775;1391;1265
2020-12-05 22:55:42;1409;-776;1608;1635
2020-12-05 23:00:37;1409;-790;1543;1393
2020-12-05 23:05:36;1412;-781;1383;1339
2020-12-05 23:10:34;1411;-776;1499;1720
2020-12-05 23:15:30;1423;-767;902;699
2020-12-05 23:20:32;-202;-772;1656;1371
2020-12-05 23:25:31;1414;-765;1163;1314
2020-12-05 23:30:28;1430;-758;1857;469
2020-12-05 23:35:31;1426;-761;1304;955
2020-12-05 23:40:44;1419;-763;1429;1234
2020-12-05 23:45:30;1432;-774;1682;1274
2020-12-05 23:50:34;1436;-813;1911;1697
2020-12-05 23:55:28;1446;-879;1498;1468
2020-12-06 00:00:34;1410;-776;1190;1312
2020-12-06 00:05:41;1426;-754;1612;1343
2020-12-06 00:10:31;1395;-778;1666;1223
2020-12-06 00:15:27;1424;-756;1415;1381
2020-12-06 00:20:29;1432;-768;1307;1655
2020-12-06 00:25:28;1381;-734;1248;1372
2020-12-06 00:30:30;1444;-768;1241;1549
2020-12-06 00:35:32;1435;-788;1609;1235
2020-12-06 00:40:30;1446;-780;2064;1948
2020-12-06 00:45:39;1461;-776;2166;1911
2020-12-06 00:50:34;1458;-777;1754;1233
2020-12-06 00:55:27;1453;-781;2212;1627
2020-12-06 01:00:32;1437;-779;1885;2698
2020-12-06 01:05:35;1433;-813;1677;2068
2020-12-06 01:10:32;1435;-786;1433;1320
2020-12-06 01:15:37;1438;-789;1842;1690
2020-12-06 01:20:30;1443;-785;2047;1789
2020-12-06 01:25:32;1433;-785;1369;1734
2020-12-06 01:30:32;1426;-779;1473;1798
2020-12-06 01:35:36;1438;-774;1688;1585
2020-12-06 01:40:34;1438;-777;2169;1531
2020-12-06 01:45:33;1444;-778;1365;2282
2020-12-06 01:50:32;1446;-774;1762;1478
2020-12-06 01:55:33;1448;-774;1841;2143
2020-12-06 02:00:42;1451;-778;1691;2267
2020-12-06 02:05:35;1443;-763;1412;2048
2020-12-06 02:10:27;1430;-780;2513;1494
2020-12-06 02:15:30;1420;-788;2420;1568
2020-12-06 02:20:32;1422;-780;1678;1414
2020-12-06 02:25:26;1434;-783;1521;1441
2020-12-06 02:30:30;1433;-772;1780;1615
2020-12-06 02:35:29;1429;-776;2078;1660
2020-12-06 02:40:41;1435;-777;2324;1792
2020-12-06 02:45:28;1438;-776;1513;1522
2020-12-06 02:50:38;1438;-765;1424;1602
2020-12-06 02:55:34;1419;-777;1849;1850
2020-12-06 03:00:29;1434;-779;1991;1351
2020-12-06 03:05:30;1422;-785;2071;1624
2020-12-06 03:10:33;1441;-780;2293;1629
2020-12-06 03:15:34;1432;-780;1561;1407
2020-12-06 03:20:28;1427;-782;1981;1423
2020-12-06 03:25:37;1427;-781;2662;1463
2020-12-06 03:30:30;1406;-789;2474;2166
2020-12-06 03:35:28;1417;-767;1741;2107
2020-12-06 03:40:25;1416;-782;1718;1509
2020-12-06 03:45:29;1417;-769;1521;1059
2020-12-06 03:50:32;1409;-779;1722;1630
2020-12-06 03:55:32;677;-777;2330;1650
2020-12-06 04:00:29;1410;-783;1579;1463
2020-12-06 04:05:30;1422;-780;1546;1349
2020-12-06 04:10:34;1422;-777;2061;1493
2020-12-06 04:15:33;1408;-774;1687;2392
2020-12-06 04:20:34;1404;-788;1905;1507
2020-12-06 04:25:38;1403;-794;1863;1512
2020-12-06 04:30:31;1394;-796;1549;1554
2020-12-06 04:35:30;1395;-786;1369;1226
2020-12-06 04:40:30;1391;-787;1282;1532
2020-12-06 04:45:33;1391;-782;1378;1386
2020-12-06 04:50:30;1394;-792;1773;1523
2020-12-06 04:55:30;1397;-793;1549;1076
2020-12-06 05:00:28;1405;-781;1692;1234
2020-12-06 05:05:34;1392;-791;1447;1326
2020-12-06 05:10:27;-30;-786;1330;1349
2020-12-06 05:15:30;1389;-793;1553;1398
2020-12-06 05:20:33;1397;-797;1631;1757
2020-12-06 05:25:35;1397;-787;1689;1430
2020-12-06 05:30:29;1388;-790;1834;1575
2020-12-06 05:35:28;1374;-786;1427;1099
2020-12-06 05:40:31;1364;-804;1756;1181
2020-12-06 05:45:31;1376;-787;1485;1052
2020-12-06 05:50:33;1382;-783;1342;1383
2020-12-06 05:55:27;1375;-792;1359;1553
2020-12-06 06:00:37;1371;-787;1325;1335
2020-12-06 06:05:34;1027;-793;1021;1266
2020-12-06 06:10:30;1379;-793;1492;1472
2020-12-06 06:15:32;1386;-788;929;631
2020-12-06 06:20:38;1392;-792;1621;1249
2020-12-06 06:25:41;1393;-779;1693;1531
2020-12-06 06:30:32;1360;-798;1335;1260
2020-12-06 06:35:34;1348;-796;1563;761
2020-12-06 06:40:36;1556;-832;1480;1539
2020-12-06 06:45:27;1622;-869;1457;1150
2020-12-06 06:50:32;-30;-855;1725;1479
2020-12-06 06:55:33;1630;-848;1180;1149
2020-12-06 07:00:31;1643;-847;1597;1128
2020-12-06 07:05:29;1640;-844;1521;1559
2020-12-06 07:10:34;1652;-848;3034;1310
2020-12-06 07:15:29;1649;-842;1823;1178
2020-12-06 07:20:28;1653;-845;1675;1744
2020-12-06 07:25:28;1655;-879;1316;1438
2020-12-06 07:30:31;1667;-2200;1126;1227
2020-12-06 07:35:31;1656;-850;1364;1416
2020-12-06 07:40:28;1675;-842;1470;2339
2020-12-06 07:45:26;1663;-850;2354;1532
2020-12-06 07:50:39;1663;-839;1553;1178
2020-12-06 07:55:34;1662;-846;1457;1177
2020-12-06 08:00:24;1657;-835;1140;1179
2020-12-06 08:05:31;1672;-819;1612;1576
2020-12-06 08:10:32;1665;-822;2531;1446
2020-12-06 08:15:30;1662;-1143;1827;1060
2020-12-06 08:20:32;1661;-819;2277;1157
2020-12-06 08:25:29;1657;-828;1568;1766
2020-12-06 08:30:39;1661;-820;1573;1314
2020-12-06 08:35:30;-1514;-898;1316;1567
2020-12-06 08:40:27;-518;-775;57;50
2020-12-06 08:45:31;-262;-765;240;140
2020-12-06 08:50:32;-199;-764;253;139
2020-12-06 08:55:31;-152;-765;252;263
2020-12-06 09:00:27;-1087;-774;189;-11
2020-12-06 09:05:31;-112;-765;427;0
2020-12-06 09:10:29;-195;-760;119;173
2020-12-06 09:15:27;-175;-774;255;-14
2020-12-06 09:20:33;-158;-777;502;35
2020-12-06 09:25:27;-142;-773;92;62
2020-12-06 09:30:31;-138;-775;233;413
2020-12-06 09:35:31;-133;-773;263;223
2020-12-06 09:40:32;-137;-762;592;92
2020-12-06 09:45:31;-153;-776;495;-18
2020-12-06 09:50:25;-134;-776;525;41
2020-12-06 09:55:29;-110;-774;152;117
2020-12-06 10:00:27;-141;-775;743;612
2020-12-06 10:05:31;-143;-773;693;546
2020-12-06 10:10:29;-144;-770;52;38
2020-12-06 10:15:35;-92;-773;642;288
2020-12-06 10:20:33;-120;-779;531;215
2020-12-06 10:25:29;-96;-773;385;477
2020-12-06 10:30:31;-123;-763;376;148
2020-12-06 10:35:28;-129;-774;356;283
2020-12-06 10:40:28;-114;-770;746;471
2020-12-06 10:45:35;-108;-2200;310;416
2020-12-06 10:50:32;-97;-777;296;225
2020-12-06 10:55:26;-89;-782;262;155
2020-12-06 11:00:34;-101;-766;773;166
2020-12-06 11:05:30;-117;-766;245;163
2020-12-06 11:10:28;-125;-2200;517;151
2020-12-06 11:15:33;-125;-771;647;81
2020-12-06 11:20:29;-162;-768;294;55
2020-12-06 11:25:35;-123;-769;81;61
2020-12-06 11:30:37;-123;-760;470;88
2020-12-06 11:35:31;-129;-769;832;101
2020-12-06 11:40:36;-126;-761;208;153
2020-12-06 11:45:28;-121;-769;357;194
2020-12-06 11:50:31;-120;-767;388;125
2020-12-06 11:55:34;-105;-771;921;409
2020-12-06 12:00:27;-85;-776;964;165
2020-12-06 12:05:29;-100;-769;300;171
2020-12-06 12:10:32;-109;-768;348;14
2020-12-06 12:15:29;-100;-777;528;219
2020-12-06 12:20:29;-95;-766;292;269
2020-12-06 12:25:31;-103;-773;274;95
2020-12-06 12:30:28;-110;-771;201;202
2020-12-06 12:35:28;-103;-780;541;320
2020-12-06 12:40:35;-92;-780;280;492
2020-12-06 12:45:30;-90;-769;238;1053
2020-12-06 12:50:30;-101;-772;443;1003
2020-12-06 12:55:28;-106;-770;533;121
2020-12-06 13:00:30;-89;-2200;496;60
2020-12-06 13:05:28;-72;-768;787;152
2020-12-06 13:10:31;-78;-779;364;252
2020-12-06 13:15:30;-85;-775;529;201
2020-12-06 13:20:30;-76;-778;767;506
2020-12-06 13:25:33;-74;-778;543;206
2020-12-06 13:30:29;-63;-775;491;291
2020-12-06 13:35:34;-69;-780;436;171
2020-12-06 13:40:30;-75;-2200;254;151
2020-12-06 13:45:29;-75;-774;706;396
2020-12-06 13:50:29;-83;-766;172;84
2020-12-06 13:55:33;-86;-772;175;430
2020-12-06 14:00:29;-64;-781;343;296
2020-12-06 14:05:29;-42;-771;609;186
2020-12-06 14:10:32;-53;-774;446;377
2020-12-06 14:15:31;-59;-780;548;273
2020-12-06 14:20:29;-61;-770;309;277
2020-12-06 14:25:29;-64;-775;276;240
2020-12-06 14:30:30;-58;-774;456;450
2020-12-06 14:35:42;-55;-767;508;354
2020-12-06 14:40:32;-50;-776;425;283
2020-12-06 14:45:39;-47;-770;409;257
2020-12-06 14:50:37;-48;-776;457;650
2020-12-06 14:55:26;-45;-776;258;404
2020-12-06 15:00:37;-43;-764;662;848
2020-12-06 15:05:33;-50;-764;429;245
2020-12-06 15:10:28;-35;-762;349;197
2020-12-06 15:15:28;-28;-770;440;308
2020-12-06 15:20:32;-20;-760;461;284
2020-12-06 15:25:28;-30;-766;506;448
2020-12-06 15:30:28;-30;-771;491;335
2020-12-06 15:35:35;-26;-761;537;183
2020-12-06 15:40:27;-24;-765;790;690
2020-12-06 15:45:32;-11;-756;355;392
2020-12-06 15:50:25;-6;-769;807;753
2020-12-06 15:55:27;-11;-769;931;725
2020-12-06 16:00:31;-13;-760;427;370
2020-12-06 16:05:26;-29;-767;716;716
2020-12-06 16:10:31;-42;-767;685;306
2020-12-06 16:15:27;-52;-759;550;535
2020-12-06 16:20:28;-24;-769;4;-24
2020-12-06 16:25:28;85;-757;625;254
2020-12-06 16:30:28;90;-767;310;231
2020-12-06 16:35:28;78;-763;434;400
2020-12-06 16:40:28;49;-766;444;316
2020-12-06 16:45:36;48;-765;252;400
2020-12-06 16:50:32;32;-762;596;540
2020-12-06 16:55:30;45;-765;405;352
2020-12-06 17:00:30;27;-762;585;222
2020-12-06 17:05:32;19;-766;387;375
2020-12-06 17:10:27;-8;-778;298;230
2020-12-06 17:15:34;-4;-773;293;107
2020-12-06 17:20:29;-13;-771;172;77
2020-12-06 17:25:37;-22;-768;270;281
2020-12-06 17:30:35;-6;-777;298;65
2020-12-06 17:35:28;-17;-778;102;87
2020-12-06 17:40:25;-10;-774;207;197
2020-12-06 17:45:25;-20;-763;311;231
2020-12-06 17:50:34;0;-768;369;125
2020-12-06 17:55:30;-8;-774;344;58
2020-12-06 18:00:26;-7;-766;546;170
2020-12-06 18:05:28;-13;-770;251;488
2020-12-06 18:10:27;-13;-767;743;276
2020-12-06 18:15:26;0;-765;249;160
2020-12-06 18:20:30;-11;-759;527;229
2020-12-06 18:25:30;28;-2200;834;385
2020-12-06 18:30:31;-30;-768;587;250
2020-12-06 18:35:33;-12;-769;373;529
2020-12-06 18:40:33;29;-760;351;245
2020-12-06 18:45:31;-9;-762;413;260
2020-12-06 18:50:30;10;-772;369;444
2020-12-06 18:55:25;18;-768;363;398
2020-12-06 19:00:28;15;-758;390;557
2020-12-06 19:05:29;4;-767;372;302
2020-12-06 19:10:44;15;-761;557;621
2020-12-06 19:15:30;3;-761;517;715
2020-12-06 19:20:26;15;-766;746;664
2020-12-06 19:25:33;19;-763;695;629
2020-12-06 19:30:33;-1;-770;606;587
2020-12-06 19:35:28;18;-769;613;643
2020-12-06 19:40:32;19;-759;687;660
2020-12-06 19:45:32;23;-754;609;616
2020-12-06 19:50:35;19;-756;643;631
2020-12-06 19:55:31;19;-758;446;467
2020-12-06 20:00:29;8;-764;214;172
2020-12-06 20:05:31;18;-767;368;462
2020-12-06 20:10:35;28;-761;209;123
2020-12-06 20:15:26;26;-755;553;377
2020-12-06 20:20:28;-30;-754;363;448
2020-12-06 20:25:32;40;-761;513;547
2020-12-06 20:30:27;-30;-757;541;439
2020-12-06 20:35:29;40;-759;379;670
2020-12-06 20:40:29;40;-757;319;597
2020-12-06 20:45:41;50;-762;197;150
2020-12-06 20:50:33;40;-756;184;280
2020-12-06 20:55:34;47;-760;193;434
2020-12-06 21:00:32;54;-763;69;57
2020-12-06 21:05:35;55;-759;165;75
2020-12-06 21:10:31;47;-760;330;152
2020-12-06 21:15:28;40;-759;96;105
2020-12-06 21:20:27;60;-759;737;74
2020-12-06 21:25:43;37;-756;469;163
2020-12-06 21:30:28;26;-768;466;209
2020-12-06 21:35:37;44;-768;111;59
2020-12-06 21:40:36;-30;-757;625;187
2020-12-06 21:45:27;13;-767;611;310
2020-12-06 21:50:28;12;-768;155;95
2020-12-06 21:55:25;16;-771;65;64
2020-12-06 22:00:33;17;-769;248;109
2020-12-06 22:05:31;-30;-2200;145;259
2020-12-06 22:10:31;4;-775;653;47
2020-12-06 22:15:26;24;-776;42;23
2020-12-06 22:20:37;-3;-769;663;460
2020-12-06 22:25:31;-30;-766;551;652
2020-12-06 22:30:32;4;-773;663;538
2020-12-06 22:35:32;5;-769;380;419
2020-12-06 22:40:30;4;-775;488;238
2020-12-06 22:45:30;18;-776;774;436
2020-12-06 22:50:28;13;-772;220;333
2020-12-06 22:55:31;10;-773;526;624
2020-12-06 23:00:30;22;-774;378;307
2020-12-06 23:05:30;24;-766;305;360
2020-12-06 23:10:34;12;-760;506;143
2020-12-06 23:15:29;19;-775;548;332
2020-12-06 23:20:27;10;-773;331;304
2020-12-06 23:25:30;6;-772;478;203
2020-12-06 23:30:36;10;-777;681;611
2020-12-06 23:35:35;15;-764;143;481
2020-12-06 23:40:28;12;-769;398;441
2020-12-06 23:45:43;21;-773;288;339
2020-12-06 23:50:39;19;-764;418;-12
2020-12-06 23:55:29;14;-769;437;327
