2020-12-07 00:00:32;100;55;27
2020-12-07 00:05:32;100;55;27
2020-12-07 00:10:25;100;55;27
2020-12-07 00:15:27;100;55;27
2020-12-07 00:20:33;100;55;27
2020-12-07 00:25:31;100;55;27
2020-12-07 00:30:28;100;55;27
2020-12-07 00:35:31;100;55;27
2020-12-07 00:40:31;100;55;27
2020-12-07 00:45:36;100;55;27
2020-12-07 00:50:29;100;55;27
2020-12-07 00:55:37;100;55;27
2020-12-07 01:00:25;100;55;27
2020-12-07 01:05:30;100;55;27
2020-12-07 01:10:28;100;55;27
2020-12-07 01:15:30;100;55;27
2020-12-07 01:20:26;100;55;27
2020-12-07 01:25:35;100;55;27
2020-12-07 01:30:31;100;55;27
2020-12-07 01:35:31;100;55;27
2020-12-07 01:40:36;100;55;27
2020-12-07 01:45:28;100;55;27
2020-12-07 01:50:30;100;55;27
2020-12-07 01:55:29;100;55;27
2020-12-07 02:00:28;100;55;27
2020-12-07 02:05:32;100;55;27
2020-12-07 02:10:28;100;55;27
2020-12-07 02:15:36;100;55;27
2020-12-07 02:20:30;100;55;27
2020-12-07 02:25:29;100;55;27
2020-12-07 02:30:42;100;55;27
2020-12-07 02:35:29;100;55;27
2020-12-07 02:40:27;100;55;27
2020-12-07 02:45:29;100;55;27
2020-12-07 02:50:30;100;55;27
2020-12-07 02:55:32;100;55;27
2020-12-07 03:00:32;100;55;27
2020-12-07 03:05:30;100;55;27
2020-12-07 03:10:28;100;55;27
2020-12-07 03:15:28;100;55;27
2020-12-07 03:20:27;100;55;27
2020-12-07 03:25:30;100;55;27
2020-12-07 03:30:30;100;55;27
2020-12-07 03:35:26;100;55;27
2020-12-07 03:40:35;100;55;27
2020-12-07 03:45:33;100;55;27
2020-12-07 03:50:32;100;55;27
2020-12-07 03:55:33;100;55;27
2020-12-07 04:00:30;100;55;27
2020-12-07 04:05:29;100;55;27
2020-12-07 04:10:27;100;55;27
2020-12-07 04:15:33;100;55;27
2020-12-07 04:20:30;100;55;27
2020-12-07 04:25:27;100;55;27
2020-12-07 04:30:27;100;55;27
2020-12-07 04:35:32;100;55;27
2020-12-07 04:40:26;100;55;27
2020-12-07 04:45:27;100;55;27
2020-12-07 04:50:31;100;55;27
2020-12-07 04:55:30;100;55;27
2020-12-07 05:00:26;100;55;27
2020-12-07 05:05:31;100;55;27
2020-12-07 05:10:31;100;55;27
2020-12-07 05:15:31;100;55;27
2020-12-07 05:20:38;100;55;27
2020-12-07 05:25:37;100;55;27
2020-12-07 05:30:34;100;55;27
2020-12-07 05:35:28;100;55;27
2020-12-07 05:40:31;100;55;27
2020-12-07 05:45:39;100;55;27
2020-12-07 05:50:27;100;55;27
2020-12-07 05:55:27;100;55;27
2020-12-07 06:00:26;100;55;27
2020-12-07 06:05:31;100;55;27
2020-12-07 06:10:29;100;55;27
2020-12-07 06:15:31;100;55;27
2020-12-07 06:20:32;100;55;27
2020-12-07 06:25:35;100;55;27
2020-12-07 06:30:27;100;55;27
2020-12-07 06:35:30;100;55;27
2020-12-07 06:40:31;100;55;27
2020-12-07 06:45:30;100;55;27
2020-12-07 06:50:27;100;55;27
2020-12-07 06:55:32;100;55;27
2020-12-07 07:00:31;100;55;27
2020-12-07 07:05:35;100;55;27
2020-12-07 07:10:31;100;55;27
2020-12-07 07:15:31;100;55;27
2020-12-07 07:20:29;100;55;27
2020-12-07 07:25:32;100;55;27
2020-12-07 07:30:27;100;55;27
2020-12-07 07:35:30;100;55;27
2020-12-07 07:40:32;100;55;27
2020-12-07 07:45:27;100;55;27
2020-12-07 07:50:37;100;55;27
2020-12-07 07:55:28;100;55;27
2020-12-07 08:00:26;100;55;27
2020-12-07 08:05:29;100;55;27
2020-12-07 08:10:32;100;55;27
2020-12-07 08:15:27;100;55;27
2020-12-07 08:20:33;100;55;27
2020-12-07 08:25:29;100;55;27
2020-12-07 08:30:32;100;55;27
2020-12-07 08:35:31;100;55;27
2020-12-07 08:40:29;100;55;27
2020-12-07 08:45:28;100;55;27
2020-12-07 08:50:28;100;55;27
2020-12-07 08:55:32;100;55;27
2020-12-07 09:00:37;100;55;27
2020-12-07 09:05:30;100;55;27
2020-12-07 09:10:25;100;55;27
2020-12-07 09:15:37;100;55;27
2020-12-07 09:20:31;100;55;27
2020-12-07 09:25:34;100;55;27
2020-12-07 09:30:33;100;55;27
2020-12-07 09:35:33;100;55;27
2020-12-07 09:40:30;100;55;27
2020-12-07 09:45:44;100;55;27
2020-12-07 09:50:34;100;55;27
2020-12-07 09:55:34;100;55;27
2020-12-07 10:00:31;100;55;27
2020-12-07 10:05:32;100;55;27
2020-12-07 10:10:41;100;55;27
2020-12-07 10:15:29;100;55;27
2020-12-07 10:20:40;100;55;27
2020-12-07 10:25:30;100;55;27
2020-12-07 10:30:30;100;55;27
2020-12-07 10:35:24;100;55;27
2020-12-07 10:40:33;100;55;27
2020-12-07 10:45:30;100;55;27
2020-12-07 10:50:31;100;55;27
2020-12-07 10:55:28;100;55;27
2020-12-07 11:00:31;100;55;27
2020-12-07 11:05:30;100;55;27
2020-12-07 11:10:28;100;55;27
2020-12-07 11:15:27;100;55;27
2020-12-07 11:20:29;100;55;27
2020-12-07 11:25:33;100;55;27
2020-12-07 11:30:30;100;55;27
2020-12-07 11:35:25;100;55;27
2020-12-07 11:40:30;100;55;27
2020-12-07 11:45:33;100;55;27
2020-12-07 11:50:33;100;55;27
2020-12-07 11:55:45;100;55;27
2020-12-07 12:00:33;100;55;27
2020-12-07 12:05:44;100;55;27
2020-12-07 12:10:31;100;55;27
2020-12-07 12:15:37;100;55;27
2020-12-07 12:20:33;100;55;27
2020-12-07 12:25:27;100;55;27
2020-12-07 12:30:39;100;55;27
2020-12-07 12:35:30;100;55;27
2020-12-07 12:40:29;100;55;27
2020-12-07 12:45:29;100;55;27
2020-12-07 12:50:26;100;55;27
2020-12-07 12:55:28;100;55;27
2020-12-07 13:00:27;100;55;27
2020-12-07 13:05:28;100;55;27
2020-12-07 13:10:25;100;55;27
2020-12-07 13:15:35;100;55;27
2020-12-07 13:20:29;100;55;27
2020-12-07 13:25:29;100;55;27
2020-12-07 13:30:31;100;55;27
2020-12-07 13:35:31;100;55;27
2020-12-07 13:40:31;100;55;27
2020-12-07 13:45:28;100;55;27
2020-12-07 13:50:33;100;55;27
2020-12-07 13:55:28;100;55;27
2020-12-07 14:00:32;100;55;27
2020-12-07 14:05:27;100;55;27
2020-12-07 14:10:29;100;55;27
2020-12-07 14:15:33;100;55;27
2020-12-07 14:20:29;100;55;27
2020-12-07 14:25:29;100;55;27
2020-12-07 14:30:45;100;55;27
2020-12-07 14:35:34;100;55;27
2020-12-07 14:40:30;100;55;27
2020-12-07 14:45:31;100;55;27
2020-12-07 14:50:44;100;55;27
2020-12-07 14:55:32;100;55;27
2020-12-07 15:00:34;100;55;27
2020-12-07 15:05:33;100;55;27
2020-12-07 15:10:29;100;55;27
2020-12-07 15:15:35;100;55;27
2020-12-07 15:20:33;100;55;27
2020-12-07 15:25:27;100;55;27
2020-12-07 15:30:30;100;55;27
2020-12-07 15:35:27;100;55;27
2020-12-07 15:40:30;100;55;27
2020-12-07 15:45:28;100;55;27
2020-12-07 15:50:42;100;55;27
2020-12-07 15:55:28;100;55;27
2020-12-07 16:00:27;100;55;27
2020-12-07 16:05:28;100;55;27
2020-12-07 16:10:36;100;55;27
2020-12-07 16:15:28;100;55;27
2020-12-07 16:20:34;100;55;27
2020-12-07 16:25:26;100;55;27
2020-12-07 16:30:29;100;55;27
2020-12-07 16:35:29;100;55;27
2020-12-07 16:40:30;100;55;27
2020-12-07 16:45:34;100;55;27
2020-12-07 16:50:31;100;55;27
2020-12-07 16:55:27;100;55;27
2020-12-07 17:00:42;100;55;27
2020-12-07 17:05:30;100;55;27
2020-12-07 17:10:30;100;55;27
2020-12-07 17:15:32;100;55;27
2020-12-07 17:20:28;100;55;27
2020-12-07 17:25:33;100;55;27
2020-12-07 17:30:33;100;55;27
2020-12-07 17:35:29;100;55;27
2020-12-07 17:40:32;100;55;27
2020-12-07 17:45:35;100;55;27
2020-12-07 17:50:26;100;55;27
2020-12-07 17:55:28;100;55;27
2020-12-07 18:00:34;100;55;27
2020-12-07 18:05:30;100;55;27
2020-12-07 18:10:31;100;55;27
2020-12-07 18:15:29;100;55;27
2020-12-07 18:20:34;100;55;27
2020-12-07 18:25:33;100;55;27
2020-12-07 18:30:26;100;55;27
2020-12-07 18:35:36;100;55;27
2020-12-07 18:40:41;100;55;27
2020-12-07 18:45:30;100;55;27
2020-12-07 18:50:34;100;55;27
2020-12-07 18:55:34;100;55;27
2020-12-07 19:00:27;100;55;27
2020-12-07 19:05:29;100;55;27
2020-12-07 19:10:36;100;55;27
2020-12-07 19:15:32;100;55;27
2020-12-07 19:20:32;100;55;27
2020-12-07 19:25:30;100;55;27
2020-12-07 19:30:30;100;55;27
2020-12-07 19:35:30;100;55;27
2020-12-07 19:40:31;100;55;27
2020-12-07 19:45:31;100;55;27
2020-12-07 19:50:40;100;55;27
2020-12-07 19:55:34;100;55;27
2020-12-07 20:00:32;100;55;27
2020-12-07 20:05:31;100;55;27
2020-12-07 20:10:29;100;55;27
2020-12-07 20:15:32;100;55;27
2020-12-07 20:20:28;100;55;27
2020-12-07 20:25:30;100;55;27
2020-12-07 20:30:35;100;55;27
2020-12-07 20:35:29;100;55;27
2020-12-07 20:40:27;100;55;27
2020-12-07 20:45:25;100;55;27
2020-12-07 20:50:27;100;55;27
2020-12-07 20:55:30;100;55;27
2020-12-07 21:00:25;100;55;27
2020-12-07 21:05:32;100;55;27
2020-12-07 21:10:27;100;55;27
2020-12-07 21:15:27;100;55;27
2020-12-07 21:20:30;100;55;27
2020-12-07 21:25:26;100;55;27
2020-12-07 21:30:25;100;55;27
2020-12-07 21:35:28;100;55;27
2020-12-07 21:40:29;100;55;27
2020-12-07 21:45:29;100;55;27
2020-12-07 21:50:33;100;55;27
2020-12-07 21:55:34;100;55;27
2020-12-07 22:00:31;100;55;27
2020-12-07 22:05:32;100;55;27
2020-12-07 22:10:30;100;55;27
2020-12-07 22:15:31;100;55;27
2020-12-07 22:20:34;100;55;27
2020-12-07 22:25:33;100;55;27
2020-12-07 22:30:29;100;55;27
2020-12-07 22:35:30;100;55;27
2020-12-07 22:40:27;100;55;27
2020-12-07 22:45:29;100;55;27
2020-12-07 22:50:28;100;55;27
2020-12-07 22:55:30;100;55;27
2020-12-07 23:00:33;100;55;27
2020-12-07 23:05:31;100;55;27
2020-12-07 23:10:28;100;55;27
2020-12-07 23:15:25;100;55;27
2020-12-07 23:20:27;100;55;27
2020-12-07 23:25:28;100;55;27
2020-12-07 23:30:28;100;55;27
2020-12-07 23:35:24;100;55;27
2020-12-07 23:40:35;100;55;27
2020-12-07 23:45:28;100;55;27
2020-12-07 23:50:33;100;55;27
2020-12-07 23:55:26;100;55;27
