2020-12-07 00:00:32;31.9;44.2;53.6;55.9;33.8;45.4;38.9;50.2;49.7;36.8
2020-12-07 00:05:32;32.0;44.2;53.8;55.9;33.7;45.5;38.8;50.2;49.9;36.6
2020-12-07 00:10:25;32.1;44.2;54.0;56.2;33.6;45.6;38.8;50.4;50.0;36.8
2020-12-07 00:15:27;32.1;44.4;54.6;56.7;33.6;45.8;39.0;50.8;50.4;36.8
2020-12-07 00:20:33;32.0;44.4;54.2;56.5;33.6;45.7;39.2;50.8;50.2;36.8
2020-12-07 00:25:31;32.0;44.5;54.4;56.7;33.6;45.8;39.1;50.9;50.4;36.8
2020-12-07 00:30:28;32.1;44.4;54.2;56.6;33.6;45.8;39.1;50.9;50.2;36.7
2020-12-07 00:35:31;32.0;44.4;54.2;56.6;33.6;45.8;39.1;50.9;50.2;36.8
2020-12-07 00:40:31;32.0;44.4;54.2;56.5;33.4;45.8;39.1;50.8;50.1;36.8
2020-12-07 00:45:36;32.1;44.3;54.1;56.4;33.6;45.8;39.0;50.8;50.1;36.9
2020-12-07 00:50:29;31.9;44.4;54.1;56.4;33.5;45.8;39.2;50.8;50.1;36.9
2020-12-07 00:55:37;31.9;44.4;54.1;56.4;33.5;45.8;39.0;50.8;50.0;36.7
2020-12-07 01:00:25;31.9;44.3;54.1;56.4;33.6;45.8;39.1;50.7;50.0;36.9
2020-12-07 01:05:30;31.9;44.4;54.1;56.4;33.6;45.8;39.0;50.8;50.1;36.9
2020-12-07 01:10:28;32.0;44.4;54.2;56.4;33.5;45.7;38.9;50.8;50.1;36.9
2020-12-07 01:15:30;32.1;44.4;54.2;56.5;33.5;45.8;38.9;50.8;50.1;36.8
2020-12-07 01:20:26;32.0;44.4;54.4;56.6;33.6;45.8;39.0;51.0;50.2;36.9
2020-12-07 01:25:35;32.0;44.4;54.3;56.7;33.6;45.8;39.0;51.0;50.2;36.8
2020-12-07 01:30:31;31.9;44.3;54.0;56.4;33.5;45.8;39.1;50.9;50.1;36.8
2020-12-07 01:35:31;31.9;44.4;53.8;56.1;33.6;45.7;39.0;50.7;49.8;36.8
2020-12-07 01:40:36;31.9;44.3;54.2;56.4;33.6;45.8;39.0;50.7;50.1;36.8
2020-12-07 01:45:28;31.9;44.3;54.3;56.5;33.5;45.8;39.1;50.9;50.1;36.9
2020-12-07 01:50:30;32.0;44.3;54.0;56.5;33.3;45.9;38.9;50.9;49.9;36.7
2020-12-07 01:55:29;31.9;44.2;54.0;56.3;33.4;45.8;38.9;50.8;49.9;36.9
2020-12-07 02:00:28;31.9;44.2;54.0;56.4;33.6;45.8;38.9;50.8;50.0;36.8
2020-12-07 02:05:32;31.8;44.3;54.6;56.3;32.4;45.7;38.8;51.0;50.4;36.9
2020-12-07 02:10:28;31.8;44.2;54.5;56.7;33.3;45.6;38.6;51.2;50.3;36.9
2020-12-07 02:15:36;31.8;43.9;54.4;56.7;33.4;45.5;38.6;51.2;50.2;36.8
2020-12-07 02:20:30;31.8;44.1;54.5;56.8;33.2;45.4;38.5;51.2;50.2;36.8
2020-12-07 02:25:29;31.8;44.2;54.2;56.7;33.2;45.4;38.6;51.2;50.1;36.8
2020-12-07 02:30:42;31.8;44.1;54.2;56.7;33.1;45.4;38.6;51.1;50.0;36.5
2020-12-07 02:35:29;31.7;44.1;54.1;56.5;33.2;45.4;38.6;51.0;49.9;36.7
2020-12-07 02:40:27;31.7;44.2;54.0;56.4;33.2;45.3;38.6;51.0;49.9;36.7
2020-12-07 02:45:29;31.6;44.1;53.9;56.3;33.3;45.3;38.7;50.8;49.8;36.6
2020-12-07 02:50:30;31.7;44.2;53.9;56.2;33.2;45.3;38.5;50.8;49.8;36.4
2020-12-07 02:55:32;31.6;44.1;53.7;56.1;33.1;45.2;38.5;50.6;49.7;36.5
2020-12-07 03:00:32;31.6;44.0;53.6;55.9;32.9;45.2;38.4;50.5;49.6;36.4
2020-12-07 03:05:30;31.6;44.0;53.9;55.9;33.1;45.2;38.6;50.4;49.6;36.4
2020-12-07 03:10:28;31.6;44.1;54.0;55.9;33.1;45.3;38.6;50.6;49.8;36.5
2020-12-07 03:15:28;31.6;44.0;54.0;56.2;33.2;45.4;38.6;50.7;49.8;36.5
2020-12-07 03:20:27;31.7;44.1;54.0;56.2;33.1;45.4;38.5;50.7;49.8;36.6
2020-12-07 03:25:30;31.6;44.0;54.0;56.2;33.1;45.4;38.5;50.7;49.8;36.4
2020-12-07 03:30:30;31.6;44.0;54.1;56.3;33.1;45.4;38.6;50.8;49.9;36.5
2020-12-07 03:35:26;31.5;44.2;54.4;56.5;33.3;45.4;38.6;50.8;50.1;36.6
2020-12-07 03:40:35;31.6;44.3;54.3;56.6;33.2;45.6;38.6;51.1;50.1;36.6
2020-12-07 03:45:33;31.6;44.2;54.0;56.4;33.2;45.4;38.6;50.9;49.9;36.6
2020-12-07 03:50:32;31.5;44.1;53.8;56.1;33.2;45.4;38.5;50.8;49.7;36.6
2020-12-07 03:55:33;31.6;44.2;53.8;56.1;33.3;45.3;38.4;50.6;49.7;36.5
2020-12-07 04:00:30;31.6;44.1;54.1;56.2;33.2;45.3;38.5;50.6;49.8;36.7
2020-12-07 04:05:29;31.6;44.2;53.9;56.2;33.4;45.3;38.6;50.8;49.8;36.6
2020-12-07 04:10:27;31.6;44.1;54.0;56.1;33.3;45.3;38.6;50.6;49.8;36.7
2020-12-07 04:15:33;31.7;44.2;54.3;56.4;33.4;45.4;38.6;50.8;50.0;36.8
2020-12-07 04:20:30;31.7;44.2;54.3;56.5;33.5;45.4;38.6;50.9;50.1;36.8
2020-12-07 04:25:27;31.6;44.4;54.4;56.6;33.6;45.5;38.7;51.0;50.2;36.7
2020-12-07 04:30:27;31.7;44.4;54.6;56.8;33.6;45.6;38.6;51.1;50.3;36.7
2020-12-07 04:35:32;31.7;44.6;54.8;56.9;33.6;45.6;38.8;51.2;50.4;36.9
2020-12-07 04:40:26;31.7;44.5;54.7;56.9;33.6;45.6;38.8;51.4;50.4;36.8
2020-12-07 04:45:27;31.8;44.3;54.2;56.6;33.4;45.6;38.8;51.2;50.1;36.8
2020-12-07 04:50:31;31.7;44.2;53.9;56.2;33.6;45.5;38.7;50.9;49.9;36.6
2020-12-07 04:55:30;31.7;44.2;54.2;56.3;33.4;45.6;38.7;50.8;50.0;36.8
2020-12-07 05:00:26;31.6;44.3;54.5;56.6;33.4;45.6;38.8;50.9;50.2;36.8
2020-12-07 05:05:31;31.8;44.3;54.6;56.8;33.4;45.8;38.8;51.1;50.2;36.7
2020-12-07 05:10:31;31.8;44.3;54.6;56.8;33.3;45.8;38.8;51.2;50.2;36.8
2020-12-07 05:15:31;31.8;44.2;54.4;56.7;33.2;45.8;38.8;51.1;50.2;36.6
2020-12-07 05:20:38;31.8;44.2;54.4;56.6;33.2;45.8;38.8;51.0;50.1;36.7
2020-12-07 05:25:37;31.8;44.2;54.3;56.6;33.2;45.8;38.8;51.0;50.1;36.7
2020-12-07 05:30:34;31.8;44.2;54.4;56.6;33.3;45.8;38.8;51.0;50.1;36.7
2020-12-07 05:35:28;31.8;44.3;54.4;56.6;33.3;45.8;38.9;51.0;50.1;36.8
2020-12-07 05:40:31;31.8;44.2;54.4;56.7;33.4;45.9;38.9;51.1;50.1;36.8
2020-12-07 05:45:39;31.8;44.4;54.6;56.8;33.2;45.9;38.8;51.1;50.1;36.9
2020-12-07 05:50:27;31.9;44.2;54.5;56.8;33.1;45.9;38.9;51.1;50.1;36.7
2020-12-07 05:55:27;31.8;44.2;54.4;56.7;33.2;45.9;38.8;51.1;50.1;36.9
2020-12-07 06:00:26;31.7;44.2;54.2;56.6;33.2;45.9;38.9;51.0;49.9;36.7
2020-12-07 06:05:31;31.8;44.0;53.8;56.2;33.2;45.9;38.8;50.8;49.7;36.6
2020-12-07 06:10:29;31.7;44.1;54.1;56.2;33.2;45.7;38.8;50.6;49.8;36.7
2020-12-07 06:15:31;31.7;44.2;54.2;56.3;33.4;45.7;38.8;50.8;49.9;36.7
2020-12-07 06:20:32;31.8;44.1;54.1;56.2;33.4;45.6;38.6;50.8;49.8;36.7
2020-12-07 06:25:35;31.8;44.3;54.2;56.3;33.6;45.6;38.8;50.8;49.9;36.8
2020-12-07 06:30:27;31.8;44.3;54.3;56.5;33.7;45.6;38.8;50.9;50.1;36.9
2020-12-07 06:35:30;31.8;44.3;54.6;56.4;33.3;45.9;38.9;51.0;50.2;36.8
2020-12-07 06:40:31;31.8;44.2;54.5;56.8;33.6;45.7;38.6;51.2;50.3;36.8
2020-12-07 06:45:30;31.8;43.9;54.1;56.6;33.4;45.6;38.5;51.1;50.1;36.7
2020-12-07 06:50:27;31.8;44.1;54.2;56.6;33.4;45.5;38.5;50.9;50.1;36.6
2020-12-07 06:55:32;31.8;44.1;54.2;56.6;33.4;45.6;38.5;50.9;50.1;36.8
2020-12-07 07:00:31;31.9;44.1;54.4;56.8;33.4;45.6;38.7;51.0;50.2;36.8
2020-12-07 07:05:35;31.9;44.2;54.3;56.8;33.2;45.7;38.6;51.1;50.1;36.7
2020-12-07 07:10:31;31.9;43.9;53.4;56.0;33.1;45.6;38.6;50.8;49.6;36.5
2020-12-07 07:15:31;31.8;44.1;54.2;56.3;33.3;45.6;38.4;50.4;49.9;36.4
2020-12-07 07:20:29;31.8;44.1;54.4;56.6;33.0;45.7;38.6;50.8;50.0;36.6
2020-12-07 07:25:32;31.8;44.1;54.3;56.6;33.0;45.8;38.6;50.9;50.0;36.4
2020-12-07 07:30:27;31.9;44.1;54.4;56.7;33.1;45.8;38.6;50.9;50.1;36.6
2020-12-07 07:35:30;31.9;44.2;54.6;56.7;33.2;45.8;38.7;51.1;50.2;36.5
2020-12-07 07:40:32;31.8;44.1;54.6;56.8;33.2;45.9;38.6;51.2;50.2;36.7
2020-12-07 07:45:27;31.8;44.2;54.8;56.9;33.1;46.0;38.6;51.2;50.2;36.6
2020-12-07 07:50:37;31.8;44.1;53.6;56.3;33.1;46.0;38.7;51.1;49.8;36.6
2020-12-07 07:55:28;31.4;43.5;53.1;55.3;32.5;45.4;38.6;50.5;49.4;36.6
2020-12-07 08:00:26;31.7;43.2;53.2;55.5;33.1;45.4;38.4;50.1;49.1;36.4
2020-12-07 08:05:29;31.7;43.6;53.8;55.9;33.2;45.3;38.3;50.1;49.5;36.2
2020-12-07 08:10:32;31.8;43.5;53.2;55.7;33.2;45.2;38.4;50.2;49.2;36.2
2020-12-07 08:15:27;31.8;43.6;53.6;55.8;33.1;45.1;38.3;49.9;49.3;36.2
2020-12-07 08:20:33;31.8;43.6;54.1;56.1;33.2;45.2;38.4;50.2;49.6;36.3
2020-12-07 08:25:29;31.8;44.0;54.4;56.5;33.3;45.4;38.4;50.6;49.9;36.4
2020-12-07 08:30:32;31.8;44.1;54.4;56.6;33.5;45.4;38.5;50.9;50.1;36.6
2020-12-07 08:35:31;31.8;44.2;54.2;56.6;33.4;45.4;38.5;50.9;50.0;36.6
2020-12-07 08:40:29;31.9;44.0;54.3;56.4;33.7;46.8;39.0;50.9;49.4;36.2
2020-12-07 08:45:28;31.9;43.8;54.1;55.8;33.4;46.7;38.8;50.7;49.5;36.8
2020-12-07 08:50:28;32.2;43.8;54.1;56.0;32.5;46.6;38.6;50.6;49.4;36.9
2020-12-07 08:55:32;32.1;43.4;53.8;56.1;33.5;45.6;38.4;50.6;49.8;36.9
2020-12-07 09:00:37;32.1;43.6;53.8;56.1;33.7;45.4;38.2;50.5;49.8;36.8
2020-12-07 09:05:30;32.0;43.8;53.8;56.1;33.6;45.3;38.3;50.5;49.8;36.9
2020-12-07 09:10:25;32.1;44.1;53.8;56.1;33.8;45.6;38.3;50.4;49.7;36.9
2020-12-07 09:15:37;31.9;44.2;53.6;56.1;33.6;45.2;38.5;50.4;49.7;36.8
2020-12-07 09:20:31;31.8;44.2;53.6;55.9;33.6;45.1;38.4;50.2;49.6;36.8
2020-12-07 09:25:34;31.8;44.3;53.6;56.0;33.6;45.1;38.4;50.2;49.8;36.9
2020-12-07 09:30:33;31.8;44.4;54.0;56.2;33.9;45.2;38.5;50.5;49.9;36.9
2020-12-07 09:35:33;31.8;44.5;54.2;56.4;34.0;45.3;38.6;50.6;49.9;37.0
2020-12-07 09:40:30;31.6;44.1;54.9;56.4;33.2;45.4;38.7;51.1;50.8;37.2
2020-12-07 09:45:44;31.8;44.7;54.6;56.8;34.1;45.4;38.7;51.2;50.6;37.3
2020-12-07 09:50:34;31.8;44.8;54.6;56.8;33.9;45.4;38.9;51.2;50.6;37.3
2020-12-07 09:55:34;31.8;44.8;54.4;56.7;34.2;45.3;38.8;51.1;50.4;37.4
2020-12-07 10:00:31;31.6;44.8;54.2;56.5;34.1;45.3;38.8;51.0;50.3;37.4
2020-12-07 10:05:32;31.7;44.8;54.0;56.3;34.1;45.2;38.8;50.8;50.3;37.2
2020-12-07 10:10:41;31.6;44.7;53.9;56.2;34.1;45.2;38.8;50.8;50.1;37.2
2020-12-07 10:15:29;31.6;44.6;54.0;56.1;34.0;45.2;38.7;50.6;50.1;37.3
2020-12-07 10:20:40;31.6;44.6;54.1;56.2;34.1;45.2;38.7;50.7;50.2;37.3
2020-12-07 10:25:30;31.6;44.8;54.1;56.2;34.0;45.2;38.6;50.7;50.2;37.4
2020-12-07 10:30:30;31.4;44.7;54.2;56.2;34.0;45.2;38.8;50.8;50.3;37.3
2020-12-07 10:35:24;31.6;44.8;54.3;56.4;34.1;45.4;38.8;50.8;50.4;37.2
2020-12-07 10:40:33;31.7;44.8;54.4;56.5;34.1;45.4;38.8;50.9;50.4;37.3
2020-12-07 10:45:30;31.7;44.9;54.4;56.5;33.9;45.4;38.9;50.9;50.3;37.4
2020-12-07 10:50:31;31.7;44.8;54.3;56.4;33.9;45.5;38.8;50.9;50.2;37.4
2020-12-07 10:55:28;31.7;44.7;54.2;56.4;34.1;45.5;38.8;50.8;50.3;37.4
2020-12-07 11:00:31;31.6;44.8;54.2;56.4;34.0;45.4;38.6;50.7;50.3;37.2
2020-12-07 11:05:30;31.6;44.8;54.2;56.4;33.9;45.4;38.8;50.8;50.2;37.3
2020-12-07 11:10:28;31.6;44.8;54.1;56.3;33.9;45.5;38.8;50.8;50.2;37.3
2020-12-07 11:15:27;31.6;44.8;54.2;56.3;33.9;45.4;38.8;50.8;50.2;37.3
2020-12-07 11:20:29;31.6;44.8;54.3;56.4;34.0;45.5;38.8;50.8;50.3;37.4
2020-12-07 11:25:33;31.7;44.8;54.2;56.4;33.8;45.5;38.9;50.9;50.2;37.2
2020-12-07 11:30:30;31.6;44.8;54.0;56.2;33.9;45.4;38.9;50.8;50.1;37.4
2020-12-07 11:35:25;31.6;44.7;54.0;56.1;34.0;45.4;38.8;50.7;50.1;37.3
2020-12-07 11:40:30;31.6;44.7;54.1;56.2;33.9;45.5;38.8;50.7;50.1;37.4
2020-12-07 11:45:33;31.5;44.8;54.2;56.2;33.9;45.4;38.9;50.7;50.1;37.3
2020-12-07 11:50:33;31.6;44.7;54.1;56.3;33.8;45.5;38.8;50.7;50.1;37.3
2020-12-07 11:55:45;31.5;44.6;54.1;56.2;33.8;45.5;38.7;50.7;50.1;37.2
2020-12-07 12:00:33;31.6;44.7;54.1;56.2;33.9;45.5;38.9;50.7;50.1;37.3
2020-12-07 12:05:44;31.5;44.6;54.0;56.2;33.9;45.5;38.9;50.6;50.1;37.2
2020-12-07 12:10:31;31.5;44.6;53.9;56.2;33.9;45.5;38.7;50.6;50.1;37.2
2020-12-07 12:15:37;31.4;44.7;54.0;56.1;33.6;45.4;38.9;50.6;49.9;37.2
2020-12-07 12:20:33;31.5;44.6;54.1;56.2;33.8;45.4;38.9;50.6;50.0;37.2
2020-12-07 12:25:27;31.4;44.7;54.3;56.4;33.8;45.5;38.9;50.6;50.1;37.2
2020-12-07 12:30:39;31.4;44.7;54.4;56.5;33.7;45.6;38.9;50.8;50.2;37.4
2020-12-07 12:35:30;31.6;44.8;54.5;56.6;33.9;45.6;38.9;50.9;50.4;37.4
2020-12-07 12:40:29;31.6;44.8;54.5;56.7;33.9;45.7;38.9;51.1;50.4;37.4
2020-12-07 12:45:29;31.6;44.8;54.4;56.7;33.9;45.7;38.9;51.1;50.4;37.4
2020-12-07 12:50:26;31.5;44.8;54.2;56.5;33.9;45.6;38.8;51.0;50.3;37.4
2020-12-07 12:55:28;31.4;44.8;54.0;56.2;33.8;45.5;38.9;50.8;50.1;37.2
2020-12-07 13:00:27;31.5;44.7;53.9;56.2;33.9;45.4;38.9;50.6;50.0;37.2
2020-12-07 13:05:28;31.4;44.6;53.7;55.9;33.8;45.4;38.9;50.4;49.8;37.2
2020-12-07 13:10:25;31.5;44.6;53.8;55.9;33.8;45.4;38.8;50.4;49.8;37.4
2020-12-07 13:15:35;31.4;44.6;53.8;55.9;33.8;45.4;38.7;50.2;49.8;37.2
2020-12-07 13:20:29;31.4;44.5;53.9;56.0;33.5;45.4;38.8;50.2;49.8;37.1
2020-12-07 13:25:29;31.3;44.5;53.9;56.1;33.7;45.4;38.8;50.3;49.8;37.1
2020-12-07 13:30:31;31.4;44.6;54.1;56.1;33.7;45.4;38.8;50.4;49.9;37.2
2020-12-07 13:35:31;31.4;44.5;54.1;56.2;33.6;45.6;38.8;50.4;49.9;37.1
2020-12-07 13:40:31;31.4;44.7;54.2;56.3;33.6;45.5;38.8;50.5;50.0;37.2
2020-12-07 13:45:28;31.4;44.7;54.4;56.4;33.7;45.7;38.9;50.6;50.1;37.2
2020-12-07 13:50:33;31.4;44.8;54.6;56.6;33.8;45.7;38.9;50.8;50.3;37.2
2020-12-07 13:55:28;31.4;44.9;54.7;56.8;33.9;45.8;38.9;51.0;50.5;37.2
2020-12-07 14:00:32;31.4;44.8;54.3;56.6;33.9;45.8;38.9;51.0;50.3;37.4
2020-12-07 14:05:27;31.4;44.8;54.2;56.4;33.9;45.7;39.0;50.8;50.1;37.3
2020-12-07 14:10:29;31.4;44.7;54.1;56.4;33.8;45.7;38.9;50.6;50.1;37.3
2020-12-07 14:15:33;31.4;44.8;54.2;56.4;33.8;45.6;38.9;50.6;50.1;37.2
2020-12-07 14:20:29;31.4;44.8;54.2;56.4;33.8;45.7;39.0;50.6;50.1;37.3
2020-12-07 14:25:29;31.4;44.6;53.8;56.2;33.5;45.6;38.9;50.6;49.9;37.2
2020-12-07 14:30:45;31.1;44.0;52.4;55.1;33.5;45.0;38.6;50.1;49.1;36.9
2020-12-07 14:35:34;30.9;43.6;51.7;55.1;33.4;44.6;38.2;49.1;48.4;36.9
2020-12-07 14:40:30;31.6;43.2;51.4;53.4;31.1;45.3;38.2;48.5;47.4;36.3
2020-12-07 14:45:31;31.5;42.9;50.7;53.4;30.2;44.8;38.0;47.8;46.8;36.1
2020-12-07 14:50:44;31.6;42.2;50.8;52.6;30.0;45.0;37.7;47.3;46.4;35.8
2020-12-07 14:55:32;31.9;42.2;50.9;52.4;29.4;45.4;37.6;47.0;46.2;35.8
2020-12-07 15:00:34;31.2;42.4;50.9;52.1;31.8;43.8;37.3;47.1;47.1;35.9
2020-12-07 15:05:33;31.0;41.9;50.7;52.1;32.3;43.1;37.1;47.8;48.1;35.6
2020-12-07 15:10:29;31.2;41.9;51.0;51.5;32.9;43.1;37.1;48.1;47.9;35.8
2020-12-07 15:15:35;31.1;42.2;50.8;51.6;33.2;43.0;37.0;48.2;47.8;35.9
2020-12-07 15:20:33;31.0;42.3;50.6;51.6;33.4;42.9;37.1;48.1;47.7;35.9
2020-12-07 15:25:27;31.0;42.3;50.4;51.4;33.6;42.8;37.1;48.1;47.6;35.9
2020-12-07 15:30:30;31.0;42.4;50.1;51.1;33.5;42.7;37.1;47.9;47.4;35.9
2020-12-07 15:35:27;31.0;42.3;49.9;50.8;33.6;42.6;36.9;47.7;47.2;35.9
2020-12-07 15:40:30;31.0;42.2;49.6;50.6;33.6;42.4;36.8;47.5;47.1;35.9
2020-12-07 15:45:28;30.9;42.2;49.4;50.4;33.6;42.3;36.8;47.3;47.1;35.8
2020-12-07 15:50:42;31.0;42.1;49.2;50.2;33.6;42.2;36.6;47.1;46.7;35.8
2020-12-07 15:55:28;31.0;42.0;49.0;49.9;33.4;42.1;36.6;47.1;46.6;35.7
2020-12-07 16:00:27;30.9;41.9;48.9;49.8;33.5;42.0;36.6;46.7;46.5;35.6
2020-12-07 16:05:28;30.9;41.9;48.8;49.7;33.4;42.0;36.6;46.6;46.4;35.6
2020-12-07 16:10:36;30.9;41.8;48.6;49.6;33.4;41.9;36.4;46.4;46.2;35.6
2020-12-07 16:15:28;30.8;41.7;48.4;49.4;33.4;41.8;36.3;46.3;46.2;35.5
2020-12-07 16:20:34;30.8;41.6;48.3;49.2;33.3;41.7;36.3;46.2;46.1;35.4
2020-12-07 16:25:26;30.8;41.5;48.1;49.1;33.3;41.6;36.4;46.1;45.9;35.4
2020-12-07 16:30:29;30.8;41.4;47.9;48.8;33.2;41.5;36.2;45.9;45.7;35.2
2020-12-07 16:35:29;30.7;41.3;47.6;48.5;33.2;41.4;36.1;45.7;45.5;35.2
2020-12-07 16:40:30;30.7;41.1;47.2;48.2;33.1;41.2;36.0;45.5;45.3;35.1
2020-12-07 16:45:34;30.6;41.0;47.0;47.9;33.1;41.1;35.8;45.5;45.1;35.0
2020-12-07 16:50:31;30.6;40.8;46.8;47.7;33.0;41.1;35.9;45.1;44.9;35.0
2020-12-07 16:55:27;30.6;40.8;46.8;47.4;32.9;40.9;35.7;44.8;44.7;34.8
2020-12-07 17:00:42;30.4;40.6;46.4;47.2;32.9;40.8;35.6;44.6;44.5;34.7
2020-12-07 17:05:30;30.4;40.4;46.1;47.0;32.9;40.6;35.5;44.4;44.3;34.6
2020-12-07 17:10:30;30.4;40.3;45.9;46.8;32.9;40.6;35.2;44.2;44.1;34.6
2020-12-07 17:15:32;30.3;40.2;45.6;46.5;32.7;40.4;35.2;44.0;43.9;34.5
2020-12-07 17:20:28;30.2;40.2;44.9;45.9;32.6;40.2;35.2;43.7;43.5;34.2
2020-12-07 17:25:33;30.2;39.8;44.8;45.8;32.5;40.0;35.0;43.3;43.5;34.1
2020-12-07 17:30:33;30.1;39.4;44.7;45.6;32.4;40.0;34.8;43.2;43.1;33.9
2020-12-07 17:35:29;30.1;39.2;44.6;45.5;32.2;39.6;34.6;43.0;43.0;33.8
2020-12-07 17:40:32;30.0;39.1;44.5;45.4;32.2;39.4;34.6;42.9;42.9;33.8
2020-12-07 17:45:35;30.0;38.9;44.4;45.2;32.1;39.3;34.3;42.8;42.8;33.5
2020-12-07 17:50:26;29.9;38.9;44.2;45.0;32.0;39.2;34.2;42.7;42.6;33.5
2020-12-07 17:55:28;29.9;38.8;44.1;44.9;31.9;39.1;34.2;42.6;42.5;33.4
2020-12-07 18:00:34;29.8;38.7;43.9;44.7;31.8;38.9;34.2;42.4;42.3;33.2
2020-12-07 18:05:30;29.8;38.6;43.7;44.5;31.8;38.9;34.1;42.2;42.2;33.2
2020-12-07 18:10:31;29.8;38.5;43.6;44.3;31.8;38.8;34.0;42.1;42.1;33.1
2020-12-07 18:15:29;29.7;38.4;43.3;44.1;31.6;38.6;33.9;41.9;41.8;33.1
2020-12-07 18:20:34;29.6;38.1;42.2;43.1;31.6;38.4;33.9;41.9;41.2;33.0
2020-12-07 18:25:33;29.5;37.8;41.7;42.5;31.4;38.1;33.9;41.2;40.7;32.8
2020-12-07 18:30:26;29.5;37.7;41.8;42.6;31.2;37.9;33.9;40.8;40.6;32.7
2020-12-07 18:35:36;29.4;37.6;41.9;42.6;31.2;37.8;33.5;40.6;40.6;32.5
2020-12-07 18:40:41;29.4;37.5;41.8;42.5;31.1;37.7;33.4;40.6;40.5;32.5
2020-12-07 18:45:30;29.4;37.4;41.8;42.4;31.1;37.6;33.3;40.5;40.4;32.4
2020-12-07 18:50:34;29.3;37.2;41.7;42.4;30.9;37.6;33.2;40.4;40.4;32.2
2020-12-07 18:55:34;29.3;37.2;41.7;42.3;30.9;37.4;33.2;40.4;40.4;32.2
2020-12-07 19:00:27;29.2;37.2;41.7;42.2;30.9;37.4;33.1;40.3;40.3;32.2
2020-12-07 19:05:29;29.2;37.1;41.6;42.2;30.9;37.4;33.0;40.3;40.2;32.2
2020-12-07 19:10:36;29.2;37.1;41.5;42.1;30.8;37.2;33.1;40.2;40.1;32.1
2020-12-07 19:15:32;29.2;37.0;41.4;42.0;30.8;37.2;32.9;40.2;40.1;32.0
2020-12-07 19:20:32;29.2;36.8;41.3;42.0;30.8;37.2;33.3;40.1;39.8;31.9
2020-12-07 19:25:30;29.2;36.8;41.1;42.0;31.2;37.2;33.2;39.9;39.6;32.1
2020-12-07 19:30:30;29.3;36.8;41.1;41.8;31.1;37.1;33.2;39.9;39.6;31.9
2020-12-07 19:35:30;29.2;36.8;40.8;41.6;30.9;37.0;33.1;39.8;39.5;31.8
2020-12-07 19:40:31;29.2;36.7;40.6;41.3;31.1;36.9;33.1;39.7;39.4;31.8
2020-12-07 19:45:31;29.2;36.6;40.4;41.1;30.9;36.8;33.0;39.7;39.2;31.8
2020-12-07 19:50:40;29.6;36.2;40.3;40.9;29.3;36.8;33.1;39.4;39.1;31.8
2020-12-07 19:55:34;29.6;36.0;40.2;40.7;28.6;37.0;32.9;39.0;38.9;31.7
2020-12-07 20:00:32;29.6;35.8;40.1;40.6;28.2;37.0;32.7;38.8;38.6;31.5
2020-12-07 20:05:31;29.6;35.7;39.9;40.4;28.0;36.8;32.6;38.6;38.5;31.4
2020-12-07 20:10:29;29.5;35.6;39.8;40.2;27.8;36.8;32.5;38.4;38.3;31.2
2020-12-07 20:15:32;29.5;35.4;39.7;40.1;27.7;36.6;32.4;38.2;38.2;31.2
2020-12-07 20:20:28;29.5;35.3;39.6;39.9;27.5;36.6;32.2;38.1;38.1;31.1
2020-12-07 20:25:30;29.3;35.2;39.5;39.8;27.4;36.5;32.2;38.0;38.0;31.1
2020-12-07 20:30:35;29.3;35.1;39.4;39.8;27.2;36.4;32.1;37.9;37.9;31.1
2020-12-07 20:35:29;29.3;35.1;39.4;39.7;27.1;36.3;32.0;37.8;37.8;31.0
2020-12-07 20:40:27;29.3;35.0;39.3;39.7;27.1;36.2;32.0;37.8;37.8;30.9
2020-12-07 20:45:25;29.1;34.9;39.3;39.6;26.9;36.2;31.9;37.7;37.8;30.9
2020-12-07 20:50:27;29.1;34.9;39.2;39.6;26.9;36.2;31.9;37.6;37.8;30.8
2020-12-07 20:55:30;29.2;34.8;39.2;39.5;26.8;36.1;31.8;37.6;37.8;30.8
2020-12-07 21:00:25;28.9;34.7;39.2;39.5;26.8;36.0;31.8;37.5;37.6;30.8
2020-12-07 21:05:32;28.9;34.7;39.1;39.4;26.8;35.9;31.7;37.5;37.6;30.8
2020-12-07 21:10:27;28.9;34.4;39.1;39.4;26.8;35.9;31.6;37.4;37.4;30.7
2020-12-07 21:15:27;29.1;34.4;39.1;39.2;26.7;35.9;31.6;37.4;37.2;30.6
2020-12-07 21:20:30;29.1;34.4;38.9;39.2;26.6;35.9;31.4;37.4;37.4;30.6
2020-12-07 21:25:26;29.0;34.4;38.9;39.3;26.6;35.8;31.4;37.3;37.2;30.6
2020-12-07 21:30:25;29.0;34.3;38.8;39.3;26.5;35.8;31.3;37.2;37.1;30.5
2020-12-07 21:35:28;29.0;34.2;38.8;39.3;26.4;35.8;31.2;37.2;37.1;30.5
2020-12-07 21:40:29;28.9;34.2;38.8;39.3;26.4;35.6;31.2;37.2;37.1;30.4
2020-12-07 21:45:29;28.9;34.2;38.8;39.2;26.3;35.6;31.1;37.1;37.1;30.4
2020-12-07 21:50:33;28.9;34.1;38.8;39.2;26.2;35.6;31.1;37.1;36.9;30.3
2020-12-07 21:55:34;28.9;34.1;38.7;39.2;26.2;35.6;31.1;37.1;36.8;30.2
2020-12-07 22:00:31;28.9;34.0;38.6;39.1;26.2;35.5;31.1;37.0;36.8;30.2
2020-12-07 22:05:32;28.9;33.9;38.6;39.0;26.2;35.4;31.0;36.9;36.8;30.2
2020-12-07 22:10:30;28.8;33.9;38.5;38.9;26.1;35.4;30.9;36.9;36.8;30.1
2020-12-07 22:15:31;28.8;33.9;38.4;38.9;26.1;35.4;30.9;36.9;36.8;30.1
2020-12-07 22:20:34;28.7;33.8;38.4;39.0;26.1;35.2;30.8;36.8;36.6;30.1
2020-12-07 22:25:33;28.6;33.8;38.4;38.8;26.0;35.2;30.9;36.8;36.5;30.1
2020-12-07 22:30:29;28.6;33.8;38.2;38.8;26.0;35.3;30.8;36.7;36.4;30.0
2020-12-07 22:35:30;28.6;33.6;38.2;38.7;25.9;35.2;30.8;36.6;36.4;29.9
2020-12-07 22:40:27;28.5;33.6;38.2;38.7;25.9;35.1;30.7;36.6;36.3;29.8
2020-12-07 22:45:29;28.5;33.6;38.2;38.7;25.9;35.1;30.8;36.6;36.2;29.9
2020-12-07 22:50:28;28.5;33.6;38.6;39.0;25.9;35.7;30.8;36.6;36.4;29.8
2020-12-07 22:55:30;28.4;33.6;38.8;39.3;25.9;35.8;30.8;36.8;36.5;29.8
2020-12-07 23:00:33;28.4;33.7;38.9;39.4;25.9;35.8;30.8;36.9;36.5;29.8
2020-12-07 23:05:31;28.5;33.6;38.6;39.3;25.9;35.8;30.7;36.9;36.5;29.8
2020-12-07 23:10:28;28.4;33.6;38.3;38.9;25.9;35.5;30.6;36.8;36.2;29.8
2020-12-07 23:15:25;28.4;33.6;38.5;39.1;25.8;35.8;30.6;36.7;36.2;29.7
2020-12-07 23:20:27;28.4;33.6;38.6;39.2;25.8;35.6;30.6;36.8;36.3;29.7
2020-12-07 23:25:28;28.4;33.6;38.7;39.2;25.8;35.8;30.6;36.8;36.3;29.7
2020-12-07 23:30:28;28.4;33.6;38.8;39.2;25.8;35.8;30.6;36.8;36.4;29.7
2020-12-07 23:35:24;28.0;33.6;38.6;39.6;26.6;34.9;30.6;36.8;36.4;29.9
2020-12-07 23:40:35;27.8;33.5;38.6;39.8;26.5;34.7;30.6;36.9;36.4;29.9
2020-12-07 23:45:28;27.8;33.6;38.6;39.8;26.5;34.6;30.6;36.9;36.4;29.9
2020-12-07 23:50:33;27.6;33.6;38.5;39.8;26.7;34.6;30.6;36.9;36.4;29.9
2020-12-07 23:55:26;27.6;33.6;38.5;39.8;26.8;34.6;30.6;36.9;36.4;29.9
