2020-12-07 00:00:32;26;40;28
2020-12-07 00:05:32;25;40;28
2020-12-07 00:10:25;25;40;28
2020-12-07 00:15:27;25;40;28
2020-12-07 00:20:33;25;40;28
2020-12-07 00:25:31;25;40;28
2020-12-07 00:30:28;25;40;28
2020-12-07 00:35:31;25;40;28
2020-12-07 00:40:31;25;39;28
2020-12-07 00:45:36;25;39;28
2020-12-07 00:50:29;25;39;28
2020-12-07 00:55:37;25;39;28
2020-12-07 01:00:25;25;39;28
2020-12-07 01:05:30;25;39;28
2020-12-07 01:10:28;25;39;28
2020-12-07 01:15:30;25;39;28
2020-12-07 01:20:26;25;39;28
2020-12-07 01:25:35;24;39;28
2020-12-07 01:30:31;24;39;28
2020-12-07 01:35:31;24;39;28
2020-12-07 01:40:36;24;38;27
2020-12-07 01:45:28;24;38;28
2020-12-07 01:50:30;24;38;27
2020-12-07 01:55:29;24;39;27
2020-12-07 02:00:28;24;38;27
2020-12-07 02:05:32;24;41;28
2020-12-07 02:10:28;24;39;28
2020-12-07 02:15:36;24;39;27
2020-12-07 02:20:30;24;39;28
2020-12-07 02:25:29;24;39;27
2020-12-07 02:30:42;24;39;27
2020-12-07 02:35:29;24;39;27
2020-12-07 02:40:27;24;39;27
2020-12-07 02:45:29;24;39;27
2020-12-07 02:50:30;24;38;27
2020-12-07 02:55:32;24;38;27
2020-12-07 03:00:32;24;38;27
2020-12-07 03:05:30;24;38;27
2020-12-07 03:10:28;24;38;27
2020-12-07 03:15:28;24;38;27
2020-12-07 03:20:27;24;38;27
2020-12-07 03:25:30;24;38;27
2020-12-07 03:30:30;24;38;27
2020-12-07 03:35:26;24;38;27
2020-12-07 03:40:35;24;38;27
2020-12-07 03:45:33;24;38;27
2020-12-07 03:50:32;24;37;27
2020-12-07 03:55:33;24;37;27
2020-12-07 04:00:30;24;37;27
2020-12-07 04:05:29;24;37;27
2020-12-07 04:10:27;24;37;27
2020-12-07 04:15:33;24;37;27
2020-12-07 04:20:30;23;37;27
2020-12-07 04:25:27;23;37;27
2020-12-07 04:30:27;23;37;27
2020-12-07 04:35:32;23;37;27
2020-12-07 04:40:26;23;37;27
2020-12-07 04:45:27;23;36;27
2020-12-07 04:50:31;23;37;27
2020-12-07 04:55:30;23;37;26
2020-12-07 05:00:26;23;37;26
2020-12-07 05:05:31;23;36;26
2020-12-07 05:10:31;23;36;26
2020-12-07 05:15:31;23;36;26
2020-12-07 05:20:38;23;37;26
2020-12-07 05:25:37;23;36;26
2020-12-07 05:30:34;23;36;26
2020-12-07 05:35:28;23;36;26
2020-12-07 05:40:31;23;36;26
2020-12-07 05:45:39;23;36;26
2020-12-07 05:50:27;23;36;26
2020-12-07 05:55:27;23;37;26
2020-12-07 06:00:26;23;36;26
2020-12-07 06:05:31;23;36;26
2020-12-07 06:10:29;23;36;26
2020-12-07 06:15:31;23;36;26
2020-12-07 06:20:32;23;36;26
2020-12-07 06:25:35;23;36;26
2020-12-07 06:30:27;23;36;26
2020-12-07 06:35:30;23;35;26
2020-12-07 06:40:31;23;36;26
2020-12-07 06:45:30;23;36;26
2020-12-07 06:50:27;23;36;26
2020-12-07 06:55:32;23;36;26
2020-12-07 07:00:31;23;36;26
2020-12-07 07:05:35;23;36;26
2020-12-07 07:10:31;23;36;26
2020-12-07 07:15:31;23;36;26
2020-12-07 07:20:29;23;36;26
2020-12-07 07:25:32;23;36;26
2020-12-07 07:30:27;23;36;26
2020-12-07 07:35:30;23;36;26
2020-12-07 07:40:32;23;36;26
2020-12-07 07:45:27;23;36;26
2020-12-07 07:50:37;23;36;26
2020-12-07 07:55:28;23;36;26
2020-12-07 08:00:26;23;38;26
2020-12-07 08:05:29;24;37;26
2020-12-07 08:10:32;24;36;26
2020-12-07 08:15:27;24;37;26
2020-12-07 08:20:33;24;38;26
2020-12-07 08:25:29;24;37;26
2020-12-07 08:30:32;24;37;26
2020-12-07 08:35:31;24;37;26
2020-12-07 08:40:29;24;36;26
2020-12-07 08:45:28;24;34;26
2020-12-07 08:50:28;25;39;26
2020-12-07 08:55:32;24;39;27
2020-12-07 09:00:37;24;37;27
2020-12-07 09:05:30;24;37;27
2020-12-07 09:10:25;24;38;27
2020-12-07 09:15:37;24;37;27
2020-12-07 09:20:31;24;37;27
2020-12-07 09:25:34;26;38;27
2020-12-07 09:30:33;26;38;27
2020-12-07 09:35:33;26;40;27
2020-12-07 09:40:30;26;40;28
2020-12-07 09:45:44;25;40;28
2020-12-07 09:50:34;25;40;28
2020-12-07 09:55:34;25;40;28
2020-12-07 10:00:31;25;40;28
2020-12-07 10:05:32;25;40;28
2020-12-07 10:10:41;25;40;28
2020-12-07 10:15:29;25;40;28
2020-12-07 10:20:40;25;40;27
2020-12-07 10:25:30;25;39;27
2020-12-07 10:30:30;25;39;27
2020-12-07 10:35:24;25;40;28
2020-12-07 10:40:33;25;39;27
2020-12-07 10:45:30;24;39;28
2020-12-07 10:50:31;25;39;27
2020-12-07 10:55:28;24;39;27
2020-12-07 11:00:31;25;38;27
2020-12-07 11:05:30;24;38;27
2020-12-07 11:10:28;24;39;27
2020-12-07 11:15:27;24;39;27
2020-12-07 11:20:29;24;38;27
2020-12-07 11:25:33;24;38;27
2020-12-07 11:30:30;24;38;27
2020-12-07 11:35:25;24;38;27
2020-12-07 11:40:30;24;38;27
2020-12-07 11:45:33;24;38;27
2020-12-07 11:50:33;24;38;27
2020-12-07 11:55:45;24;38;27
2020-12-07 12:00:33;24;38;26
2020-12-07 12:05:44;24;37;26
2020-12-07 12:10:31;24;37;26
2020-12-07 12:15:37;24;38;26
2020-12-07 12:20:33;24;37;26
2020-12-07 12:25:27;24;37;26
2020-12-07 12:30:39;24;37;26
2020-12-07 12:35:30;24;37;26
2020-12-07 12:40:29;23;37;26
2020-12-07 12:45:29;23;37;26
2020-12-07 12:50:26;23;37;26
2020-12-07 12:55:28;23;37;26
2020-12-07 13:00:27;23;37;26
2020-12-07 13:05:28;23;36;26
2020-12-07 13:10:25;23;36;26
2020-12-07 13:15:35;23;36;26
2020-12-07 13:20:29;23;36;26
2020-12-07 13:25:29;23;36;26
2020-12-07 13:30:31;23;36;26
2020-12-07 13:35:31;23;36;26
2020-12-07 13:40:31;23;36;26
2020-12-07 13:45:28;23;36;26
2020-12-07 13:50:33;23;36;26
2020-12-07 13:55:28;23;36;26
2020-12-07 14:00:32;23;36;26
2020-12-07 14:05:27;23;36;26
2020-12-07 14:10:29;23;36;26
2020-12-07 14:15:33;23;36;26
2020-12-07 14:20:29;23;36;26
2020-12-07 14:25:29;23;37;26
2020-12-07 14:30:45;23;36;26
2020-12-07 14:35:34;23;36;26
2020-12-07 14:40:30;24;36;25
2020-12-07 14:45:31;25;40;25
2020-12-07 14:50:44;25;39;25
2020-12-07 14:55:32;26;40;25
2020-12-07 15:00:34;26;40;26
2020-12-07 15:05:33;25;37;27
2020-12-07 15:10:29;24;36;27
2020-12-07 15:15:35;23;36;27
2020-12-07 15:20:33;23;37;28
2020-12-07 15:25:27;24;37;28
2020-12-07 15:30:30;24;37;28
2020-12-07 15:35:27;24;37;28
2020-12-07 15:40:30;24;38;28
2020-12-07 15:45:28;24;38;28
2020-12-07 15:50:42;24;38;28
2020-12-07 15:55:28;24;38;28
2020-12-07 16:00:27;24;38;28
2020-12-07 16:05:28;24;38;28
2020-12-07 16:10:36;24;38;28
2020-12-07 16:15:28;24;38;28
2020-12-07 16:20:34;24;38;28
2020-12-07 16:25:26;24;38;28
2020-12-07 16:30:29;24;38;28
2020-12-07 16:35:29;25;38;28
2020-12-07 16:40:30;25;38;28
2020-12-07 16:45:34;25;38;28
2020-12-07 16:50:31;25;38;28
2020-12-07 16:55:27;25;39;28
2020-12-07 17:00:42;25;39;28
2020-12-07 17:05:30;25;39;28
2020-12-07 17:10:30;26;39;28
2020-12-07 17:15:32;26;39;28
2020-12-07 17:20:28;26;39;28
2020-12-07 17:25:33;26;39;29
2020-12-07 17:30:33;26;40;29
2020-12-07 17:35:29;26;40;29
2020-12-07 17:40:32;26;40;29
2020-12-07 17:45:35;27;40;29
2020-12-07 17:50:26;27;40;29
2020-12-07 17:55:28;26;40;29
2020-12-07 18:00:34;27;40;29
2020-12-07 18:05:30;27;40;29
2020-12-07 18:10:31;27;40;29
2020-12-07 18:15:29;27;40;29
2020-12-07 18:20:34;27;40;29
2020-12-07 18:25:33;27;41;29
2020-12-07 18:30:26;28;41;29
2020-12-07 18:35:36;28;41;29
2020-12-07 18:40:41;28;41;30
2020-12-07 18:45:30;28;41;30
2020-12-07 18:50:34;28;41;30
2020-12-07 18:55:34;28;41;30
2020-12-07 19:00:27;28;41;30
2020-12-07 19:05:29;28;41;30
2020-12-07 19:10:36;28;42;30
2020-12-07 19:15:32;28;42;30
2020-12-07 19:20:32;29;42;30
2020-12-07 19:25:30;29;40;30
2020-12-07 19:30:30;29;41;30
2020-12-07 19:35:30;30;40;30
2020-12-07 19:40:31;29;42;31
2020-12-07 19:45:31;29;42;31
2020-12-07 19:50:40;29;44;31
2020-12-07 19:55:34;30;45;30
2020-12-07 20:00:32;31;45;30
2020-12-07 20:05:31;31;45;30
2020-12-07 20:10:29;32;45;30
2020-12-07 20:15:32;31;45;30
2020-12-07 20:20:28;31;45;30
2020-12-07 20:25:30;31;45;30
2020-12-07 20:30:35;31;45;30
2020-12-07 20:35:29;31;45;30
2020-12-07 20:40:27;32;45;30
2020-12-07 20:45:25;32;45;30
2020-12-07 20:50:27;31;45;30
2020-12-07 20:55:30;32;45;31
2020-12-07 21:00:25;31;45;30
2020-12-07 21:05:32;31;45;30
2020-12-07 21:10:27;31;45;31
2020-12-07 21:15:27;32;46;31
2020-12-07 21:20:30;32;46;31
2020-12-07 21:25:26;32;46;31
2020-12-07 21:30:25;32;46;31
2020-12-07 21:35:28;31;46;31
2020-12-07 21:40:29;31;46;31
2020-12-07 21:45:29;32;46;31
2020-12-07 21:50:33;32;46;31
2020-12-07 21:55:34;32;46;31
2020-12-07 22:00:31;32;46;31
2020-12-07 22:05:32;31;46;31
2020-12-07 22:10:30;32;46;32
2020-12-07 22:15:31;32;46;32
2020-12-07 22:20:34;32;46;31
2020-12-07 22:25:33;32;46;31
2020-12-07 22:30:29;32;46;31
2020-12-07 22:35:30;32;46;32
2020-12-07 22:40:27;32;46;32
2020-12-07 22:45:29;32;46;32
2020-12-07 22:50:28;32;46;32
2020-12-07 22:55:30;31;46;32
2020-12-07 23:00:33;31;46;32
2020-12-07 23:05:31;31;46;32
2020-12-07 23:10:28;31;46;32
2020-12-07 23:15:25;31;46;32
2020-12-07 23:20:27;31;46;32
2020-12-07 23:25:28;31;46;32
2020-12-07 23:30:28;31;46;32
2020-12-07 23:35:24;31;45;32
2020-12-07 23:40:35;31;45;32
2020-12-07 23:45:28;30;45;32
2020-12-07 23:50:33;30;45;32
2020-12-07 23:55:26;30;45;32
2020-12-08 00:00:36;30;45;32
2020-12-08 00:05:28;30;45;32
2020-12-08 00:10:30;30;45;32
2020-12-08 00:15:33;30;45;32
2020-12-08 00:20:31;30;45;32
2020-12-08 00:25:27;30;45;32
2020-12-08 00:30:30;30;45;32
2020-12-08 00:35:28;30;45;32
2020-12-08 00:40:27;30;46;32
2020-12-08 00:45:28;30;45;32
2020-12-08 00:50:28;30;45;32
2020-12-08 00:55:27;30;45;32
2020-12-08 01:00:35;30;45;32
2020-12-08 01:05:32;30;45;32
2020-12-08 01:10:30;30;46;32
2020-12-08 01:15:28;30;46;32
2020-12-08 01:20:33;31;46;32
2020-12-08 01:25:27;31;46;32
2020-12-08 01:30:27;31;46;32
2020-12-08 01:35:26;31;46;32
2020-12-08 01:40:31;31;46;32
2020-12-08 01:45:34;31;46;32
2020-12-08 01:50:33;31;46;32
2020-12-08 01:55:25;31;46;32
2020-12-08 02:00:29;31;46;32
2020-12-08 02:05:36;30;46;32
2020-12-08 02:10:33;30;46;32
2020-12-08 02:15:29;30;46;32
2020-12-08 02:20:28;30;46;32
2020-12-08 02:25:25;30;46;32
2020-12-08 02:30:33;30;46;32
2020-12-08 02:35:25;30;45;32
2020-12-08 02:40:28;30;45;32
2020-12-08 02:45:27;30;45;32
2020-12-08 02:50:39;30;45;32
2020-12-08 02:55:29;31;45;32
2020-12-08 03:00:25;31;46;32
2020-12-08 03:05:32;31;46;32
2020-12-08 03:10:30;31;46;32
2020-12-08 03:15:31;31;46;32
2020-12-08 03:20:33;31;46;32
2020-12-08 03:25:28;31;46;32
2020-12-08 03:30:29;31;46;32
2020-12-08 03:35:33;31;46;32
2020-12-08 03:40:28;31;45;32
2020-12-08 03:45:29;31;45;32
2020-12-08 03:50:33;31;45;32
2020-12-08 03:55:27;31;46;32
2020-12-08 04:00:33;31;46;32
2020-12-08 04:05:33;31;46;32
2020-12-08 04:10:29;31;46;32
2020-12-08 04:15:28;31;45;32
2020-12-08 04:20:30;31;45;32
2020-12-08 04:25:30;31;46;32
2020-12-08 04:30:28;31;46;32
2020-12-08 04:35:32;31;46;32
2020-12-08 04:40:29;31;45;32
2020-12-08 04:45:28;31;46;32
2020-12-08 04:50:27;31;46;32
2020-12-08 04:55:29;31;46;32
2020-12-08 05:00:27;31;46;32
2020-12-08 05:05:29;31;46;32
2020-12-08 05:10:30;31;45;32
2020-12-08 05:15:26;31;45;32
2020-12-08 05:20:30;31;46;32
2020-12-08 05:25:32;31;46;32
2020-12-08 05:30:27;31;45;32
2020-12-08 05:35:33;31;46;32
2020-12-08 05:40:26;31;45;32
2020-12-08 05:45:32;31;46;32
2020-12-08 05:50:32;31;46;33
2020-12-08 05:55:30;31;46;32
2020-12-08 06:00:30;31;46;32
2020-12-08 06:05:31;32;46;32
2020-12-08 06:10:33;32;46;32
2020-12-08 06:15:37;32;46;33
2020-12-08 06:20:34;32;46;33
2020-12-08 06:25:32;31;46;33
2020-12-08 06:30:35;32;46;33
2020-12-08 06:35:30;32;46;33
2020-12-08 06:40:31;32;46;33
2020-12-08 06:45:38;31;46;33
2020-12-08 06:50:29;31;46;33
2020-12-08 06:55:32;32;46;33
2020-12-08 07:00:35;32;46;33
2020-12-08 07:05:33;32;46;33
2020-12-08 07:10:33;32;46;33
2020-12-08 07:15:33;32;46;33
2020-12-08 07:20:30;32;46;33
2020-12-08 07:25:31;32;45;33
2020-12-08 07:30:32;32;46;33
2020-12-08 07:35:30;32;46;33
2020-12-08 07:40:30;32;46;33
2020-12-08 07:45:36;32;46;33
2020-12-08 07:50:27;32;46;33
2020-12-08 07:55:31;32;46;33
2020-12-08 08:00:32;32;49;33
2020-12-08 08:05:37;40;49;34
2020-12-08 08:10:31;41;78;37
2020-12-08 08:15:48;47;64;41
2020-12-08 08:20:34;43;64;41
2020-12-08 08:25:33;43;57;39
2020-12-08 08:30:35;41;55;38
2020-12-08 08:35:36;39;55;37
2020-12-08 08:40:29;38;54;37
2020-12-08 08:45:33;38;52;36
2020-12-08 08:50:33;37;51;36
2020-12-08 08:55:33;36;51;35
2020-12-08 09:00:30;37;50;35
2020-12-08 09:05:28;37;51;36
2020-12-08 09:10:33;37;51;36
2020-12-08 09:15:36;38;51;37
2020-12-08 09:20:28;37;51;37
2020-12-08 09:25:30;37;52;37
2020-12-08 09:30:28;38;52;37
2020-12-08 09:35:31;38;52;37
2020-12-08 09:40:28;37;52;37
2020-12-08 09:45:28;37;52;37
2020-12-08 09:50:29;37;52;37
2020-12-08 09:55:30;37;52;37
2020-12-08 10:00:32;37;52;37
2020-12-08 10:05:39;37;52;37
2020-12-08 10:10:30;37;52;37
2020-12-08 10:15:30;36;52;37
2020-12-08 10:20:30;36;52;37
2020-12-08 10:25:32;36;51;37
2020-12-08 10:30:32;36;51;37
2020-12-08 10:35:30;36;51;37
2020-12-08 10:40:30;36;51;37
2020-12-08 10:45:41;36;51;37
2020-12-08 10:50:30;36;51;37
2020-12-08 10:55:31;36;51;37
2020-12-08 11:00:29;36;51;37
2020-12-08 11:05:32;36;51;37
2020-12-08 11:10:27;36;51;37
2020-12-08 11:15:28;36;51;37
2020-12-08 11:20:30;36;50;37
2020-12-08 11:25:30;36;50;37
2020-12-08 11:30:35;36;50;37
2020-12-08 11:35:36;36;50;37
2020-12-08 11:40:32;36;50;37
2020-12-08 11:45:28;36;50;37
2020-12-08 11:50:30;36;50;37
2020-12-08 11:55:32;36;50;37
2020-12-08 12:00:30;36;50;37
2020-12-08 12:05:29;36;50;37
2020-12-08 12:10:29;35;50;37
2020-12-08 12:15:31;35;49;37
2020-12-08 12:20:31;35;50;36
2020-12-08 12:25:30;35;49;37
2020-12-08 12:30:32;35;49;37
2020-12-08 12:35:36;36;49;37
2020-12-08 12:40:36;35;49;36
2020-12-08 12:45:32;35;49;37
2020-12-08 12:50:34;35;49;37
2020-12-08 12:55:28;35;49;36
2020-12-08 13:00:38;35;49;37
2020-12-08 13:05:33;35;49;36
2020-12-08 13:10:33;35;49;37
2020-12-08 13:15:27;35;49;36
2020-12-08 13:20:31;35;49;37
2020-12-08 13:25:34;35;49;37
2020-12-08 13:30:32;35;49;37
2020-12-08 13:35:31;35;49;37
2020-12-08 13:40:28;35;49;37
2020-12-08 13:45:28;35;48;37
2020-12-08 13:50:37;35;48;37
2020-12-08 13:55:32;35;48;37
2020-12-08 14:00:28;35;49;37
2020-12-08 14:05:25;35;48;37
2020-12-08 14:10:32;34;48;36
2020-12-08 14:15:29;34;48;36
2020-12-08 14:20:31;35;48;37
2020-12-08 14:25:29;35;48;37
2020-12-08 14:30:29;35;48;37
2020-12-08 14:35:30;35;48;37
2020-12-08 14:40:41;35;48;36
2020-12-08 14:45:26;35;48;36
2020-12-08 14:50:28;34;49;36
2020-12-08 14:55:32;34;48;36
2020-12-08 15:00:30;34;48;37
2020-12-08 15:05:28;34;48;36
2020-12-08 15:10:34;34;48;36
2020-12-08 15:15:30;34;48;36
2020-12-08 15:20:31;34;48;36
2020-12-08 15:25:29;34;48;36
2020-12-08 15:30:29;34;48;36
2020-12-08 15:35:30;34;48;36
2020-12-08 15:40:35;35;48;36
2020-12-08 15:45:28;35;48;36
2020-12-08 15:50:29;34;48;36
2020-12-08 15:55:38;34;48;36
2020-12-08 16:00:29;34;47;36
2020-12-08 16:05:35;34;48;36
2020-12-08 16:10:28;34;47;36
2020-12-08 16:15:28;34;47;36
2020-12-08 16:20:26;34;48;36
2020-12-08 16:25:29;34;47;36
2020-12-08 16:30:28;34;47;36
2020-12-08 16:35:27;34;47;36
2020-12-08 16:40:29;34;47;36
2020-12-08 16:45:30;34;47;36
