2020-12-08 00:00:36;30;45;32
2020-12-08 00:05:28;30;45;32
2020-12-08 00:10:30;30;45;32
2020-12-08 00:15:33;30;45;32
2020-12-08 00:20:31;30;45;32
2020-12-08 00:25:27;30;45;32
2020-12-08 00:30:30;30;45;32
2020-12-08 00:35:28;30;45;32
2020-12-08 00:40:27;30;46;32
2020-12-08 00:45:28;30;45;32
2020-12-08 00:50:28;30;45;32
2020-12-08 00:55:27;30;45;32
2020-12-08 01:00:35;30;45;32
2020-12-08 01:05:32;30;45;32
2020-12-08 01:10:30;30;46;32
2020-12-08 01:15:28;30;46;32
2020-12-08 01:20:33;31;46;32
2020-12-08 01:25:27;31;46;32
2020-12-08 01:30:27;31;46;32
2020-12-08 01:35:26;31;46;32
2020-12-08 01:40:31;31;46;32
2020-12-08 01:45:34;31;46;32
2020-12-08 01:50:33;31;46;32
2020-12-08 01:55:25;31;46;32
2020-12-08 02:00:29;31;46;32
2020-12-08 02:05:36;30;46;32
2020-12-08 02:10:33;30;46;32
2020-12-08 02:15:29;30;46;32
2020-12-08 02:20:28;30;46;32
2020-12-08 02:25:25;30;46;32
2020-12-08 02:30:33;30;46;32
2020-12-08 02:35:25;30;45;32
2020-12-08 02:40:28;30;45;32
2020-12-08 02:45:27;30;45;32
2020-12-08 02:50:39;30;45;32
2020-12-08 02:55:29;31;45;32
2020-12-08 03:00:25;31;46;32
2020-12-08 03:05:32;31;46;32
2020-12-08 03:10:30;31;46;32
2020-12-08 03:15:31;31;46;32
2020-12-08 03:20:33;31;46;32
2020-12-08 03:25:28;31;46;32
2020-12-08 03:30:29;31;46;32
2020-12-08 03:35:33;31;46;32
2020-12-08 03:40:28;31;45;32
2020-12-08 03:45:29;31;45;32
2020-12-08 03:50:33;31;45;32
2020-12-08 03:55:27;31;46;32
2020-12-08 04:00:33;31;46;32
2020-12-08 04:05:33;31;46;32
2020-12-08 04:10:29;31;46;32
2020-12-08 04:15:28;31;45;32
2020-12-08 04:20:30;31;45;32
2020-12-08 04:25:30;31;46;32
2020-12-08 04:30:28;31;46;32
2020-12-08 04:35:32;31;46;32
2020-12-08 04:40:29;31;45;32
2020-12-08 04:45:28;31;46;32
2020-12-08 04:50:27;31;46;32
2020-12-08 04:55:29;31;46;32
2020-12-08 05:00:27;31;46;32
2020-12-08 05:05:29;31;46;32
2020-12-08 05:10:30;31;45;32
2020-12-08 05:15:26;31;45;32
2020-12-08 05:20:30;31;46;32
2020-12-08 05:25:32;31;46;32
2020-12-08 05:30:27;31;45;32
2020-12-08 05:35:33;31;46;32
2020-12-08 05:40:26;31;45;32
2020-12-08 05:45:32;31;46;32
2020-12-08 05:50:32;31;46;33
2020-12-08 05:55:30;31;46;32
2020-12-08 06:00:30;31;46;32
2020-12-08 06:05:31;32;46;32
2020-12-08 06:10:33;32;46;32
2020-12-08 06:15:37;32;46;33
2020-12-08 06:20:34;32;46;33
2020-12-08 06:25:32;31;46;33
2020-12-08 06:30:35;32;46;33
2020-12-08 06:35:30;32;46;33
2020-12-08 06:40:31;32;46;33
2020-12-08 06:45:38;31;46;33
2020-12-08 06:50:29;31;46;33
2020-12-08 06:55:32;32;46;33
2020-12-08 07:00:35;32;46;33
2020-12-08 07:05:33;32;46;33
2020-12-08 07:10:33;32;46;33
2020-12-08 07:15:33;32;46;33
2020-12-08 07:20:30;32;46;33
2020-12-08 07:25:31;32;45;33
2020-12-08 07:30:32;32;46;33
2020-12-08 07:35:30;32;46;33
2020-12-08 07:40:30;32;46;33
2020-12-08 07:45:36;32;46;33
2020-12-08 07:50:27;32;46;33
2020-12-08 07:55:31;32;46;33
2020-12-08 08:00:32;32;49;33
2020-12-08 08:05:37;40;49;34
2020-12-08 08:10:31;41;78;37
2020-12-08 08:15:48;47;64;41
2020-12-08 08:20:34;43;64;41
2020-12-08 08:25:33;43;57;39
2020-12-08 08:30:35;41;55;38
2020-12-08 08:35:36;39;55;37
2020-12-08 08:40:29;38;54;37
2020-12-08 08:45:33;38;52;36
2020-12-08 08:50:33;37;51;36
2020-12-08 08:55:33;36;51;35
2020-12-08 09:00:30;37;50;35
2020-12-08 09:05:28;37;51;36
2020-12-08 09:10:33;37;51;36
2020-12-08 09:15:36;38;51;37
2020-12-08 09:20:28;37;51;37
2020-12-08 09:25:30;37;52;37
2020-12-08 09:30:28;38;52;37
2020-12-08 09:35:31;38;52;37
2020-12-08 09:40:28;37;52;37
2020-12-08 09:45:28;37;52;37
2020-12-08 09:50:29;37;52;37
2020-12-08 09:55:30;37;52;37
2020-12-08 10:00:32;37;52;37
2020-12-08 10:05:39;37;52;37
2020-12-08 10:10:30;37;52;37
2020-12-08 10:15:30;36;52;37
2020-12-08 10:20:30;36;52;37
2020-12-08 10:25:32;36;51;37
2020-12-08 10:30:32;36;51;37
2020-12-08 10:35:30;36;51;37
2020-12-08 10:40:30;36;51;37
2020-12-08 10:45:41;36;51;37
2020-12-08 10:50:30;36;51;37
2020-12-08 10:55:31;36;51;37
2020-12-08 11:00:29;36;51;37
2020-12-08 11:05:32;36;51;37
2020-12-08 11:10:27;36;51;37
2020-12-08 11:15:28;36;51;37
2020-12-08 11:20:30;36;50;37
2020-12-08 11:25:30;36;50;37
2020-12-08 11:30:35;36;50;37
2020-12-08 11:35:36;36;50;37
2020-12-08 11:40:32;36;50;37
2020-12-08 11:45:28;36;50;37
2020-12-08 11:50:30;36;50;37
2020-12-08 11:55:32;36;50;37
2020-12-08 12:00:30;36;50;37
2020-12-08 12:05:29;36;50;37
2020-12-08 12:10:29;35;50;37
2020-12-08 12:15:31;35;49;37
2020-12-08 12:20:31;35;50;36
2020-12-08 12:25:30;35;49;37
2020-12-08 12:30:32;35;49;37
2020-12-08 12:35:36;36;49;37
2020-12-08 12:40:36;35;49;36
2020-12-08 12:45:32;35;49;37
2020-12-08 12:50:34;35;49;37
2020-12-08 12:55:28;35;49;36
2020-12-08 13:00:38;35;49;37
2020-12-08 13:05:33;35;49;36
2020-12-08 13:10:33;35;49;37
2020-12-08 13:15:27;35;49;36
2020-12-08 13:20:31;35;49;37
2020-12-08 13:25:34;35;49;37
2020-12-08 13:30:32;35;49;37
2020-12-08 13:35:31;35;49;37
2020-12-08 13:40:28;35;49;37
2020-12-08 13:45:28;35;48;37
2020-12-08 13:50:37;35;48;37
2020-12-08 13:55:32;35;48;37
2020-12-08 14:00:28;35;49;37
2020-12-08 14:05:25;35;48;37
2020-12-08 14:10:32;34;48;36
2020-12-08 14:15:29;34;48;36
2020-12-08 14:20:31;35;48;37
2020-12-08 14:25:29;35;48;37
2020-12-08 14:30:29;35;48;37
2020-12-08 14:35:30;35;48;37
2020-12-08 14:40:41;35;48;36
2020-12-08 14:45:26;35;48;36
2020-12-08 14:50:28;34;49;36
2020-12-08 14:55:32;34;48;36
2020-12-08 15:00:30;34;48;37
2020-12-08 15:05:28;34;48;36
2020-12-08 15:10:34;34;48;36
2020-12-08 15:15:30;34;48;36
2020-12-08 15:20:31;34;48;36
2020-12-08 15:25:29;34;48;36
2020-12-08 15:30:29;34;48;36
2020-12-08 15:35:30;34;48;36
2020-12-08 15:40:35;35;48;36
2020-12-08 15:45:28;35;48;36
2020-12-08 15:50:29;34;48;36
2020-12-08 15:55:38;34;48;36
2020-12-08 16:00:29;34;47;36
2020-12-08 16:05:35;34;48;36
2020-12-08 16:10:28;34;47;36
2020-12-08 16:15:28;34;47;36
2020-12-08 16:20:26;34;48;36
2020-12-08 16:25:29;34;47;36
2020-12-08 16:30:28;34;47;36
2020-12-08 16:35:27;34;47;36
2020-12-08 16:40:29;34;47;36
2020-12-08 16:45:30;34;47;36
