2020-12-08 00:00:36;30.6;26.0;30.4
2020-12-08 00:05:28;30.6;26.0;30.4
2020-12-08 00:10:30;30.6;25.9;30.4
2020-12-08 00:15:33;30.6;25.9;30.4
2020-12-08 00:20:31;30.6;25.9;30.4
2020-12-08 00:25:27;30.5;25.8;30.4
2020-12-08 00:30:30;30.6;25.7;30.4
2020-12-08 00:35:28;30.6;25.7;30.4
2020-12-08 00:40:27;30.5;25.7;30.4
2020-12-08 00:45:28;30.4;25.7;30.4
2020-12-08 00:50:28;30.4;25.7;30.4
2020-12-08 00:55:27;30.4;25.7;30.3
2020-12-08 01:00:35;30.4;25.6;30.3
2020-12-08 01:05:32;30.3;25.6;30.3
2020-12-08 01:10:30;30.2;25.6;30.2
2020-12-08 01:15:28;30.2;25.5;30.2
2020-12-08 01:20:33;30.2;25.4;30.2
2020-12-08 01:25:27;30.1;25.5;30.2
2020-12-08 01:30:27;30.1;25.4;30.2
2020-12-08 01:35:26;30.0;25.4;30.2
2020-12-08 01:40:31;30.0;25.2;30.1
2020-12-08 01:45:34;30.0;25.3;30.1
2020-12-08 01:50:33;30.0;25.2;30.0
2020-12-08 01:55:25;30.0;25.2;30.1
2020-12-08 02:00:29;29.9;25.2;30.0
2020-12-08 02:05:36;29.9;25.3;30.0
2020-12-08 02:10:33;30.0;25.2;29.9
2020-12-08 02:15:29;30.0;25.2;29.9
2020-12-08 02:20:28;29.9;25.2;29.9
2020-12-08 02:25:25;29.9;25.1;29.9
2020-12-08 02:30:33;29.8;25.2;29.9
2020-12-08 02:35:25;29.8;25.1;29.9
2020-12-08 02:40:28;29.8;25.1;29.8
2020-12-08 02:45:27;29.6;25.1;29.8
2020-12-08 02:50:39;29.6;25.0;29.7
2020-12-08 02:55:29;29.5;25.0;29.8
2020-12-08 03:00:25;29.5;25.0;29.7
2020-12-08 03:05:32;29.4;24.9;29.7
2020-12-08 03:10:30;29.3;25.0;29.6
2020-12-08 03:15:31;29.3;24.9;29.6
2020-12-08 03:20:33;29.3;24.9;29.6
2020-12-08 03:25:28;29.3;24.9;29.5
2020-12-08 03:30:29;29.2;24.9;29.5
2020-12-08 03:35:33;29.3;24.8;29.5
2020-12-08 03:40:28;29.3;24.9;29.5
2020-12-08 03:45:29;29.3;24.8;29.4
2020-12-08 03:50:33;29.3;24.7;29.4
2020-12-08 03:55:27;29.2;24.8;29.4
2020-12-08 04:00:33;29.2;24.8;29.3
2020-12-08 04:05:33;29.2;24.8;29.3
2020-12-08 04:10:29;29.2;24.7;29.3
2020-12-08 04:15:28;29.1;24.7;29.3
2020-12-08 04:20:30;29.1;24.7;29.3
2020-12-08 04:25:30;29.0;24.7;29.2
2020-12-08 04:30:28;29.0;24.7;29.2
2020-12-08 04:35:32;29.0;24.7;29.2
2020-12-08 04:40:29;28.9;24.5;29.2
2020-12-08 04:45:28;28.8;24.6;29.2
2020-12-08 04:50:27;28.8;24.5;29.0
2020-12-08 04:55:29;28.7;24.6;29.0
2020-12-08 05:00:27;28.6;24.5;29.0
2020-12-08 05:05:29;28.7;24.5;28.9
2020-12-08 05:10:30;28.7;24.5;29.0
2020-12-08 05:15:26;28.7;24.5;28.9
2020-12-08 05:20:30;28.7;24.6;28.9
2020-12-08 05:25:32;28.6;24.5;28.9
2020-12-08 05:30:27;28.6;24.5;28.9
2020-12-08 05:35:33;28.6;24.5;28.9
2020-12-08 05:40:26;28.6;24.5;28.8
2020-12-08 05:45:32;28.5;24.4;28.8
2020-12-08 05:50:32;28.4;24.4;28.7
2020-12-08 05:55:30;28.4;24.4;28.7
2020-12-08 06:00:30;28.4;24.3;28.7
2020-12-08 06:05:31;28.3;24.3;28.6
2020-12-08 06:10:33;28.3;24.3;28.5
2020-12-08 06:15:37;28.1;24.2;28.5
2020-12-08 06:20:34;28.1;24.2;28.4
2020-12-08 06:25:32;28.1;24.2;28.4
2020-12-08 06:30:35;28.1;24.2;28.4
2020-12-08 06:35:30;28.2;24.2;28.4
2020-12-08 06:40:31;28.2;24.2;28.3
2020-12-08 06:45:38;28.2;24.2;28.3
2020-12-08 06:50:29;28.2;24.9;28.3
2020-12-08 06:55:32;28.2;24.9;28.3
2020-12-08 07:00:35;28.2;24.4;28.3
2020-12-08 07:05:33;28.2;24.4;28.4
2020-12-08 07:10:33;28.1;24.3;28.3
2020-12-08 07:15:33;28.2;24.3;28.3
2020-12-08 07:20:30;28.1;24.2;28.2
2020-12-08 07:25:31;28.0;24.1;28.3
2020-12-08 07:30:32;27.9;24.1;28.3
2020-12-08 07:35:30;27.9;24.1;28.2
2020-12-08 07:40:30;27.8;24.1;28.1
2020-12-08 07:45:36;27.6;24.0;28.0
2020-12-08 07:50:27;27.5;24.0;28.0
2020-12-08 07:55:31;27.5;24.0;27.9
2020-12-08 08:00:32;27.5;24.3;27.9
2020-12-08 08:05:37;27.6;24.2;27.8
2020-12-08 08:10:31;27.6;24.9;27.9
2020-12-08 08:15:48;27.7;24.3;28.4
2020-12-08 08:20:34;27.3;24.3;28.4
2020-12-08 08:25:33;27.3;23.7;28.4
2020-12-08 08:30:35;27.0;23.4;28.3
2020-12-08 08:35:36;26.8;23.5;28.0
2020-12-08 08:40:29;26.6;23.3;28.0
2020-12-08 08:45:33;26.4;23.0;27.9
2020-12-08 08:50:33;26.3;22.8;27.8
2020-12-08 08:55:33;26.0;22.8;27.5
2020-12-08 09:00:30;25.6;22.7;27.5
2020-12-08 09:05:28;25.6;22.7;27.3
2020-12-08 09:10:33;26.3;23.6;27.2
2020-12-08 09:15:36;26.3;23.6;27.2
2020-12-08 09:20:28;26.6;24.0;27.2
2020-12-08 09:25:30;26.6;23.6;27.3
2020-12-08 09:30:28;26.6;23.6;27.3
2020-12-08 09:35:31;26.6;23.5;27.2
2020-12-08 09:40:28;26.6;23.5;27.2
2020-12-08 09:45:28;26.7;23.5;27.2
2020-12-08 09:50:29;26.7;23.4;27.1
2020-12-08 09:55:30;26.7;23.5;27.1
2020-12-08 10:00:32;26.6;23.4;27.1
2020-12-08 10:05:39;26.7;23.4;27.1
2020-12-08 10:10:30;26.7;23.4;27.0
2020-12-08 10:15:30;26.6;23.4;27.0
2020-12-08 10:20:30;26.6;23.4;27.0
2020-12-08 10:25:32;26.5;23.4;26.9
2020-12-08 10:30:32;26.5;23.3;26.9
2020-12-08 10:35:30;26.4;23.3;26.9
2020-12-08 10:40:30;26.4;23.3;26.8
2020-12-08 10:45:41;26.4;23.3;26.8
2020-12-08 10:50:30;26.3;23.3;26.8
2020-12-08 10:55:31;26.3;23.3;26.8
2020-12-08 11:00:29;26.3;23.2;26.7
2020-12-08 11:05:32;26.3;23.3;26.7
2020-12-08 11:10:27;26.3;23.2;26.7
2020-12-08 11:15:28;26.3;23.2;26.6
2020-12-08 11:20:30;26.3;23.2;26.5
2020-12-08 11:25:30;26.2;23.2;26.5
2020-12-08 11:30:35;26.2;23.2;26.5
2020-12-08 11:35:36;26.2;23.2;26.4
2020-12-08 11:40:32;26.2;23.1;26.4
2020-12-08 11:45:28;26.2;23.1;26.5
2020-12-08 11:50:30;26.2;23.1;26.4
2020-12-08 11:55:32;26.2;23.1;26.4
2020-12-08 12:00:30;26.1;23.1;26.3
2020-12-08 12:05:29;26.1;23.1;26.3
2020-12-08 12:10:29;26.2;23.1;26.3
2020-12-08 12:15:31;26.1;23.1;26.3
2020-12-08 12:20:31;26.2;23.1;26.2
2020-12-08 12:25:30;26.1;23.0;26.3
2020-12-08 12:30:32;26.1;23.0;26.2
2020-12-08 12:35:36;26.1;23.0;26.2
2020-12-08 12:40:36;26.1;23.0;26.1
2020-12-08 12:45:32;26.0;23.0;26.1
2020-12-08 12:50:34;26.1;22.9;26.1
2020-12-08 12:55:28;26.1;23.0;26.1
2020-12-08 13:00:38;26.0;23.0;26.1
2020-12-08 13:05:33;26.1;23.0;26.0
2020-12-08 13:10:33;26.1;23.0;26.0
2020-12-08 13:15:27;26.0;23.0;26.0
2020-12-08 13:20:31;26.0;22.9;26.0
2020-12-08 13:25:34;26.0;22.9;26.0
2020-12-08 13:30:32;25.9;22.9;26.0
2020-12-08 13:35:31;26.0;22.9;25.9
2020-12-08 13:40:28;26.0;22.9;26.0
2020-12-08 13:45:28;25.9;22.9;25.9
2020-12-08 13:50:37;25.9;22.8;25.9
2020-12-08 13:55:32;25.9;22.9;25.9
2020-12-08 14:00:28;25.9;22.9;25.9
2020-12-08 14:05:25;25.9;22.9;25.9
2020-12-08 14:10:32;25.9;22.9;25.9
2020-12-08 14:15:29;25.9;22.8;25.9
2020-12-08 14:20:31;25.7;22.8;25.7
2020-12-08 14:25:29;25.6;22.7;25.7
2020-12-08 14:30:29;25.5;22.8;25.7
2020-12-08 14:35:30;25.6;22.8;25.7
2020-12-08 14:40:41;25.7;22.8;25.7
2020-12-08 14:45:26;25.7;22.8;25.6
2020-12-08 14:50:28;25.8;22.8;25.7
2020-12-08 14:55:32;25.8;22.8;25.6
2020-12-08 15:00:30;25.9;22.8;25.7
2020-12-08 15:05:28;25.8;22.8;25.7
2020-12-08 15:10:34;25.9;22.8;25.7
2020-12-08 15:15:30;25.9;22.8;25.7
2020-12-08 15:20:31;25.9;22.8;25.6
2020-12-08 15:25:29;25.9;22.8;25.7
2020-12-08 15:30:29;25.8;22.7;25.7
2020-12-08 15:35:30;25.8;22.8;25.7
2020-12-08 15:40:35;25.7;22.7;25.7
2020-12-08 15:45:28;25.7;22.7;25.7
2020-12-08 15:50:29;25.7;22.8;25.6
2020-12-08 15:55:38;25.7;22.8;25.6
2020-12-08 16:00:29;25.7;22.7;25.6
2020-12-08 16:05:35;25.6;22.6;25.6
2020-12-08 16:10:28;25.6;22.6;25.5
2020-12-08 16:15:28;25.6;22.7;25.5
2020-12-08 16:20:26;25.5;22.7;25.5
2020-12-08 16:25:29;25.5;22.7;25.4
2020-12-08 16:30:28;25.5;22.6;25.4
2020-12-08 16:35:27;25.4;22.6;25.4
2020-12-08 16:40:29;25.4;22.6;25.4
2020-12-08 16:45:30;25.4;22.6;25.4
