2020-12-01 00:00:44;24;39;34
2020-12-01 00:05:39;24;39;34
2020-12-01 00:10:38;24;39;34
2020-12-01 00:15:41;24;39;33
2020-12-01 00:20:38;24;39;33
2020-12-01 00:25:52;24;38;33
2020-12-01 00:30:39;24;38;33
2020-12-01 00:35:42;24;38;33
2020-12-01 00:40:33;24;38;33
2020-12-01 00:45:42;24;38;33
2020-12-01 00:50:34;24;38;33
2020-12-01 00:55:47;24;38;33
2020-12-01 01:00:33;24;38;33
2020-12-01 01:05:40;24;38;33
2020-12-01 01:10:34;24;38;33
2020-12-01 01:15:31;24;38;33
2020-12-01 01:20:39;24;38;33
2020-12-01 01:25:45;24;38;33
2020-12-01 01:30:35;24;38;33
2020-12-01 01:35:30;24;38;33
2020-12-01 01:40:33;24;38;33
2020-12-01 01:45:31;24;38;33
2020-12-01 01:50:37;24;38;33
2020-12-01 01:55:32;24;38;32
2020-12-01 02:00:31;24;38;33
2020-12-01 02:05:37;24;37;32
2020-12-01 02:10:34;24;37;32
2020-12-01 02:15:38;24;38;32
2020-12-01 02:20:37;24;37;32
2020-12-01 02:25:39;24;37;32
2020-12-01 02:30:40;24;37;32
2020-12-01 02:35:43;24;37;32
2020-12-01 02:40:35;23;37;32
2020-12-01 02:45:39;24;36;32
2020-12-01 02:50:38;24;37;32
2020-12-01 02:55:40;24;37;32
2020-12-01 03:00:33;24;36;32
2020-12-01 03:05:33;24;36;32
2020-12-01 03:10:35;24;36;31
2020-12-01 03:15:30;24;36;31
2020-12-01 03:20:35;23;36;31
2020-12-01 03:25:30;23;36;31
2020-12-01 03:30:34;23;36;31
2020-12-01 03:35:32;23;36;31
2020-12-01 03:40:38;23;36;31
2020-12-01 03:45:32;23;36;31
2020-12-01 03:50:34;23;36;31
2020-12-01 03:55:30;23;36;31
2020-12-01 04:00:33;23;36;31
2020-12-01 04:05:32;23;36;31
2020-12-01 04:10:51;23;36;30
2020-12-01 04:15:33;23;36;30
2020-12-01 04:20:43;24;35;30
2020-12-01 04:25:39;24;35;30
2020-12-01 04:30:35;24;35;30
2020-12-01 04:35:36;24;35;30
2020-12-01 04:40:33;23;35;30
2020-12-01 04:45:30;23;35;30
2020-12-01 04:50:33;23;35;30
2020-12-01 04:55:41;23;35;30
2020-12-01 05:00:32;23;35;30
2020-12-01 05:05:42;23;35;30
2020-12-01 05:10:34;23;35;30
2020-12-01 05:15:56;23;35;30
2020-12-01 05:20:43;23;35;30
2020-12-01 05:25:37;23;35;30
2020-12-01 05:30:39;23;35;30
2020-12-01 05:35:37;23;35;30
2020-12-01 05:40:35;23;35;30
2020-12-01 05:45:38;23;35;30
2020-12-01 05:50:41;23;35;30
2020-12-01 05:55:36;23;35;30
2020-12-01 06:00:45;23;35;30
2020-12-01 06:05:38;23;36;30
2020-12-01 06:10:54;23;36;30
2020-12-01 06:15:40;10;35;30
2020-12-01 06:20:39;23;35;30
2020-12-01 06:25:47;23;35;30
2020-12-01 06:30:38;23;35;30
2020-12-01 06:35:43;23;35;30
2020-12-01 06:40:32;23;35;30
2020-12-01 06:45:34;23;35;30
2020-12-01 06:50:35;23;35;29
2020-12-01 06:55:41;23;35;29
2020-12-01 07:00:36;23;35;29
2020-12-01 07:05:32;23;34;29
2020-12-01 07:10:34;23;34;29
2020-12-01 07:15:40;23;35;29
2020-12-01 07:20:38;23;34;30
2020-12-01 07:25:41;24;35;30
2020-12-01 07:30:46;24;35;29
2020-12-01 07:35:39;24;35;30
2020-12-01 07:40:33;24;35;30
2020-12-01 07:45:35;24;35;30
2020-12-01 07:50:43;23;35;30
2020-12-01 07:55:35;23;35;30
2020-12-01 08:00:41;24;35;30
2020-12-01 08:05:45;23;35;30
2020-12-01 08:10:41;23;35;29
2020-12-01 08:15:38;23;35;29
2020-12-01 08:20:40;24;35;29
2020-12-01 08:25:42;24;35;29
2020-12-01 08:30:39;24;35;29
2020-12-01 08:35:33;24;35;29
2020-12-01 08:40:35;24;35;29
2020-12-01 08:45:35;24;35;29
2020-12-01 08:50:35;24;35;30
2020-12-01 08:55:36;24;35;30
2020-12-01 09:00:37;23;35;30
2020-12-01 09:05:33;23;35;30
2020-12-01 09:10:42;24;35;30
2020-12-01 09:15:35;23;40;30
2020-12-01 09:20:31;23;40;29
2020-12-01 09:25:29;24;40;29
2020-12-01 09:30:32;23;40;28
2020-12-01 09:35:31;23;40;28
2020-12-01 09:40:33;23;40;28
2020-12-01 09:45:39;23;40;28
2020-12-01 09:50:29;23;40;28
2020-12-01 09:55:36;23;40;28
2020-12-01 10:00:33;23;40;28
2020-12-01 10:05:37;24;41;28
2020-12-01 10:10:30;24;41;28
2020-12-01 10:15:29;24;41;28
2020-12-01 10:20:33;24;41;28
2020-12-01 10:25:31;24;41;28
2020-12-01 10:30:33;24;41;28
2020-12-01 10:35:33;24;41;28
2020-12-01 10:40:46;24;40;28
2020-12-01 10:45:27;24;40;28
2020-12-01 10:50:30;23;41;28
2020-12-01 10:55:25;23;40;28
2020-12-01 11:00:33;24;41;28
2020-12-01 11:05:29;24;40;28
2020-12-01 11:10:28;24;40;28
2020-12-01 11:15:28;23;40;27
2020-12-01 11:20:29;23;42;27
2020-12-01 11:25:24;23;42;28
2020-12-01 11:30:33;23;41;27
2020-12-01 11:35:27;24;41;27
2020-12-01 11:40:25;24;41;27
2020-12-01 11:45:27;24;40;27
2020-12-01 11:50:30;24;40;27
2020-12-01 11:55:39;24;40;27
2020-12-01 12:00:31;24;40;27
2020-12-01 12:05:29;24;40;27
2020-12-01 12:10:35;23;40;27
2020-12-01 12:15:30;24;40;27
2020-12-01 12:20:30;23;40;27
2020-12-01 12:25:28;23;39;27
2020-12-01 12:30:25;23;40;27
2020-12-01 12:35:35;23;39;27
2020-12-01 12:40:31;23;40;27
2020-12-01 12:45:33;23;40;27
2020-12-01 12:50:26;23;40;27
2020-12-01 12:55:34;23;39;27
2020-12-01 13:00:31;23;39;27
2020-12-01 13:05:29;23;39;27
2020-12-01 13:10:39;23;39;27
2020-12-01 13:15:32;23;39;27
2020-12-01 13:20:34;24;39;27
2020-12-01 13:25:29;24;39;27
2020-12-01 13:30:47;24;39;27
2020-12-01 13:35:29;24;39;27
2020-12-01 13:40:27;24;40;27
2020-12-01 13:45:25;24;40;27
2020-12-01 13:50:28;33;51;29
2020-12-01 13:55:30;33;57;31
2020-12-01 14:00:29;29;57;33
2020-12-01 14:05:48;30;53;31
2020-12-01 14:10:44;30;52;31
2020-12-01 14:15:30;30;51;31
2020-12-01 14:20:33;29;51;31
2020-12-01 14:25:26;29;51;31
2020-12-01 14:30:32;29;50;31
2020-12-01 14:35:28;29;50;31
2020-12-01 14:40:33;29;49;31
2020-12-01 14:45:29;29;49;30
2020-12-01 14:50:30;30;50;30
2020-12-01 14:55:33;30;49;30
2020-12-01 15:00:33;30;48;30
2020-12-01 15:05:31;29;48;30
2020-12-01 15:10:31;29;48;30
2020-12-01 15:15:28;29;48;30
2020-12-01 15:20:29;29;47;30
2020-12-01 15:25:27;28;47;30
2020-12-01 15:30:29;28;47;30
2020-12-01 15:35:29;28;47;30
2020-12-01 15:40:33;28;46;30
2020-12-01 15:45:30;28;46;30
2020-12-01 15:50:31;28;46;30
2020-12-01 15:55:31;28;46;30
2020-12-01 16:00:37;27;46;30
2020-12-01 16:05:27;27;46;30
2020-12-01 16:10:28;28;46;30
2020-12-01 16:15:30;27;46;30
2020-12-01 16:20:30;28;46;30
2020-12-01 16:25:29;28;46;30
2020-12-01 16:30:30;27;46;30
2020-12-01 16:35:31;27;45;30
2020-12-01 16:40:30;27;45;30
2020-12-01 16:45:32;27;46;29
2020-12-01 16:50:32;28;45;29
2020-12-01 16:55:31;28;47;29
2020-12-01 17:00:28;28;46;30
2020-12-01 17:05:38;28;46;30
2020-12-01 17:10:47;28;46;30
2020-12-01 17:15:33;28;46;30
2020-12-01 17:20:28;28;46;30
2020-12-01 17:25:32;28;46;30
2020-12-01 17:30:29;28;46;30
2020-12-01 17:35:28;28;46;30
2020-12-01 17:40:34;28;47;30
2020-12-01 17:45:36;28;47;30
2020-12-01 17:50:32;28;48;30
2020-12-01 17:55:33;29;48;30
2020-12-01 18:00:31;29;48;30
2020-12-01 18:05:36;29;50;30
2020-12-01 18:10:33;29;48;30
2020-12-01 18:15:38;30;48;30
2020-12-01 18:20:31;30;49;30
2020-12-01 18:25:37;33;49;30
2020-12-01 18:30:43;33;49;30
2020-12-01 18:35:28;33;49;30
2020-12-01 18:40:27;34;49;30
2020-12-01 18:45:33;32;49;30
2020-12-01 18:51:02;31;44;31
2020-12-01 18:55:39;30;44;31
2020-12-01 19:00:33;30;44;31
2020-12-01 19:05:34;32;48;31
2020-12-01 19:10:28;32;50;32
2020-12-01 19:15:28;32;50;32
2020-12-01 19:20:31;32;50;32
2020-12-01 19:25:37;32;51;32
2020-12-01 19:30:37;32;51;32
2020-12-01 19:35:38;33;51;32
2020-12-01 19:40:32;34;50;32
2020-12-01 19:45:29;34;50;32
2020-12-01 19:50:34;34;46;33
2020-12-01 19:55:31;33;46;33
2020-12-01 20:00:35;32;46;34
2020-12-01 20:05:47;32;46;34
2020-12-01 20:10:32;32;46;34
2020-12-01 20:15:33;32;46;34
2020-12-01 20:20:35;32;46;34
2020-12-01 20:25:31;32;46;34
2020-12-01 20:30:32;32;46;34
2020-12-01 20:35:38;32;46;35
2020-12-01 20:40:36;32;46;35
2020-12-01 20:45:31;32;46;35
2020-12-01 20:50:37;32;46;35
2020-12-01 20:55:30;32;46;35
2020-12-01 21:00:30;32;46;35
2020-12-01 21:05:31;32;46;35
2020-12-01 21:10:31;32;46;35
2020-12-01 21:15:35;32;46;35
2020-12-01 21:20:32;32;46;10
2020-12-01 21:25:28;32;46;35
2020-12-01 21:30:41;32;46;35
2020-12-01 21:35:25;32;47;35
2020-12-01 21:40:28;32;47;35
2020-12-01 21:45:33;32;47;35
2020-12-01 21:50:29;32;47;35
2020-12-01 21:55:29;32;47;35
2020-12-01 22:00:34;32;47;36
2020-12-01 22:05:31;32;46;36
2020-12-01 22:10:34;32;47;36
2020-12-01 22:15:34;32;46;36
2020-12-01 22:20:41;32;47;36
2020-12-01 22:25:34;32;47;36
2020-12-01 22:30:34;32;46;36
2020-12-01 22:35:31;32;46;36
2020-12-01 22:40:34;32;47;36
2020-12-01 22:45:28;32;47;36
2020-12-01 22:50:32;32;47;36
2020-12-01 22:55:33;32;47;36
2020-12-01 23:00:35;32;47;36
2020-12-01 23:05:33;32;47;36
2020-12-01 23:10:31;32;47;36
2020-12-01 23:15:30;32;47;36
2020-12-01 23:20:34;32;47;36
2020-12-01 23:25:33;32;47;36
2020-12-01 23:30:36;32;47;36
2020-12-01 23:35:36;32;47;36
2020-12-01 23:40:36;32;47;36
2020-12-01 23:45:32;32;47;36
2020-12-01 23:50:43;32;47;36
2020-12-01 23:55:38;32;47;36
2020-12-02 00:00:39;32;47;36
2020-12-02 00:05:31;32;47;36
2020-12-02 00:10:38;32;47;37
2020-12-02 00:15:31;32;47;36
2020-12-02 00:20:33;32;48;37
2020-12-02 00:25:30;33;48;37
2020-12-02 00:30:31;33;48;37
2020-12-02 00:35:32;33;48;37
2020-12-02 00:40:32;33;48;37
2020-12-02 00:45:33;33;48;37
2020-12-02 00:50:38;32;48;37
2020-12-02 00:55:41;32;48;37
2020-12-02 01:00:34;32;48;37
2020-12-02 01:05:37;32;48;37
2020-12-02 01:10:34;32;48;37
2020-12-02 01:15:41;32;48;37
2020-12-02 01:20:35;32;48;37
2020-12-02 01:25:29;32;48;37
2020-12-02 01:30:36;32;48;37
2020-12-02 01:35:32;32;48;37
2020-12-02 01:40:37;32;48;37
2020-12-02 01:45:34;33;48;37
2020-12-02 01:50:34;32;48;37
2020-12-02 01:55:30;32;48;37
2020-12-02 02:00:32;33;48;37
2020-12-02 02:05:36;33;48;37
2020-12-02 02:10:32;32;48;37
2020-12-02 02:15:34;33;48;37
2020-12-02 02:20:31;33;48;37
2020-12-02 02:25:34;33;48;37
2020-12-02 02:30:32;33;48;38
2020-12-02 02:35:33;33;49;38
2020-12-02 02:40:33;33;49;38
2020-12-02 02:45:34;33;48;38
2020-12-02 02:50:40;33;48;38
2020-12-02 02:55:34;33;48;38
2020-12-02 03:00:30;33;48;38
2020-12-02 03:05:34;33;48;38
2020-12-02 03:10:28;33;48;38
2020-12-02 03:15:30;33;48;38
2020-12-02 03:20:27;33;48;38
2020-12-02 03:25:27;33;48;38
2020-12-02 03:30:25;33;48;38
2020-12-02 03:35:33;33;48;38
2020-12-02 03:40:31;33;48;38
2020-12-02 03:45:33;33;48;38
2020-12-02 03:50:36;33;48;38
2020-12-02 03:55:33;33;48;38
2020-12-02 04:00:33;33;49;38
2020-12-02 04:05:31;33;48;38
2020-12-02 04:10:36;33;48;38
2020-12-02 04:15:35;33;49;38
2020-12-02 04:20:37;33;48;38
2020-12-02 04:25:36;33;48;38
2020-12-02 04:30:39;33;48;38
2020-12-02 04:35:32;33;48;38
2020-12-02 04:40:36;33;48;38
2020-12-02 04:45:32;33;48;38
2020-12-02 04:50:33;33;48;38
2020-12-02 04:55:30;33;49;38
2020-12-02 05:00:36;33;49;38
2020-12-02 05:05:30;33;48;38
2020-12-02 05:10:37;33;48;38
2020-12-02 05:15:31;34;48;38
2020-12-02 05:20:39;34;53;38
2020-12-02 05:25:36;34;48;38
2020-12-02 05:30:35;34;48;38
2020-12-02 05:35:37;34;49;38
2020-12-02 05:40:34;34;49;38
2020-12-02 05:45:30;34;49;38
2020-12-02 05:50:33;34;49;38
2020-12-02 05:55:32;34;49;38
2020-12-02 06:00:31;34;49;38
2020-12-02 06:05:31;34;49;38
2020-12-02 06:10:34;34;49;38
2020-12-02 06:15:33;34;49;38
2020-12-02 06:20:36;34;49;38
2020-12-02 06:25:34;34;49;38
2020-12-02 06:30:30;34;49;38
2020-12-02 06:35:37;34;50;38
2020-12-02 06:40:32;34;49;38
2020-12-02 06:45:39;34;49;38
2020-12-02 06:50:40;34;51;39
2020-12-02 06:55:35;34;51;39
2020-12-02 07:00:37;34;50;39
2020-12-02 07:05:33;34;50;39
2020-12-02 07:10:32;34;50;39
2020-12-02 07:15:34;34;50;38
2020-12-02 07:20:36;34;50;39
2020-12-02 07:25:38;34;50;38
2020-12-02 07:30:40;34;50;38
2020-12-02 07:35:36;34;50;39
2020-12-02 07:40:38;34;50;39
2020-12-02 07:45:31;34;50;39
2020-12-02 07:50:34;34;50;38
2020-12-02 07:55:35;34;50;39
2020-12-02 08:00:39;34;52;39
2020-12-02 08:05:40;36;52;38
2020-12-02 08:10:40;37;52;38
2020-12-02 08:15:36;37;53;39
2020-12-02 08:20:38;37;54;39
2020-12-02 08:25:36;37;54;39
2020-12-02 08:30:39;36;53;39
2020-12-02 08:35:32;36;53;39
2020-12-02 08:40:35;33;53;40
2020-12-02 08:45:33;33;54;40
2020-12-02 08:50:32;32;52;40
2020-12-02 08:55:34;32;52;40
2020-12-02 09:00:37;31;52;40
2020-12-02 09:05:39;30;54;40
2020-12-02 09:10:32;29;53;40
2020-12-02 09:15:31;29;53;39
2020-12-02 09:20:32;29;52;39
2020-12-02 09:25:29;28;52;38
2020-12-02 09:30:29;28;52;38
2020-12-02 09:35:37;28;52;37
2020-12-02 09:40:32;28;52;37
2020-12-02 09:45:30;28;51;37
2020-12-02 09:50:30;28;52;37
2020-12-02 09:55:44;28;51;36
2020-12-02 10:00:35;28;50;36
2020-12-02 10:05:51;28;50;36
2020-12-02 10:10:34;27;50;36
2020-12-02 10:15:35;27;50;36
2020-12-02 10:20:31;27;49;36
2020-12-02 10:25:29;27;49;36
2020-12-02 10:30:31;26;49;36
2020-12-02 10:35:29;26;48;36
2020-12-02 10:40:30;26;48;35
2020-12-02 10:45:37;26;48;35
2020-12-02 10:50:31;25;48;35
2020-12-02 10:55:29;25;48;35
2020-12-02 11:00:32;25;47;35
2020-12-02 11:05:38;25;47;34
2020-12-02 11:10:30;25;46;34
2020-12-02 11:15:30;25;48;34
2020-12-02 11:20:37;28;58;36
2020-12-02 11:25:39;37;68;40
2020-12-02 11:30:30;37;57;40
2020-12-02 11:35:37;31;53;37
2020-12-02 11:40:34;28;51;36
2020-12-02 11:45:32;27;51;36
2020-12-02 11:50:35;26;49;34
2020-12-02 11:55:34;26;47;34
2020-12-02 12:00:50;25;46;33
2020-12-02 12:05:31;25;46;33
2020-12-02 12:10:34;24;45;33
2020-12-02 12:15:39;24;45;32
2020-12-02 12:20:32;24;44;31
2020-12-02 12:25:32;24;43;31
2020-12-02 12:30:30;23;42;30
2020-12-02 12:35:28;23;42;30
2020-12-02 12:40:31;23;42;30
2020-12-02 12:45:28;22;42;30
2020-12-02 12:50:33;22;41;30
2020-12-02 12:55:30;22;41;30
2020-12-02 13:00:28;22;41;29
2020-12-02 13:05:31;22;40;29
2020-12-02 13:10:35;22;40;29
2020-12-02 13:15:28;22;42;29
2020-12-02 13:20:28;23;41;29
2020-12-02 13:25:34;24;42;29
2020-12-02 13:30:30;23;42;30
2020-12-02 13:35:31;24;42;30
2020-12-02 13:40:32;24;42;30
2020-12-02 13:45:30;24;42;30
2020-12-02 13:50:37;24;43;30
2020-12-02 13:55:36;24;43;30
2020-12-02 14:00:28;24;43;30
2020-12-02 14:05:28;24;43;30
2020-12-02 14:10:32;24;42;30
2020-12-02 14:15:32;24;42;30
2020-12-02 14:20:31;24;42;30
2020-12-02 14:25:30;24;42;30
2020-12-02 14:30:30;24;42;30
2020-12-02 14:35:33;24;42;30
2020-12-02 14:40:29;24;42;30
2020-12-02 14:45:37;24;42;30
2020-12-02 14:50:26;24;42;30
2020-12-02 14:55:37;24;42;30
2020-12-02 15:00:36;24;42;30
2020-12-02 15:05:32;24;42;30
2020-12-02 15:10:30;24;42;30
2020-12-02 15:15:30;24;42;30
2020-12-02 15:20:28;24;43;30
2020-12-02 15:25:29;24;43;30
2020-12-02 15:30:34;24;43;29
2020-12-02 15:35:33;24;42;29
2020-12-02 15:40:30;24;42;29
2020-12-02 15:45:31;24;42;29
2020-12-02 15:50:37;24;42;29
2020-12-02 15:55:32;24;42;29
2020-12-02 16:00:32;24;42;29
2020-12-02 16:05:29;24;42;29
2020-12-02 16:10:35;24;42;29
2020-12-02 16:15:35;24;42;30
2020-12-02 16:20:28;25;44;29
2020-12-02 16:25:30;24;42;29
2020-12-02 16:30:29;24;42;29
2020-12-02 16:35:30;24;42;29
2020-12-02 16:40:31;24;42;29
2020-12-02 16:45:30;24;43;29
2020-12-02 16:50:34;25;42;29
2020-12-02 16:55:35;24;43;29
2020-12-02 17:00:30;24;43;29
2020-12-02 17:05:36;24;42;29
2020-12-02 17:10:31;24;42;29
2020-12-02 17:15:29;25;43;29
2020-12-02 17:20:27;25;43;29
2020-12-02 17:25:32;25;43;29
2020-12-02 17:30:34;25;43;29
2020-12-02 17:35:25;24;43;30
2020-12-02 17:40:28;25;43;29
2020-12-02 17:45:26;25;43;29
2020-12-02 17:50:29;25;43;29
2020-12-02 17:55:31;25;43;29
2020-12-02 18:00:29;25;43;29
2020-12-02 18:05:27;25;43;29
2020-12-02 18:10:29;25;43;29
2020-12-02 18:15:29;25;44;29
2020-12-02 18:20:36;25;43;30
2020-12-02 18:25:32;25;43;30
2020-12-02 18:30:29;25;43;30
2020-12-02 18:35:30;25;45;30
2020-12-02 18:40:28;25;45;30
2020-12-02 18:45:30;25;44;30
2020-12-02 18:50:28;25;40;30
2020-12-02 18:55:31;26;40;29
2020-12-02 19:00:30;26;42;29
2020-12-02 19:05:28;26;43;29
2020-12-02 19:10:37;26;43;30
2020-12-02 19:15:32;26;43;30
2020-12-02 19:20:34;25;43;30
2020-12-02 19:25:29;25;43;30
2020-12-02 19:30:33;25;43;29
2020-12-02 19:35:31;25;42;30
2020-12-02 19:40:29;25;42;29
2020-12-02 19:45:30;25;42;29
2020-12-02 19:50:29;25;42;29
2020-12-02 19:55:29;25;43;29
2020-12-02 20:00:28;25;42;29
2020-12-02 20:05:30;25;42;29
2020-12-02 20:10:30;25;42;29
2020-12-02 20:15:28;25;42;29
2020-12-02 20:20:27;25;43;29
2020-12-02 20:25:30;24;43;30
2020-12-02 20:30:28;24;42;29
2020-12-02 20:35:29;24;42;29
2020-12-02 20:40:31;24;43;29
2020-12-02 20:45:32;24;42;30
2020-12-02 20:50:33;24;42;29
2020-12-02 20:55:28;24;42;30
2020-12-02 21:00:27;24;42;29
2020-12-02 21:05:26;24;42;29
2020-12-02 21:10:27;24;42;29
2020-12-02 21:15:29;24;42;29
2020-12-02 21:20:29;25;42;29
2020-12-02 21:25:34;25;42;29
2020-12-02 21:30:30;25;42;29
2020-12-02 21:35:30;25;42;29
2020-12-02 21:40:35;25;42;29
2020-12-02 21:45:37;25;42;29
2020-12-02 21:50:27;25;42;29
2020-12-02 21:55:26;25;43;29
2020-12-02 22:00:35;25;42;29
2020-12-02 22:05:27;25;42;29
2020-12-02 22:10:27;24;42;29
2020-12-02 22:15:34;24;42;29
2020-12-02 22:20:33;24;42;28
2020-12-02 22:25:31;24;42;28
2020-12-02 22:30:29;24;42;28
2020-12-02 22:35:32;24;42;28
2020-12-02 22:40:28;24;42;28
2020-12-02 22:45:28;24;42;28
2020-12-02 22:50:32;24;41;28
2020-12-02 22:55:27;24;41;28
2020-12-02 23:00:25;24;41;28
2020-12-02 23:05:35;24;41;28
2020-12-02 23:10:42;24;41;28
2020-12-02 23:15:30;24;41;28
2020-12-02 23:20:31;24;41;28
2020-12-02 23:25:29;24;41;28
2020-12-02 23:30:30;24;41;28
2020-12-02 23:35:28;24;45;28
2020-12-02 23:40:30;24;45;28
2020-12-02 23:45:29;24;43;28
2020-12-02 23:50:25;24;42;28
2020-12-02 23:55:28;24;42;28
2020-12-03 00:00:39;24;42;28
2020-12-03 00:05:27;25;42;28
2020-12-03 00:10:29;25;43;29
2020-12-03 00:15:29;25;43;28
2020-12-03 00:20:32;25;42;28
2020-12-03 00:25:29;25;42;28
2020-12-03 00:30:27;25;42;28
2020-12-03 00:35:27;24;42;28
2020-12-03 00:40:31;24;42;28
2020-12-03 00:45:33;24;42;28
2020-12-03 00:50:29;24;42;28
2020-12-03 00:55:25;24;42;28
2020-12-03 01:00:28;24;42;28
2020-12-03 01:05:27;24;42;28
2020-12-03 01:10:33;24;41;28
2020-12-03 01:15:36;24;41;28
2020-12-03 01:20:32;24;41;28
2020-12-03 01:25:32;24;41;28
2020-12-03 01:30:32;24;41;28
2020-12-03 01:35:29;24;41;28
2020-12-03 01:40:27;24;41;28
2020-12-03 01:45:25;24;41;28
2020-12-03 01:50:28;24;41;28
2020-12-03 01:55:26;24;41;28
2020-12-03 02:00:30;24;41;27
2020-12-03 02:05:32;24;41;28
2020-12-03 02:10:25;24;40;28
2020-12-03 02:15:29;24;41;28
2020-12-03 02:20:28;24;40;28
2020-12-03 02:25:33;24;40;28
2020-12-03 02:30:32;24;40;28
2020-12-03 02:35:33;24;40;28
2020-12-03 02:40:28;24;40;28
2020-12-03 02:45:30;24;40;28
2020-12-03 02:50:27;24;40;28
2020-12-03 02:55:31;24;40;27
2020-12-03 03:00:32;24;40;27
2020-12-03 03:05:37;24;40;27
2020-12-03 03:10:36;24;40;27
2020-12-03 03:15:29;24;40;27
2020-12-03 03:20:35;24;40;27
2020-12-03 03:25:29;24;40;27
2020-12-03 03:30:30;23;40;27
2020-12-03 03:35:29;23;40;27
2020-12-03 03:40:30;23;40;27
2020-12-03 03:45:28;23;40;27
2020-12-03 03:50:34;23;40;27
2020-12-03 03:55:28;23;39;27
2020-12-03 04:00:32;23;39;27
2020-12-03 04:05:30;23;39;27
2020-12-03 04:10:29;23;39;27
2020-12-03 04:15:30;23;39;28
2020-12-03 04:20:28;23;42;28
2020-12-03 04:25:27;23;41;27
2020-12-03 04:30:27;23;41;27
2020-12-03 04:35:25;23;41;27
2020-12-03 04:40:28;23;40;27
2020-12-03 04:45:28;23;40;27
2020-12-03 04:50:33;23;40;27
2020-12-03 04:55:30;23;40;27
2020-12-03 05:00:35;23;40;27
2020-12-03 05:05:27;23;40;27
2020-12-03 05:10:36;23;40;27
2020-12-03 05:15:32;23;40;27
2020-12-03 05:20:33;23;40;27
2020-12-03 05:25:28;23;40;27
2020-12-03 05:30:28;23;40;27
2020-12-03 05:35:30;23;40;27
2020-12-03 05:40:25;23;40;27
2020-12-03 05:45:33;23;40;27
2020-12-03 05:50:33;23;40;27
2020-12-03 05:55:29;23;40;27
2020-12-03 06:00:30;24;40;27
2020-12-03 06:05:29;24;40;27
2020-12-03 06:10:43;23;40;27
2020-12-03 06:15:33;23;40;27
2020-12-03 06:20:31;23;40;27
2020-12-03 06:25:36;23;40;27
2020-12-03 06:30:24;23;40;27
2020-12-03 06:35:30;23;40;27
2020-12-03 06:40:26;23;40;27
2020-12-03 06:45:33;23;40;27
2020-12-03 06:50:28;23;40;27
2020-12-03 06:55:31;23;40;27
2020-12-03 07:00:33;23;39;27
2020-12-03 07:05:26;23;39;27
2020-12-03 07:10:26;23;40;27
2020-12-03 07:15:32;23;40;27
2020-12-03 07:20:29;23;40;27
2020-12-03 07:25:29;29;40;27
2020-12-03 07:30:29;28;49;29
2020-12-03 07:35:29;36;55;30
2020-12-03 07:40:31;27;45;30
2020-12-03 07:45:31;26;45;28
2020-12-03 07:50:28;26;42;28
2020-12-03 07:55:27;25;42;28
2020-12-03 08:00:27;25;41;27
2020-12-03 08:05:30;24;41;27
2020-12-03 08:10:30;24;40;27
2020-12-03 08:15:28;24;38;27
2020-12-03 08:20:30;23;42;27
2020-12-03 08:25:31;23;43;27
2020-12-03 08:30:28;28;46;27
2020-12-03 08:35:32;28;44;27
2020-12-03 08:40:24;28;44;27
2020-12-03 08:45:30;29;44;27
2020-12-03 08:50:29;28;44;27
2020-12-03 08:55:36;28;45;27
2020-12-03 09:00:27;28;45;28
2020-12-03 09:05:31;28;44;28
2020-12-03 09:10:33;28;44;27
2020-12-03 09:15:32;28;44;28
2020-12-03 09:20:29;27;44;28
2020-12-03 09:25:29;27;43;28
2020-12-03 09:30:30;27;44;28
2020-12-03 09:35:33;24;41;28
2020-12-03 09:40:31;24;41;28
2020-12-03 09:45:35;24;41;28
2020-12-03 09:50:34;24;41;28
2020-12-03 09:55:33;24;41;28
2020-12-03 10:00:37;24;41;28
2020-12-03 10:05:28;24;41;28
2020-12-03 10:10:35;24;41;28
2020-12-03 10:15:33;24;41;28
2020-12-03 10:20:31;24;41;28
2020-12-03 10:25:34;24;41;28
2020-12-03 10:30:26;24;41;28
2020-12-03 10:35:25;24;41;28
2020-12-03 10:40:26;24;41;28
2020-12-03 10:45:26;25;41;28
2020-12-03 10:50:26;24;41;28
2020-12-03 10:55:30;25;41;28
2020-12-03 11:00:33;24;41;28
2020-12-03 11:05:31;24;40;28
2020-12-03 11:10:34;24;43;28
2020-12-03 11:15:30;24;43;28
2020-12-03 11:20:32;24;41;28
2020-12-03 11:25:27;24;41;28
2020-12-03 11:30:35;24;41;28
2020-12-03 11:35:30;24;40;28
2020-12-03 11:40:32;24;41;28
2020-12-03 11:45:33;24;41;28
2020-12-03 11:50:28;24;41;28
2020-12-03 11:55:25;24;41;28
2020-12-03 12:00:27;25;41;28
2020-12-03 12:05:37;24;41;28
2020-12-03 12:10:31;24;40;27
2020-12-03 12:15:29;24;40;28
2020-12-03 12:20:26;24;41;28
2020-12-03 12:25:33;24;41;29
2020-12-03 12:30:32;25;40;29
2020-12-03 12:35:27;25;40;29
2020-12-03 12:40:31;25;40;29
2020-12-03 12:45:32;25;40;28
2020-12-03 12:50:31;25;40;28
2020-12-03 12:55:28;25;40;29
2020-12-03 13:00:30;25;40;29
2020-12-03 13:05:29;24;40;29
2020-12-03 13:10:28;24;40;29
2020-12-03 13:15:30;24;39;29
2020-12-03 13:20:34;24;39;29
2020-12-03 13:25:40;24;39;29
2020-12-03 13:30:36;24;39;29
2020-12-03 13:35:38;24;39;29
2020-12-03 13:40:38;24;39;29
2020-12-03 13:45:33;24;39;29
2020-12-03 13:50:32;24;39;30
2020-12-03 13:55:33;24;39;29
2020-12-03 14:00:29;24;39;29
2020-12-03 14:05:36;24;39;29
2020-12-03 14:10:29;24;39;29
2020-12-03 14:15:33;24;38;29
2020-12-03 14:20:30;24;38;28
2020-12-03 14:25:33;24;38;28
2020-12-03 14:30:32;24;38;29
2020-12-03 14:35:30;24;38;29
2020-12-03 14:40:28;24;38;29
2020-12-03 14:45:38;24;38;29
2020-12-03 14:50:37;24;38;28
2020-12-03 14:55:31;24;38;28
2020-12-03 15:00:34;24;38;28
2020-12-03 15:05:30;24;38;28
2020-12-03 15:10:31;24;38;29
2020-12-03 15:15:28;24;38;28
2020-12-03 15:20:33;24;38;28
2020-12-03 15:25:29;24;38;28
2020-12-03 15:30:34;24;38;29
2020-12-03 15:35:28;24;37;29
2020-12-03 15:40:41;24;38;28
2020-12-03 15:45:27;24;38;28
2020-12-03 15:50:31;24;38;28
2020-12-03 15:55:40;24;38;28
2020-12-03 16:00:30;24;38;28
2020-12-03 16:05:29;24;38;28
2020-12-03 16:10:28;24;38;28
2020-12-03 16:15:30;23;38;28
2020-12-03 16:20:31;24;38;28
2020-12-03 16:25:28;24;38;28
2020-12-03 16:30:27;23;38;28
2020-12-03 16:35:25;23;38;28
2020-12-03 16:40:29;24;38;28
2020-12-03 16:45:28;24;38;28
2020-12-03 16:50:30;24;38;28
2020-12-03 16:55:27;23;38;28
2020-12-03 17:00:35;23;38;28
2020-12-03 17:05:28;23;38;28
2020-12-03 17:10:33;23;38;28
2020-12-03 17:15:36;24;38;28
2020-12-03 17:20:30;24;38;28
2020-12-03 17:25:35;24;38;28
2020-12-03 17:30:35;24;38;28
2020-12-03 17:35:26;24;38;28
2020-12-03 17:40:28;24;38;28
2020-12-03 17:45:32;24;38;29
2020-12-03 17:50:34;23;40;29
2020-12-03 17:55:30;23;38;29
2020-12-03 18:00:37;24;38;29
2020-12-03 18:05:32;24;38;29
2020-12-03 18:10:37;24;39;29
2020-12-03 18:15:35;24;39;29
2020-12-03 18:20:41;24;39;29
2020-12-03 18:25:36;24;39;29
2020-12-03 18:30:31;24;39;29
2020-12-03 18:35:25;24;39;29
2020-12-03 18:40:32;24;39;30
2020-12-03 18:45:34;24;39;29
2020-12-03 18:50:32;24;39;29
2020-12-03 18:55:33;24;39;29
2020-12-03 19:00:30;24;39;29
2020-12-03 19:05:39;24;39;29
2020-12-03 19:10:28;24;38;29
2020-12-03 19:15:34;24;36;30
2020-12-03 19:20:28;24;36;27
2020-12-03 19:25:31;25;37;26
2020-12-03 19:30:34;26;38;26
2020-12-03 19:35:31;24;38;28
2020-12-03 19:40:32;24;38;29
2020-12-03 19:45:31;25;39;29
2020-12-03 19:50:32;25;41;29
2020-12-03 19:55:30;25;41;29
2020-12-03 20:00:33;24;40;30
2020-12-03 20:05:26;25;40;29
2020-12-03 20:10:27;24;40;29
2020-12-03 20:15:31;24;40;30
2020-12-03 20:20:25;24;40;30
2020-12-03 20:25:27;24;40;29
2020-12-03 20:30:40;24;40;29
2020-12-03 20:35:30;25;40;29
2020-12-03 20:40:32;24;40;29
2020-12-03 20:45:28;24;40;30
2020-12-03 20:50:37;24;39;29
2020-12-03 20:55:33;24;39;29
2020-12-03 21:00:27;24;39;29
2020-12-03 21:05:27;24;39;29
2020-12-03 21:10:27;24;39;29
2020-12-03 21:15:32;24;39;29
2020-12-03 21:20:34;24;39;29
2020-12-03 21:25:33;24;39;29
2020-12-03 21:30:29;24;39;29
2020-12-03 21:35:33;24;39;29
2020-12-03 21:40:29;24;39;29
2020-12-03 21:45:36;24;39;29
2020-12-03 21:50:28;24;39;29
2020-12-03 21:55:31;24;39;29
2020-12-03 22:00:30;24;39;29
2020-12-03 22:05:38;24;41;29
2020-12-03 22:10:30;24;41;29
2020-12-03 22:15:27;24;39;29
2020-12-03 22:20:28;24;39;29
2020-12-03 22:25:32;24;38;29
2020-12-03 22:30:30;24;38;29
2020-12-03 22:35:26;24;38;29
2020-12-03 22:40:25;24;38;29
2020-12-03 22:45:29;24;38;29
2020-12-03 22:50:25;24;38;29
2020-12-03 22:55:29;24;38;29
2020-12-03 23:00:28;24;38;29
2020-12-03 23:05:31;24;38;29
2020-12-03 23:10:30;24;38;29
2020-12-03 23:15:31;24;38;29
2020-12-03 23:20:29;24;38;29
2020-12-03 23:25:35;24;38;29
2020-12-03 23:30:25;24;38;29
2020-12-03 23:35:34;24;38;29
2020-12-03 23:40:29;24;38;29
2020-12-03 23:45:27;24;38;28
2020-12-03 23:50:31;24;37;29
2020-12-03 23:55:32;23;38;29
2020-12-04 00:00:29;23;38;29
2020-12-04 00:05:35;23;38;28
2020-12-04 00:10:33;23;37;28
2020-12-04 00:15:39;24;37;28
2020-12-04 00:20:38;23;37;28
2020-12-04 00:25:28;23;37;28
2020-12-04 00:30:26;23;37;28
2020-12-04 00:35:26;24;38;29
2020-12-04 00:40:28;24;38;28
2020-12-04 00:45:31;24;38;28
2020-12-04 00:50:36;24;37;28
2020-12-04 00:55:33;24;38;28
2020-12-04 01:00:31;23;38;28
2020-12-04 01:05:28;23;37;28
2020-12-04 01:10:30;24;37;28
2020-12-04 01:15:29;23;37;28
2020-12-04 01:20:31;24;37;28
2020-12-04 01:25:29;23;37;28
2020-12-04 01:30:33;23;37;28
2020-12-04 01:35:27;23;37;28
2020-12-04 01:40:29;23;37;28
2020-12-04 01:45:37;23;37;28
2020-12-04 01:50:28;23;37;28
2020-12-04 01:55:28;23;37;28
2020-12-04 02:00:30;23;37;28
2020-12-04 02:05:33;23;37;28
2020-12-04 02:10:34;23;37;28
2020-12-04 02:15:28;23;38;27
2020-12-04 02:20:30;23;38;27
2020-12-04 02:25:31;23;38;27
2020-12-04 02:30:31;23;38;26
2020-12-04 02:35:29;23;38;26
2020-12-04 02:40:31;24;38;26
2020-12-04 02:45:33;24;38;26
2020-12-04 02:50:30;24;38;26
2020-12-04 02:55:25;24;38;26
2020-12-04 03:00:28;23;38;26
2020-12-04 03:05:32;23;39;26
2020-12-04 03:10:26;23;38;26
2020-12-04 03:15:28;23;38;26
2020-12-04 03:20:32;23;38;26
2020-12-04 03:25:33;23;38;26
2020-12-04 03:30:30;23;38;26
2020-12-04 03:35:29;23;38;26
2020-12-04 03:40:30;23;38;26
2020-12-04 03:45:30;23;38;26
2020-12-04 03:50:34;24;38;26
2020-12-04 03:55:32;24;38;26
2020-12-04 04:00:27;24;38;26
2020-12-04 04:05:30;24;38;26
2020-12-04 04:10:34;24;38;26
2020-12-04 04:15:26;24;38;26
2020-12-04 04:20:32;23;38;26
2020-12-04 04:25:29;24;38;26
2020-12-04 04:30:32;24;38;26
2020-12-04 04:35:37;24;38;26
2020-12-04 04:40:28;23;38;26
2020-12-04 04:45:28;23;38;26
2020-12-04 04:50:31;23;38;26
2020-12-04 04:55:29;23;38;26
2020-12-04 05:00:31;23;38;26
2020-12-04 05:05:28;24;38;26
2020-12-04 05:10:33;24;38;26
2020-12-04 05:15:34;24;38;26
2020-12-04 05:20:32;24;38;26
2020-12-04 05:25:29;24;38;26
2020-12-04 05:30:28;23;39;26
2020-12-04 05:35:31;23;38;26
2020-12-04 05:40:27;23;38;26
2020-12-04 05:45:27;23;38;26
2020-12-04 05:50:40;23;38;26
2020-12-04 05:55:28;23;38;26
2020-12-04 06:00:31;24;38;27
2020-12-04 06:05:34;24;38;26
2020-12-04 06:10:29;24;37;26
2020-12-04 06:15:34;24;37;26
2020-12-04 06:20:30;23;37;26
2020-12-04 06:25:36;23;37;26
2020-12-04 06:30:30;23;37;26
2020-12-04 06:35:33;23;37;26
2020-12-04 06:40:28;23;37;26
2020-12-04 06:45:29;23;37;26
2020-12-04 06:50:32;24;37;26
2020-12-04 06:55:31;24;37;26
2020-12-04 07:00:38;24;37;26
2020-12-04 07:05:27;24;37;26
2020-12-04 07:10:34;24;37;26
2020-12-04 07:15:35;24;37;26
2020-12-04 07:20:33;24;37;26
2020-12-04 07:25:32;24;37;27
2020-12-04 07:30:26;24;38;26
2020-12-04 07:35:25;24;38;27
2020-12-04 07:40:25;24;38;27
2020-12-04 07:45:35;29;38;26
2020-12-04 07:50:37;29;47;29
2020-12-04 07:55:37;33;56;32
2020-12-04 08:00:32;38;50;34
2020-12-04 08:05:28;30;50;34
2020-12-04 08:10:31;30;47;31
2020-12-04 08:15:28;29;44;31
2020-12-04 08:20:29;28;42;33
2020-12-04 08:25:30;28;46;32
2020-12-04 08:30:37;28;45;29
2020-12-04 08:35:29;29;45;30
2020-12-04 08:40:29;30;45;30
2020-12-04 08:45:28;30;45;29
2020-12-04 08:50:37;30;45;30
2020-12-04 08:55:33;30;45;30
2020-12-04 09:00:29;30;45;30
2020-12-04 09:05:32;30;44;30
2020-12-04 09:10:35;28;44;30
2020-12-04 09:15:39;28;44;30
2020-12-04 09:20:31;28;43;30
2020-12-04 09:25:31;27;43;30
2020-12-04 09:30:28;26;43;30
2020-12-04 09:35:34;26;42;30
2020-12-04 09:40:31;26;42;30
2020-12-04 09:45:33;25;42;30
2020-12-04 09:50:36;25;42;30
2020-12-04 09:55:34;25;41;29
2020-12-04 10:00:33;25;41;29
2020-12-04 10:05:33;25;40;29
2020-12-04 10:10:35;24;40;29
2020-12-04 10:15:30;24;40;29
2020-12-04 10:20:26;24;40;29
2020-12-04 10:25:28;24;39;29
2020-12-04 10:30:32;23;39;29
2020-12-04 10:35:30;23;40;29
2020-12-04 10:40:30;23;39;29
2020-12-04 10:45:32;23;39;29
2020-12-04 10:50:31;23;39;28
2020-12-04 10:55:30;23;39;28
2020-12-04 11:00:31;23;39;28
2020-12-04 11:05:30;23;38;28
2020-12-04 11:10:27;23;38;28
2020-12-04 11:15:26;23;38;28
2020-12-04 11:20:37;23;38;28
2020-12-04 11:25:26;23;38;28
2020-12-04 11:30:31;23;38;28
2020-12-04 11:35:28;23;38;28
2020-12-04 11:40:32;23;38;27
2020-12-04 11:45:35;24;38;27
2020-12-04 11:50:27;23;38;27
2020-12-04 11:55:29;23;38;27
2020-12-04 12:00:28;23;38;27
2020-12-04 12:05:33;23;38;27
2020-12-04 12:10:30;23;38;27
2020-12-04 12:15:34;23;37;27
2020-12-04 12:20:34;23;38;27
2020-12-04 12:25:35;23;42;27
2020-12-04 12:30:33;23;42;27
2020-12-04 12:35:31;21;34;27
2020-12-04 12:40:49;22;36;27
2020-12-04 12:45:33;22;40;27
2020-12-04 12:50:28;23;37;28
2020-12-04 12:55:38;22;37;27
2020-12-04 13:00:31;22;37;27
2020-12-04 13:05:25;22;37;28
2020-12-04 13:10:30;22;37;28
2020-12-04 13:15:35;22;36;28
2020-12-04 13:20:32;22;36;28
2020-12-04 13:25:28;22;36;28
2020-12-04 13:30:29;22;36;27
2020-12-04 13:35:27;22;36;28
2020-12-04 13:40:35;22;36;27
2020-12-04 13:45:27;22;36;27
2020-12-04 13:50:32;22;36;27
2020-12-04 13:55:35;22;36;27
2020-12-04 14:00:24;22;36;27
2020-12-04 14:05:34;22;36;27
2020-12-04 14:10:27;22;36;27
2020-12-04 14:15:31;22;36;27
2020-12-04 14:20:30;22;36;27
2020-12-04 14:25:27;22;36;27
2020-12-04 14:30:34;22;37;27
2020-12-04 14:35:27;22;37;27
2020-12-04 14:40:32;21;36;26
2020-12-04 14:45:29;22;36;26
2020-12-04 14:50:29;22;35;26
2020-12-04 14:55:30;22;35;26
2020-12-04 15:00:27;22;35;26
2020-12-04 15:05:27;22;35;26
2020-12-04 15:10:28;22;35;26
2020-12-04 15:15:29;22;35;26
2020-12-04 15:20:33;22;35;26
2020-12-04 15:25:28;22;35;26
2020-12-04 15:30:28;22;35;26
2020-12-04 15:35:37;22;35;26
2020-12-04 15:40:30;22;34;26
2020-12-04 15:45:28;22;34;26
2020-12-04 15:50:32;22;34;27
2020-12-04 15:55:25;22;35;27
2020-12-04 16:00:31;22;35;27
2020-12-04 16:05:31;23;36;27
2020-12-04 16:10:30;24;36;27
2020-12-04 16:15:39;24;37;27
2020-12-04 16:20:32;24;37;27
2020-12-04 16:25:43;24;37;27
2020-12-04 16:30:31;24;37;27
2020-12-04 16:35:31;24;38;27
2020-12-04 16:40:43;24;37;27
2020-12-04 16:45:32;24;37;27
2020-12-04 16:50:27;24;37;27
2020-12-04 16:55:30;24;37;28
2020-12-04 17:00:32;24;37;28
2020-12-04 17:05:28;24;37;28
2020-12-04 17:10:33;24;38;28
2020-12-04 17:15:44;24;38;28
2020-12-04 17:20:33;24;38;28
2020-12-04 17:25:33;24;38;28
2020-12-04 17:30:37;24;38;2
2020-12-04 17:35:29;24;38;28
2020-12-04 17:40:28;25;38;28
2020-12-04 17:45:37;24;38;32
2020-12-04 17:50:45;24;37;32
2020-12-04 17:55:37;24;36;33
2020-12-04 18:00:36;24;37;33
2020-12-04 18:05:34;24;38;34
2020-12-04 18:10:32;24;38;34
2020-12-04 18:15:39;24;37;34
2020-12-04 18:20:36;24;38;34
2020-12-04 18:25:38;24;38;35
2020-12-04 18:30:33;24;38;35
2020-12-04 18:35:36;24;38;35
2020-12-04 18:40:35;24;38;34
2020-12-04 18:45:40;24;38;35
2020-12-04 18:50:34;24;38;35
2020-12-04 18:55:30;24;38;35
2020-12-04 19:00:37;24;38;35
2020-12-04 19:05:33;25;38;35
2020-12-04 19:10:36;25;37;35
2020-12-04 19:15:41;26;37;34
2020-12-04 19:20:32;25;37;34
2020-12-04 19:25:33;25;38;35
2020-12-04 19:30:35;25;38;35
2020-12-04 19:35:40;24;38;35
2020-12-04 19:40:37;24;38;35
2020-12-04 19:45:35;24;38;36
2020-12-04 19:50:44;24;38;36
2020-12-04 19:55:41;24;38;36
2020-12-04 20:00:30;24;38;36
2020-12-04 20:05:36;24;39;36
2020-12-04 20:10:36;24;38;35
2020-12-04 20:15:41;24;38;35
2020-12-04 20:20:35;24;38;35
2020-12-04 20:25:39;24;37;35
2020-12-04 20:30:32;24;37;35
2020-12-04 20:35:38;23;37;35
2020-12-04 20:40:41;23;37;34
2020-12-04 20:45:39;23;36;34
2020-12-04 20:50:37;23;37;34
2020-12-04 20:55:44;23;36;34
2020-12-04 21:00:36;23;36;34
2020-12-04 21:05:41;23;36;34
2020-12-04 21:10:32;23;36;34
2020-12-04 21:15:37;24;36;34
2020-12-04 21:20:37;24;36;34
2020-12-04 21:25:44;24;36;34
2020-12-04 21:30:36;23;36;34
2020-12-04 21:35:31;24;36;34
2020-12-04 21:40:45;24;36;34
2020-12-04 21:45:40;24;36;34
2020-12-04 21:50:34;24;36;34
2020-12-04 21:55:36;24;36;34
2020-12-04 22:00:38;23;36;34
2020-12-04 22:05:32;24;36;34
2020-12-04 22:10:35;24;36;34
2020-12-04 22:15:37;24;36;34
2020-12-04 22:20:32;23;36;34
2020-12-04 22:25:35;24;36;34
2020-12-04 22:30:37;24;36;33
2020-12-04 22:35:35;24;36;33
2020-12-04 22:40:51;24;36;33
2020-12-04 22:45:44;24;36;33
2020-12-04 22:50:39;24;36;33
2020-12-04 22:55:30;24;36;33
2020-12-04 23:00:37;23;35;33
2020-12-04 23:05:40;23;35;33
2020-12-04 23:10:32;23;35;33
2020-12-04 23:15:36;23;35;33
2020-12-04 23:20:38;23;35;33
2020-12-04 23:25:32;23;35;33
2020-12-04 23:30:36;24;35;33
2020-12-04 23:35:33;24;35;33
2020-12-04 23:40:37;24;35;33
2020-12-04 23:45:33;24;35;33
2020-12-04 23:50:41;24;36;34
2020-12-04 23:55:35;24;36;34
2020-12-05 00:00:58;24;36;34
2020-12-05 00:05:32;24;36;34
2020-12-05 00:10:35;24;36;34
2020-12-05 00:15:40;24;36;34
2020-12-05 00:20:34;24;36;34
2020-12-05 00:25:35;24;36;34
2020-12-05 00:30:41;24;36;34
2020-12-05 00:35:29;24;36;34
2020-12-05 00:40:50;24;36;34
2020-12-05 00:45:33;24;36;34
2020-12-05 00:50:32;24;36;34
2020-12-05 00:55:37;24;36;34
2020-12-05 01:00:34;24;36;34
2020-12-05 01:05:38;24;36;34
2020-12-05 01:10:36;24;36;34
2020-12-05 01:15:38;24;36;34
2020-12-05 01:20:39;24;36;34
2020-12-05 01:25:31;24;36;34
2020-12-05 01:30:35;24;36;34
2020-12-05 01:35:39;24;36;34
2020-12-05 01:40:41;24;36;34
2020-12-05 01:45:39;24;36;33
2020-12-05 01:50:47;24;36;33
2020-12-05 01:55:33;24;36;34
2020-12-05 02:00:39;25;36;34
2020-12-05 02:05:42;25;36;34
2020-12-05 02:10:35;25;36;34
2020-12-05 02:15:38;25;36;34
2020-12-05 02:20:37;25;36;34
2020-12-05 02:25:31;25;36;34
2020-12-05 02:30:34;25;36;34
2020-12-05 02:35:29;25;36;34
2020-12-05 02:40:52;25;36;34
2020-12-05 02:45:41;25;36;34
2020-12-05 02:50:37;25;36;34
2020-12-05 02:55:33;25;36;34
2020-12-05 03:00:50;25;36;34
2020-12-05 03:05:35;25;36;34
2020-12-05 03:10:34;25;36;34
2020-12-05 03:15:29;25;38;34
2020-12-05 03:20:44;25;38;34
2020-12-05 03:25:38;25;37;34
2020-12-05 03:30:37;25;37;34
2020-12-05 03:35:32;25;37;34
2020-12-05 03:40:36;25;37;34
2020-12-05 03:45:35;25;37;34
2020-12-05 03:50:32;25;37;34
2020-12-05 03:55:31;25;37;34
2020-12-05 04:00:37;26;37;34
2020-12-05 04:05:33;26;37;34
2020-12-05 04:10:32;26;37;34
2020-12-05 04:15:39;26;38;34
2020-12-05 04:20:34;26;37;34
2020-12-05 04:25:30;26;37;34
2020-12-05 04:30:35;26;37;35
2020-12-05 04:35:57;26;37;34
2020-12-05 04:40:30;26;37;34
2020-12-05 04:45:38;26;37;34
2020-12-05 04:50:38;26;37;35
2020-12-05 04:55:29;26;37;35
2020-12-05 05:00:35;26;37;35
2020-12-05 05:05:52;26;37;34
2020-12-05 05:10:32;26;37;35
2020-12-05 05:15:44;26;37;34
2020-12-05 05:20:35;26;37;34
2020-12-05 05:25:36;26;37;35
2020-12-05 05:30:35;27;37;35
2020-12-05 05:35:29;26;38;35
2020-12-05 05:40:35;26;38;35
2020-12-05 05:45:30;26;38;35
2020-12-05 05:50:43;26;38;36
2020-12-05 05:55:36;26;38;35
2020-12-05 06:00:34;26;38;35
2020-12-05 06:05:37;26;38;36
2020-12-05 06:10:41;26;38;36
2020-12-05 06:15:49;26;38;36
2020-12-05 06:20:45;26;38;36
2020-12-05 06:25:37;26;38;36
2020-12-05 06:30:36;26;38;36
2020-12-05 06:35:32;27;38;36
2020-12-05 06:40:35;27;38;36
2020-12-05 06:45:46;27;38;36
2020-12-05 06:50:34;27;38;36
2020-12-05 06:55:51;27;38;36
2020-12-05 07:00:43;27;38;35
2020-12-05 07:05:36;27;38;35
2020-12-05 07:10:40;27;38;36
2020-12-05 07:15:33;27;38;36
2020-12-05 07:20:43;27;38;36
2020-12-05 07:25:39;27;38;36
2020-12-05 07:30:34;27;38;36
2020-12-05 07:35:33;27;38;36
2020-12-05 07:40:40;27;38;36
2020-12-05 07:45:32;27;38;36
2020-12-05 07:50:30;27;38;36
2020-12-05 07:55:41;27;38;36
2020-12-05 08:00:42;28;38;36
2020-12-05 08:05:42;28;39;36
2020-12-05 08:10:41;28;39;36
2020-12-05 08:15:39;29;40;37
2020-12-05 08:20:42;29;40;37
2020-12-05 08:25:34;29;40;37
2020-12-05 08:30:38;29;40;40
2020-12-05 08:35:42;28;41;38
2020-12-05 08:40:42;28;41;38
2020-12-05 08:45:44;28;41;38
2020-12-05 08:50:42;28;40;38
2020-12-05 08:55:49;27;40;37
2020-12-05 09:00:37;28;43;37
2020-12-05 09:05:43;26;42;35
2020-12-05 09:10:34;26;42;35
2020-12-05 09:15:37;26;41;34
2020-12-05 09:20:30;26;41;34
2020-12-05 09:25:31;26;41;34
2020-12-05 09:30:28;26;41;33
2020-12-05 09:35:30;25;41;33
2020-12-05 09:40:33;24;40;33
2020-12-05 09:45:30;24;40;32
2020-12-05 09:50:34;24;40;32
2020-12-05 09:55:36;24;40;32
2020-12-05 10:00:33;24;40;31
2020-12-05 10:05:42;24;40;31
2020-12-05 10:10:30;24;39;31
2020-12-05 10:15:35;23;39;31
2020-12-05 10:20:40;23;38;31
2020-12-05 10:25:29;23;38;31
2020-12-05 10:30:29;23;38;31
2020-12-05 10:35:28;22;38;30
2020-12-05 10:40:29;22;38;30
2020-12-05 10:45:28;22;38;30
2020-12-05 10:50:29;22;38;30
2020-12-05 10:55:29;22;38;30
2020-12-05 11:00:30;22;37;29
2020-12-05 11:05:27;22;38;29
2020-12-05 11:10:29;22;37;29
2020-12-05 11:15:28;22;37;29
2020-12-05 11:20:29;22;37;29
2020-12-05 11:25:31;22;37;29
2020-12-05 11:30:32;22;37;29
2020-12-05 11:35:28;22;37;29
2020-12-05 11:40:34;22;37;28
2020-12-05 11:45:31;22;37;28
2020-12-05 11:50:45;23;38;28
2020-12-05 11:55:29;23;38;28
2020-12-05 12:00:33;23;37;28
2020-12-05 12:05:36;23;37;28
2020-12-05 12:10:35;23;37;28
2020-12-05 12:15:34;23;37;28
2020-12-05 12:20:32;23;37;28
2020-12-05 12:25:34;23;37;28
2020-12-05 12:30:34;23;37;28
2020-12-05 12:35:31;23;37;28
2020-12-05 12:40:26;23;37;28
2020-12-05 12:45:32;22;37;28
2020-12-05 12:50:32;22;37;28
2020-12-05 12:55:32;23;37;28
2020-12-05 13:00:34;23;36;28
2020-12-05 13:05:39;22;36;28
2020-12-05 13:10:32;23;36;28
2020-12-05 13:15:33;23;36;28
2020-12-05 13:20:31;23;36;28
2020-12-05 13:25:35;23;36;28
2020-12-05 13:30:31;22;36;28
2020-12-05 13:35:30;22;36;28
2020-12-05 13:40:29;23;36;28
2020-12-05 13:45:32;22;36;28
2020-12-05 13:50:29;22;36;28
2020-12-05 13:55:33;23;36;28
2020-12-05 14:00:32;23;36;28
2020-12-05 14:05:33;22;36;28
2020-12-05 14:10:39;22;36;27
2020-12-05 14:15:31;22;36;27
2020-12-05 14:20:29;22;35;28
2020-12-05 14:25:27;22;35;27
2020-12-05 14:30:34;22;36;27
2020-12-05 14:35:29;22;36;27
2020-12-05 14:40:31;22;36;27
2020-12-05 14:45:39;22;37;27
2020-12-05 14:50:29;22;37;27
2020-12-05 14:55:35;22;37;27
2020-12-05 15:00:33;22;36;27
2020-12-05 15:05:32;23;36;27
2020-12-05 15:10:29;23;36;27
2020-12-05 15:15:31;22;36;27
2020-12-05 15:20:31;22;36;27
2020-12-05 15:25:34;22;36;27
2020-12-05 15:30:33;22;36;27
2020-12-05 15:35:29;22;36;27
2020-12-05 15:40:38;22;36;27
2020-12-05 15:45:43;22;35;26
2020-12-05 15:50:31;22;35;26
2020-12-05 15:55:35;22;35;27
2020-12-05 16:00:32;22;35;27
2020-12-05 16:05:32;22;34;27
2020-12-05 16:10:33;22;35;26
2020-12-05 16:15:30;22;35;26
2020-12-05 16:20:32;22;35;26
2020-12-05 16:25:27;22;35;26
2020-12-05 16:30:30;22;34;26
2020-12-05 16:35:31;22;35;27
2020-12-05 16:40:24;22;36;27
2020-12-05 16:45:29;22;36;27
2020-12-05 16:50:27;22;37;27
2020-12-05 16:55:31;22;35;27
2020-12-05 17:00:31;22;35;27
2020-12-05 17:05:30;22;35;27
2020-12-05 17:10:33;22;35;27
2020-12-05 17:15:36;22;35;27
2020-12-05 17:20:33;22;35;27
2020-12-05 17:25:35;22;35;27
2020-12-05 17:30:38;22;36;27
2020-12-05 17:35:29;22;35;27
2020-12-05 17:40:32;22;35;27
2020-12-05 17:45:28;22;35;27
2020-12-05 17:50:31;22;35;27
2020-12-05 17:55:33;22;35;27
2020-12-05 18:00:34;22;36;27
2020-12-05 18:05:28;23;36;27
2020-12-05 18:10:24;22;35;27
2020-12-05 18:15:30;23;35;27
2020-12-05 18:20:29;22;35;27
2020-12-05 18:25:28;22;35;27
2020-12-05 18:30:36;23;36;27
2020-12-05 18:35:29;23;36;27
2020-12-05 18:40:28;23;36;27
2020-12-05 18:45:30;23;36;27
2020-12-05 18:50:30;23;36;27
2020-12-05 18:55:31;23;36;27
2020-12-05 19:00:30;23;36;27
2020-12-05 19:05:34;23;36;27
2020-12-05 19:10:27;23;36;27
2020-12-05 19:15:30;23;36;27
2020-12-05 19:20:29;23;34;26
2020-12-05 19:25:33;24;36;26
2020-12-05 19:30:30;24;36;26
2020-12-05 19:35:31;24;36;27
2020-12-05 19:40:32;23;37;27
2020-12-05 19:45:30;24;37;27
2020-12-05 19:50:28;23;37;27
2020-12-05 19:55:27;23;38;27
2020-12-05 20:00:28;23;38;27
2020-12-05 20:05:31;23;38;27
2020-12-05 20:10:32;23;38;27
2020-12-05 20:15:32;23;36;27
2020-12-05 20:20:32;23;36;27
2020-12-05 20:25:27;23;37;27
2020-12-05 20:30:30;23;36;27
2020-12-05 20:35:31;23;36;27
2020-12-05 20:40:27;23;36;27
2020-12-05 20:45:27;23;36;27
2020-12-05 20:50:31;26;36;27
2020-12-05 20:55:32;26;46;27
2020-12-05 21:00:43;30;52;32
2020-12-05 21:05:29;30;52;31
2020-12-05 21:10:31;30;43;32
2020-12-05 21:15:33;28;41;30
2020-12-05 21:20:31;27;40;29
2020-12-05 21:25:44;26;39;29
2020-12-05 21:30:31;25;39;29
2020-12-05 21:35:38;24;38;28
2020-12-05 21:40:36;24;38;28
2020-12-05 21:45:25;24;37;28
2020-12-05 21:50:28;24;37;27
2020-12-05 21:55:32;24;36;27
2020-12-05 22:00:32;23;36;27
2020-12-05 22:05:34;23;35;27
2020-12-05 22:10:31;23;35;26
2020-12-05 22:15:34;22;35;26
2020-12-05 22:20:30;22;35;26
2020-12-05 22:25:34;22;35;26
2020-12-05 22:30:32;23;35;26
2020-12-05 22:35:37;23;36;27
2020-12-05 22:40:27;23;36;27
2020-12-05 22:45:32;23;36;27
2020-12-05 22:50:31;23;37;27
2020-12-05 22:55:42;23;37;27
2020-12-05 23:00:37;23;37;27
2020-12-05 23:05:36;23;37;27
2020-12-05 23:10:34;23;37;27
2020-12-05 23:15:30;24;37;27
2020-12-05 23:20:32;24;37;27
2020-12-05 23:25:31;24;38;27
2020-12-05 23:30:28;24;37;27
2020-12-05 23:35:31;24;37;27
2020-12-05 23:40:44;24;37;27
2020-12-05 23:45:30;24;37;27
2020-12-05 23:50:34;24;37;27
2020-12-05 23:55:28;24;37;27
2020-12-06 00:00:34;24;37;27
2020-12-06 00:05:41;24;37;27
2020-12-06 00:10:31;24;37;27
2020-12-06 00:15:27;24;37;27
2020-12-06 00:20:29;23;37;27
2020-12-06 00:25:28;23;37;27
2020-12-06 00:30:30;24;39;27
2020-12-06 00:35:32;24;37;27
2020-12-06 00:40:30;24;37;27
2020-12-06 00:45:39;24;38;27
2020-12-06 00:50:34;24;37;27
2020-12-06 00:55:27;24;37;27
2020-12-06 01:00:32;24;37;27
2020-12-06 01:05:35;24;37;27
2020-12-06 01:10:32;24;37;27
2020-12-06 01:15:37;24;37;27
2020-12-06 01:20:30;23;36;27
2020-12-06 01:25:32;24;37;27
2020-12-06 01:30:32;24;36;27
2020-12-06 01:35:36;24;36;27
2020-12-06 01:40:34;23;36;26
2020-12-06 01:45:33;23;36;26
2020-12-06 01:50:32;23;36;27
2020-12-06 01:55:33;24;36;26
2020-12-06 02:00:42;23;36;26
2020-12-06 02:05:35;23;36;26
2020-12-06 02:10:27;24;36;26
2020-12-06 02:15:30;23;36;26
2020-12-06 02:20:32;23;36;26
2020-12-06 02:25:26;23;36;26
2020-12-06 02:30:30;23;36;26
2020-12-06 02:35:29;23;36;26
2020-12-06 02:40:41;23;36;26
2020-12-06 02:45:28;23;36;26
2020-12-06 02:50:38;23;36;26
2020-12-06 02:55:34;23;36;26
2020-12-06 03:00:29;23;36;26
2020-12-06 03:05:30;23;36;26
2020-12-06 03:10:33;23;38;26
2020-12-06 03:15:34;23;37;26
2020-12-06 03:20:28;23;37;26
2020-12-06 03:25:37;23;37;26
2020-12-06 03:30:30;23;37;26
2020-12-06 03:35:28;23;37;26
2020-12-06 03:40:25;23;37;26
2020-12-06 03:45:29;23;37;26
2020-12-06 03:50:32;23;37;26
2020-12-06 03:55:32;23;36;26
2020-12-06 04:00:29;23;36;26
2020-12-06 04:05:30;23;36;26
2020-12-06 04:10:34;23;36;26
2020-12-06 04:15:33;23;36;26
2020-12-06 04:20:34;23;36;26
2020-12-06 04:25:38;23;36;26
2020-12-06 04:30:31;23;36;26
2020-12-06 04:35:30;23;36;26
2020-12-06 04:40:30;23;36;26
2020-12-06 04:45:33;22;36;26
2020-12-06 04:50:30;22;36;26
2020-12-06 04:55:30;22;36;26
2020-12-06 05:00:28;23;36;26
2020-12-06 05:05:34;22;36;26
2020-12-06 05:10:27;22;36;26
2020-12-06 05:15:30;23;35;26
2020-12-06 05:20:33;22;35;26
2020-12-06 05:25:35;22;35;26
2020-12-06 05:30:29;22;35;26
2020-12-06 05:35:28;22;35;26
2020-12-06 05:40:31;22;35;26
2020-12-06 05:45:31;22;35;26
2020-12-06 05:50:33;22;35;26
2020-12-06 05:55:27;22;35;26
2020-12-06 06:00:37;22;35;26
2020-12-06 06:05:34;22;35;26
2020-12-06 06:10:30;22;35;26
2020-12-06 06:15:32;22;35;25
2020-12-06 06:20:38;22;35;25
2020-12-06 06:25:41;22;35;25
2020-12-06 06:30:32;22;35;26
2020-12-06 06:35:34;22;34;25
2020-12-06 06:40:36;22;35;26
2020-12-06 06:45:27;22;37;26
2020-12-06 06:50:32;22;35;26
2020-12-06 06:55:33;22;35;26
2020-12-06 07:00:31;22;35;26
2020-12-06 07:05:29;22;35;26
2020-12-06 07:10:34;22;35;26
2020-12-06 07:15:29;22;35;26
2020-12-06 07:20:28;22;35;26
2020-12-06 07:25:28;22;35;26
2020-12-06 07:30:31;22;35;26
2020-12-06 07:35:31;22;35;26
2020-12-06 07:40:28;22;35;26
2020-12-06 07:45:26;22;36;26
2020-12-06 07:50:39;22;36;26
2020-12-06 07:55:34;22;36;26
2020-12-06 08:00:24;22;36;26
2020-12-06 08:05:31;22;36;26
2020-12-06 08:10:32;22;36;26
2020-12-06 08:15:30;22;36;26
2020-12-06 08:20:32;22;36;26
2020-12-06 08:25:29;22;36;26
2020-12-06 08:30:39;23;35;26
2020-12-06 08:35:30;23;35;26
2020-12-06 08:40:27;23;34;26
2020-12-06 08:45:31;23;38;27
2020-12-06 08:50:32;23;38;26
2020-12-06 08:55:31;24;38;26
2020-12-06 09:00:27;24;38;26
2020-12-06 09:05:31;24;37;26
2020-12-06 09:10:29;24;37;26
2020-12-06 09:15:27;24;37;26
2020-12-06 09:20:33;24;37;26
2020-12-06 09:25:27;24;37;26
2020-12-06 09:30:31;24;37;26
2020-12-06 09:35:31;23;37;26
2020-12-06 09:40:32;24;37;26
2020-12-06 09:45:31;23;37;26
2020-12-06 09:50:25;23;37;26
2020-12-06 09:55:29;24;37;26
2020-12-06 10:00:27;24;37;26
2020-12-06 10:05:31;24;37;26
2020-12-06 10:10:29;24;37;26
2020-12-06 10:15:35;24;36;26
2020-12-06 10:20:33;25;36;26
2020-12-06 10:25:29;24;37;26
2020-12-06 10:30:31;24;37;26
2020-12-06 10:35:28;24;37;26
2020-12-06 10:40:28;24;37;26
2020-12-06 10:45:35;24;37;26
2020-12-06 10:50:32;24;37;26
2020-12-06 10:55:26;24;37;26
2020-12-06 11:00:34;24;37;26
2020-12-06 11:05:30;24;37;26
2020-12-06 11:10:28;24;37;26
2020-12-06 11:15:33;24;37;26
2020-12-06 11:20:29;24;36;26
2020-12-06 11:25:35;24;36;26
2020-12-06 11:30:37;24;36;26
2020-12-06 11:35:31;24;36;26
2020-12-06 11:40:36;24;36;26
2020-12-06 11:45:28;23;36;26
2020-12-06 11:50:31;24;36;26
2020-12-06 11:55:34;24;36;26
2020-12-06 12:00:27;24;37;26
2020-12-06 12:05:29;24;36;25
2020-12-06 12:10:32;24;36;26
2020-12-06 12:15:29;24;36;26
2020-12-06 12:20:29;24;36;26
2020-12-06 12:25:31;24;36;26
2020-12-06 12:30:28;24;37;26
2020-12-06 12:35:28;24;37;26
2020-12-06 12:40:35;24;37;26
2020-12-06 12:45:30;23;36;26
2020-12-06 12:50:30;24;36;26
2020-12-06 12:55:28;24;36;26
2020-12-06 13:00:30;24;36;26
2020-12-06 13:05:28;24;37;26
2020-12-06 13:10:31;24;37;26
2020-12-06 13:15:30;24;37;26
2020-12-06 13:20:30;24;37;26
2020-12-06 13:25:33;24;37;26
2020-12-06 13:30:29;24;37;26
2020-12-06 13:35:34;24;37;26
2020-12-06 13:40:30;24;37;26
2020-12-06 13:45:29;24;37;26
2020-12-06 13:50:29;24;37;26
2020-12-06 13:55:33;24;37;26
2020-12-06 14:00:29;24;37;26
2020-12-06 14:05:29;24;37;26
2020-12-06 14:10:32;24;37;26
2020-12-06 14:15:31;25;37;26
2020-12-06 14:20:29;25;37;26
2020-12-06 14:25:29;25;37;26
2020-12-06 14:30:30;25;37;26
2020-12-06 14:35:42;25;37;26
2020-12-06 14:40:32;25;38;26
2020-12-06 14:45:39;25;38;26
2020-12-06 14:50:37;25;38;26
2020-12-06 14:55:26;25;38;26
2020-12-06 15:00:37;26;38;27
2020-12-06 15:05:33;26;39;27
2020-12-06 15:10:28;26;38;27
2020-12-06 15:15:28;26;39;26
2020-12-06 15:20:32;26;38;27
2020-12-06 15:25:28;26;39;27
2020-12-06 15:30:28;26;39;27
2020-12-06 15:35:35;26;39;27
2020-12-06 15:40:27;26;39;27
2020-12-06 15:45:32;26;39;27
2020-12-06 15:50:25;27;39;26
2020-12-06 15:55:27;27;39;27
2020-12-06 16:00:31;28;39;27
2020-12-06 16:05:26;27;39;27
2020-12-06 16:10:31;27;40;28
2020-12-06 16:15:27;27;40;28
2020-12-06 16:20:28;27;39;28
2020-12-06 16:25:28;26;40;28
2020-12-06 16:30:28;26;41;28
2020-12-06 16:35:28;26;41;28
2020-12-06 16:40:28;26;40;28
2020-12-06 16:45:36;26;40;28
2020-12-06 16:50:32;25;40;28
2020-12-06 16:55:30;25;41;29
2020-12-06 17:00:30;25;40;28
2020-12-06 17:05:32;25;40;28
2020-12-06 17:10:27;25;40;28
2020-12-06 17:15:34;24;39;28
2020-12-06 17:20:29;24;38;28
2020-12-06 17:25:37;24;38;28
2020-12-06 17:30:35;25;39;29
2020-12-06 17:35:28;25;41;29
2020-12-06 17:40:25;27;41;29
2020-12-06 17:45:25;27;42;30
2020-12-06 17:50:34;25;41;29
2020-12-06 17:55:30;25;40;29
2020-12-06 18:00:26;25;40;28
2020-12-06 18:05:28;24;40;28
2020-12-06 18:10:27;25;41;28
2020-12-06 18:15:26;25;41;28
2020-12-06 18:20:30;30;49;31
2020-12-06 18:25:30;32;50;31
2020-12-06 18:30:31;30;49;31
2020-12-06 18:35:33;31;49;31
2020-12-06 18:40:33;31;49;31
2020-12-06 18:45:31;32;50;31
2020-12-06 18:50:30;31;50;32
2020-12-06 18:55:25;31;51;32
2020-12-06 19:00:28;31;51;32
2020-12-06 19:05:29;31;51;32
2020-12-06 19:10:44;31;51;32
2020-12-06 19:15:30;32;51;32
2020-12-06 19:20:26;32;52;32
2020-12-06 19:25:33;31;53;32
2020-12-06 19:30:33;31;53;32
2020-12-06 19:35:28;33;52;32
2020-12-06 19:40:32;33;54;33
2020-12-06 19:45:32;33;54;33
2020-12-06 19:50:35;33;54;33
2020-12-06 19:55:31;33;54;33
2020-12-06 20:00:29;34;54;33
2020-12-06 20:05:31;33;54;33
2020-12-06 20:10:35;35;57;34
2020-12-06 20:15:26;35;57;34
2020-12-06 20:20:28;34;56;34
2020-12-06 20:25:32;34;54;34
2020-12-06 20:30:27;34;55;34
2020-12-06 20:35:29;35;56;34
2020-12-06 20:40:29;35;56;34
2020-12-06 20:45:41;34;55;34
2020-12-06 20:50:33;34;55;34
2020-12-06 20:55:34;33;55;34
2020-12-06 21:00:32;33;55;34
2020-12-06 21:05:35;33;55;35
2020-12-06 21:10:31;34;56;35
2020-12-06 21:15:28;32;56;35
2020-12-06 21:20:27;32;56;37
2020-12-06 21:25:43;33;52;35
2020-12-06 21:30:28;32;52;35
2020-12-06 21:35:37;30;48;34
2020-12-06 21:40:36;29;48;32
2020-12-06 21:45:27;29;48;31
2020-12-06 21:50:28;27;46;31
2020-12-06 21:55:25;27;44;30
2020-12-06 22:00:33;26;42;29
2020-12-06 22:05:31;26;41;29
2020-12-06 22:10:31;26;40;29
2020-12-06 22:15:26;25;40;29
2020-12-06 22:20:37;26;40;29
2020-12-06 22:25:31;26;41;29
2020-12-06 22:30:32;26;41;29
2020-12-06 22:35:32;26;41;29
2020-12-06 22:40:30;26;41;29
2020-12-06 22:45:30;26;41;29
2020-12-06 22:50:28;26;42;29
2020-12-06 22:55:31;26;41;29
2020-12-06 23:00:30;26;41;29
2020-12-06 23:05:30;26;41;29
2020-12-06 23:10:34;26;41;29
2020-12-06 23:15:29;26;41;29
2020-12-06 23:20:27;26;41;29
2020-12-06 23:25:30;26;41;29
2020-12-06 23:30:36;26;41;29
2020-12-06 23:35:35;26;41;29
2020-12-06 23:40:28;26;41;29
2020-12-06 23:45:43;26;40;28
2020-12-06 23:50:39;25;40;28
2020-12-06 23:55:29;26;40;28
2020-12-07 00:00:32;26;40;28
2020-12-07 00:05:32;25;40;28
2020-12-07 00:10:25;25;40;28
2020-12-07 00:15:27;25;40;28
2020-12-07 00:20:33;25;40;28
2020-12-07 00:25:31;25;40;28
2020-12-07 00:30:28;25;40;28
2020-12-07 00:35:31;25;40;28
2020-12-07 00:40:31;25;39;28
2020-12-07 00:45:36;25;39;28
2020-12-07 00:50:29;25;39;28
2020-12-07 00:55:37;25;39;28
2020-12-07 01:00:25;25;39;28
2020-12-07 01:05:30;25;39;28
2020-12-07 01:10:28;25;39;28
2020-12-07 01:15:30;25;39;28
2020-12-07 01:20:26;25;39;28
2020-12-07 01:25:35;24;39;28
2020-12-07 01:30:31;24;39;28
2020-12-07 01:35:31;24;39;28
2020-12-07 01:40:36;24;38;27
2020-12-07 01:45:28;24;38;28
2020-12-07 01:50:30;24;38;27
2020-12-07 01:55:29;24;39;27
2020-12-07 02:00:28;24;38;27
2020-12-07 02:05:32;24;41;28
2020-12-07 02:10:28;24;39;28
2020-12-07 02:15:36;24;39;27
2020-12-07 02:20:30;24;39;28
2020-12-07 02:25:29;24;39;27
2020-12-07 02:30:42;24;39;27
2020-12-07 02:35:29;24;39;27
2020-12-07 02:40:27;24;39;27
2020-12-07 02:45:29;24;39;27
2020-12-07 02:50:30;24;38;27
2020-12-07 02:55:32;24;38;27
2020-12-07 03:00:32;24;38;27
2020-12-07 03:05:30;24;38;27
2020-12-07 03:10:28;24;38;27
2020-12-07 03:15:28;24;38;27
2020-12-07 03:20:27;24;38;27
2020-12-07 03:25:30;24;38;27
2020-12-07 03:30:30;24;38;27
2020-12-07 03:35:26;24;38;27
2020-12-07 03:40:35;24;38;27
2020-12-07 03:45:33;24;38;27
2020-12-07 03:50:32;24;37;27
2020-12-07 03:55:33;24;37;27
2020-12-07 04:00:30;24;37;27
2020-12-07 04:05:29;24;37;27
2020-12-07 04:10:27;24;37;27
2020-12-07 04:15:33;24;37;27
2020-12-07 04:20:30;23;37;27
2020-12-07 04:25:27;23;37;27
2020-12-07 04:30:27;23;37;27
2020-12-07 04:35:32;23;37;27
2020-12-07 04:40:26;23;37;27
2020-12-07 04:45:27;23;36;27
2020-12-07 04:50:31;23;37;27
2020-12-07 04:55:30;23;37;26
2020-12-07 05:00:26;23;37;26
2020-12-07 05:05:31;23;36;26
2020-12-07 05:10:31;23;36;26
2020-12-07 05:15:31;23;36;26
2020-12-07 05:20:38;23;37;26
2020-12-07 05:25:37;23;36;26
2020-12-07 05:30:34;23;36;26
2020-12-07 05:35:28;23;36;26
2020-12-07 05:40:31;23;36;26
2020-12-07 05:45:39;23;36;26
2020-12-07 05:50:27;23;36;26
2020-12-07 05:55:27;23;37;26
2020-12-07 06:00:26;23;36;26
2020-12-07 06:05:31;23;36;26
2020-12-07 06:10:29;23;36;26
2020-12-07 06:15:31;23;36;26
2020-12-07 06:20:32;23;36;26
2020-12-07 06:25:35;23;36;26
2020-12-07 06:30:27;23;36;26
2020-12-07 06:35:30;23;35;26
2020-12-07 06:40:31;23;36;26
2020-12-07 06:45:30;23;36;26
2020-12-07 06:50:27;23;36;26
2020-12-07 06:55:32;23;36;26
2020-12-07 07:00:31;23;36;26
2020-12-07 07:05:35;23;36;26
2020-12-07 07:10:31;23;36;26
2020-12-07 07:15:31;23;36;26
2020-12-07 07:20:29;23;36;26
2020-12-07 07:25:32;23;36;26
2020-12-07 07:30:27;23;36;26
2020-12-07 07:35:30;23;36;26
2020-12-07 07:40:32;23;36;26
2020-12-07 07:45:27;23;36;26
2020-12-07 07:50:37;23;36;26
2020-12-07 07:55:28;23;36;26
2020-12-07 08:00:26;23;38;26
2020-12-07 08:05:29;24;37;26
2020-12-07 08:10:32;24;36;26
2020-12-07 08:15:27;24;37;26
2020-12-07 08:20:33;24;38;26
2020-12-07 08:25:29;24;37;26
2020-12-07 08:30:32;24;37;26
2020-12-07 08:35:31;24;37;26
2020-12-07 08:40:29;24;36;26
2020-12-07 08:45:28;24;34;26
2020-12-07 08:50:28;25;39;26
2020-12-07 08:55:32;24;39;27
2020-12-07 09:00:37;24;37;27
2020-12-07 09:05:30;24;37;27
2020-12-07 09:10:25;24;38;27
2020-12-07 09:15:37;24;37;27
2020-12-07 09:20:31;24;37;27
2020-12-07 09:25:34;26;38;27
2020-12-07 09:30:33;26;38;27
2020-12-07 09:35:33;26;40;27
2020-12-07 09:40:30;26;40;28
2020-12-07 09:45:44;25;40;28
2020-12-07 09:50:34;25;40;28
2020-12-07 09:55:34;25;40;28
2020-12-07 10:00:31;25;40;28
2020-12-07 10:05:32;25;40;28
2020-12-07 10:10:41;25;40;28
2020-12-07 10:15:29;25;40;28
2020-12-07 10:20:40;25;40;27
2020-12-07 10:25:30;25;39;27
2020-12-07 10:30:30;25;39;27
2020-12-07 10:35:24;25;40;28
2020-12-07 10:40:33;25;39;27
2020-12-07 10:45:30;24;39;28
2020-12-07 10:50:31;25;39;27
2020-12-07 10:55:28;24;39;27
2020-12-07 11:00:31;25;38;27
2020-12-07 11:05:30;24;38;27
2020-12-07 11:10:28;24;39;27
2020-12-07 11:15:27;24;39;27
2020-12-07 11:20:29;24;38;27
2020-12-07 11:25:33;24;38;27
2020-12-07 11:30:30;24;38;27
2020-12-07 11:35:25;24;38;27
2020-12-07 11:40:30;24;38;27
2020-12-07 11:45:33;24;38;27
2020-12-07 11:50:33;24;38;27
2020-12-07 11:55:45;24;38;27
2020-12-07 12:00:33;24;38;26
2020-12-07 12:05:44;24;37;26
2020-12-07 12:10:31;24;37;26
2020-12-07 12:15:37;24;38;26
2020-12-07 12:20:33;24;37;26
2020-12-07 12:25:27;24;37;26
2020-12-07 12:30:39;24;37;26
2020-12-07 12:35:30;24;37;26
2020-12-07 12:40:29;23;37;26
2020-12-07 12:45:29;23;37;26
2020-12-07 12:50:26;23;37;26
2020-12-07 12:55:28;23;37;26
2020-12-07 13:00:27;23;37;26
2020-12-07 13:05:28;23;36;26
2020-12-07 13:10:25;23;36;26
2020-12-07 13:15:35;23;36;26
2020-12-07 13:20:29;23;36;26
2020-12-07 13:25:29;23;36;26
2020-12-07 13:30:31;23;36;26
2020-12-07 13:35:31;23;36;26
2020-12-07 13:40:31;23;36;26
2020-12-07 13:45:28;23;36;26
2020-12-07 13:50:33;23;36;26
2020-12-07 13:55:28;23;36;26
2020-12-07 14:00:32;23;36;26
2020-12-07 14:05:27;23;36;26
2020-12-07 14:10:29;23;36;26
2020-12-07 14:15:33;23;36;26
2020-12-07 14:20:29;23;36;26
2020-12-07 14:25:29;23;37;26
2020-12-07 14:30:45;23;36;26
2020-12-07 14:35:34;23;36;26
2020-12-07 14:40:30;24;36;25
2020-12-07 14:45:31;25;40;25
2020-12-07 14:50:44;25;39;25
2020-12-07 14:55:32;26;40;25
2020-12-07 15:00:34;26;40;26
2020-12-07 15:05:33;25;37;27
2020-12-07 15:10:29;24;36;27
2020-12-07 15:15:35;23;36;27
2020-12-07 15:20:33;23;37;28
2020-12-07 15:25:27;24;37;28
2020-12-07 15:30:30;24;37;28
2020-12-07 15:35:27;24;37;28
2020-12-07 15:40:30;24;38;28
2020-12-07 15:45:28;24;38;28
2020-12-07 15:50:42;24;38;28
2020-12-07 15:55:28;24;38;28
2020-12-07 16:00:27;24;38;28
2020-12-07 16:05:28;24;38;28
2020-12-07 16:10:36;24;38;28
2020-12-07 16:15:28;24;38;28
2020-12-07 16:20:34;24;38;28
2020-12-07 16:25:26;24;38;28
2020-12-07 16:30:29;24;38;28
2020-12-07 16:35:29;25;38;28
2020-12-07 16:40:30;25;38;28
2020-12-07 16:45:34;25;38;28
2020-12-07 16:50:31;25;38;28
2020-12-07 16:55:27;25;39;28
2020-12-07 17:00:42;25;39;28
2020-12-07 17:05:30;25;39;28
2020-12-07 17:10:30;26;39;28
2020-12-07 17:15:32;26;39;28
2020-12-07 17:20:28;26;39;28
2020-12-07 17:25:33;26;39;29
2020-12-07 17:30:33;26;40;29
2020-12-07 17:35:29;26;40;29
2020-12-07 17:40:32;26;40;29
2020-12-07 17:45:35;27;40;29
2020-12-07 17:50:26;27;40;29
2020-12-07 17:55:28;26;40;29
2020-12-07 18:00:34;27;40;29
2020-12-07 18:05:30;27;40;29
2020-12-07 18:10:31;27;40;29
2020-12-07 18:15:29;27;40;29
2020-12-07 18:20:34;27;40;29
2020-12-07 18:25:33;27;41;29
2020-12-07 18:30:26;28;41;29
2020-12-07 18:35:36;28;41;29
2020-12-07 18:40:41;28;41;30
2020-12-07 18:45:30;28;41;30
2020-12-07 18:50:34;28;41;30
2020-12-07 18:55:34;28;41;30
2020-12-07 19:00:27;28;41;30
2020-12-07 19:05:29;28;41;30
2020-12-07 19:10:36;28;42;30
2020-12-07 19:15:32;28;42;30
2020-12-07 19:20:32;29;42;30
2020-12-07 19:25:30;29;40;30
2020-12-07 19:30:30;29;41;30
2020-12-07 19:35:30;30;40;30
2020-12-07 19:40:31;29;42;31
2020-12-07 19:45:31;29;42;31
2020-12-07 19:50:40;29;44;31
2020-12-07 19:55:34;30;45;30
2020-12-07 20:00:32;31;45;30
2020-12-07 20:05:31;31;45;30
2020-12-07 20:10:29;32;45;30
2020-12-07 20:15:32;31;45;30
2020-12-07 20:20:28;31;45;30
2020-12-07 20:25:30;31;45;30
2020-12-07 20:30:35;31;45;30
2020-12-07 20:35:29;31;45;30
2020-12-07 20:40:27;32;45;30
2020-12-07 20:45:25;32;45;30
2020-12-07 20:50:27;31;45;30
2020-12-07 20:55:30;32;45;31
2020-12-07 21:00:25;31;45;30
2020-12-07 21:05:32;31;45;30
2020-12-07 21:10:27;31;45;31
2020-12-07 21:15:27;32;46;31
2020-12-07 21:20:30;32;46;31
2020-12-07 21:25:26;32;46;31
2020-12-07 21:30:25;32;46;31
2020-12-07 21:35:28;31;46;31
2020-12-07 21:40:29;31;46;31
2020-12-07 21:45:29;32;46;31
2020-12-07 21:50:33;32;46;31
2020-12-07 21:55:34;32;46;31
2020-12-07 22:00:31;32;46;31
2020-12-07 22:05:32;31;46;31
2020-12-07 22:10:30;32;46;32
2020-12-07 22:15:31;32;46;32
2020-12-07 22:20:34;32;46;31
2020-12-07 22:25:33;32;46;31
2020-12-07 22:30:29;32;46;31
2020-12-07 22:35:30;32;46;32
2020-12-07 22:40:27;32;46;32
2020-12-07 22:45:29;32;46;32
2020-12-07 22:50:28;32;46;32
2020-12-07 22:55:30;31;46;32
2020-12-07 23:00:33;31;46;32
2020-12-07 23:05:31;31;46;32
2020-12-07 23:10:28;31;46;32
2020-12-07 23:15:25;31;46;32
2020-12-07 23:20:27;31;46;32
2020-12-07 23:25:28;31;46;32
2020-12-07 23:30:28;31;46;32
2020-12-07 23:35:24;31;45;32
2020-12-07 23:40:35;31;45;32
2020-12-07 23:45:28;30;45;32
2020-12-07 23:50:33;30;45;32
2020-12-07 23:55:26;30;45;32
2020-12-08 00:00:36;30;45;32
2020-12-08 00:05:28;30;45;32
2020-12-08 00:10:30;30;45;32
2020-12-08 00:15:33;30;45;32
2020-12-08 00:20:31;30;45;32
2020-12-08 00:25:27;30;45;32
2020-12-08 00:30:30;30;45;32
2020-12-08 00:35:28;30;45;32
2020-12-08 00:40:27;30;46;32
2020-12-08 00:45:28;30;45;32
2020-12-08 00:50:28;30;45;32
2020-12-08 00:55:27;30;45;32
2020-12-08 01:00:35;30;45;32
2020-12-08 01:05:32;30;45;32
2020-12-08 01:10:30;30;46;32
2020-12-08 01:15:28;30;46;32
2020-12-08 01:20:33;31;46;32
2020-12-08 01:25:27;31;46;32
2020-12-08 01:30:27;31;46;32
2020-12-08 01:35:26;31;46;32
2020-12-08 01:40:31;31;46;32
2020-12-08 01:45:34;31;46;32
2020-12-08 01:50:33;31;46;32
2020-12-08 01:55:25;31;46;32
2020-12-08 02:00:29;31;46;32
2020-12-08 02:05:36;30;46;32
2020-12-08 02:10:33;30;46;32
2020-12-08 02:15:29;30;46;32
2020-12-08 02:20:28;30;46;32
2020-12-08 02:25:25;30;46;32
2020-12-08 02:30:33;30;46;32
2020-12-08 02:35:25;30;45;32
2020-12-08 02:40:28;30;45;32
2020-12-08 02:45:27;30;45;32
2020-12-08 02:50:39;30;45;32
2020-12-08 02:55:29;31;45;32
2020-12-08 03:00:25;31;46;32
2020-12-08 03:05:32;31;46;32
2020-12-08 03:10:30;31;46;32
2020-12-08 03:15:31;31;46;32
2020-12-08 03:20:33;31;46;32
2020-12-08 03:25:28;31;46;32
2020-12-08 03:30:29;31;46;32
2020-12-08 03:35:33;31;46;32
2020-12-08 03:40:28;31;45;32
2020-12-08 03:45:29;31;45;32
2020-12-08 03:50:33;31;45;32
2020-12-08 03:55:27;31;46;32
2020-12-08 04:00:33;31;46;32
2020-12-08 04:05:33;31;46;32
2020-12-08 04:10:29;31;46;32
2020-12-08 04:15:28;31;45;32
2020-12-08 04:20:30;31;45;32
2020-12-08 04:25:30;31;46;32
2020-12-08 04:30:28;31;46;32
2020-12-08 04:35:32;31;46;32
2020-12-08 04:40:29;31;45;32
2020-12-08 04:45:28;31;46;32
2020-12-08 04:50:27;31;46;32
2020-12-08 04:55:29;31;46;32
2020-12-08 05:00:27;31;46;32
2020-12-08 05:05:29;31;46;32
2020-12-08 05:10:30;31;45;32
2020-12-08 05:15:26;31;45;32
2020-12-08 05:20:30;31;46;32
2020-12-08 05:25:32;31;46;32
2020-12-08 05:30:27;31;45;32
2020-12-08 05:35:33;31;46;32
2020-12-08 05:40:26;31;45;32
2020-12-08 05:45:32;31;46;32
2020-12-08 05:50:32;31;46;33
2020-12-08 05:55:30;31;46;32
2020-12-08 06:00:30;31;46;32
2020-12-08 06:05:31;32;46;32
2020-12-08 06:10:33;32;46;32
2020-12-08 06:15:37;32;46;33
2020-12-08 06:20:34;32;46;33
2020-12-08 06:25:32;31;46;33
2020-12-08 06:30:35;32;46;33
2020-12-08 06:35:30;32;46;33
2020-12-08 06:40:31;32;46;33
2020-12-08 06:45:38;31;46;33
2020-12-08 06:50:29;31;46;33
2020-12-08 06:55:32;32;46;33
2020-12-08 07:00:35;32;46;33
2020-12-08 07:05:33;32;46;33
2020-12-08 07:10:33;32;46;33
2020-12-08 07:15:33;32;46;33
2020-12-08 07:20:30;32;46;33
2020-12-08 07:25:31;32;45;33
2020-12-08 07:30:32;32;46;33
2020-12-08 07:35:30;32;46;33
2020-12-08 07:40:30;32;46;33
2020-12-08 07:45:36;32;46;33
2020-12-08 07:50:27;32;46;33
2020-12-08 07:55:31;32;46;33
2020-12-08 08:00:32;32;49;33
2020-12-08 08:05:37;40;49;34
2020-12-08 08:10:31;41;78;37
2020-12-08 08:15:48;47;64;41
2020-12-08 08:20:34;43;64;41
2020-12-08 08:25:33;43;57;39
2020-12-08 08:30:35;41;55;38
2020-12-08 08:35:36;39;55;37
2020-12-08 08:40:29;38;54;37
2020-12-08 08:45:33;38;52;36
2020-12-08 08:50:33;37;51;36
2020-12-08 08:55:33;36;51;35
2020-12-08 09:00:30;37;50;35
2020-12-08 09:05:28;37;51;36
2020-12-08 09:10:33;37;51;36
2020-12-08 09:15:36;38;51;37
2020-12-08 09:20:28;37;51;37
2020-12-08 09:25:30;37;52;37
2020-12-08 09:30:28;38;52;37
2020-12-08 09:35:31;38;52;37
2020-12-08 09:40:28;37;52;37
2020-12-08 09:45:28;37;52;37
2020-12-08 09:50:29;37;52;37
2020-12-08 09:55:30;37;52;37
2020-12-08 10:00:32;37;52;37
2020-12-08 10:05:39;37;52;37
2020-12-08 10:10:30;37;52;37
2020-12-08 10:15:30;36;52;37
2020-12-08 10:20:30;36;52;37
2020-12-08 10:25:32;36;51;37
2020-12-08 10:30:32;36;51;37
2020-12-08 10:35:30;36;51;37
2020-12-08 10:40:30;36;51;37
2020-12-08 10:45:41;36;51;37
2020-12-08 10:50:30;36;51;37
2020-12-08 10:55:31;36;51;37
2020-12-08 11:00:29;36;51;37
2020-12-08 11:05:32;36;51;37
2020-12-08 11:10:27;36;51;37
2020-12-08 11:15:28;36;51;37
2020-12-08 11:20:30;36;50;37
2020-12-08 11:25:30;36;50;37
2020-12-08 11:30:35;36;50;37
2020-12-08 11:35:36;36;50;37
2020-12-08 11:40:32;36;50;37
2020-12-08 11:45:28;36;50;37
2020-12-08 11:50:30;36;50;37
2020-12-08 11:55:32;36;50;37
2020-12-08 12:00:30;36;50;37
2020-12-08 12:05:29;36;50;37
2020-12-08 12:10:29;35;50;37
2020-12-08 12:15:31;35;49;37
2020-12-08 12:20:31;35;50;36
2020-12-08 12:25:30;35;49;37
2020-12-08 12:30:32;35;49;37
2020-12-08 12:35:36;36;49;37
2020-12-08 12:40:36;35;49;36
2020-12-08 12:45:32;35;49;37
2020-12-08 12:50:34;35;49;37
2020-12-08 12:55:28;35;49;36
2020-12-08 13:00:38;35;49;37
2020-12-08 13:05:33;35;49;36
2020-12-08 13:10:33;35;49;37
2020-12-08 13:15:27;35;49;36
2020-12-08 13:20:31;35;49;37
2020-12-08 13:25:34;35;49;37
2020-12-08 13:30:32;35;49;37
2020-12-08 13:35:31;35;49;37
2020-12-08 13:40:28;35;49;37
2020-12-08 13:45:28;35;48;37
2020-12-08 13:50:37;35;48;37
2020-12-08 13:55:32;35;48;37
2020-12-08 14:00:28;35;49;37
2020-12-08 14:05:25;35;48;37
2020-12-08 14:10:32;34;48;36
2020-12-08 14:15:29;34;48;36
2020-12-08 14:20:31;35;48;37
2020-12-08 14:25:29;35;48;37
2020-12-08 14:30:29;35;48;37
2020-12-08 14:35:30;35;48;37
2020-12-08 14:40:41;35;48;36
2020-12-08 14:45:26;35;48;36
2020-12-08 14:50:28;34;49;36
2020-12-08 14:55:32;34;48;36
2020-12-08 15:00:30;34;48;37
2020-12-08 15:05:28;34;48;36
2020-12-08 15:10:34;34;48;36
2020-12-08 15:15:30;34;48;36
2020-12-08 15:20:31;34;48;36
2020-12-08 15:25:29;34;48;36
2020-12-08 15:30:29;34;48;36
2020-12-08 15:35:30;34;48;36
2020-12-08 15:40:35;35;48;36
2020-12-08 15:45:28;35;48;36
2020-12-08 15:50:29;34;48;36
2020-12-08 15:55:38;34;48;36
2020-12-08 16:00:29;34;47;36
2020-12-08 16:05:35;34;48;36
2020-12-08 16:10:28;34;47;36
2020-12-08 16:15:28;34;47;36
2020-12-08 16:20:26;34;48;36
2020-12-08 16:25:29;34;47;36
2020-12-08 16:30:28;34;47;36
2020-12-08 16:35:27;34;47;36
2020-12-08 16:40:29;34;47;36
2020-12-08 16:45:30;34;47;36
