2020-12-07 00:00:32;39.6;32.2;38.4
2020-12-07 00:05:32;39.8;32.2;38.3
2020-12-07 00:10:25;39.7;32.0;38.4
2020-12-07 00:15:27;39.9;31.8;38.4
2020-12-07 00:20:33;40.1;32.2;38.5
2020-12-07 00:25:31;40.0;32.1;38.4
2020-12-07 00:30:28;40.2;32.1;38.5
2020-12-07 00:35:31;40.1;32.0;38.5
2020-12-07 00:40:31;39.9;31.9;38.5
2020-12-07 00:45:36;39.9;31.7;38.5
2020-12-07 00:50:29;40.0;32.1;38.5
2020-12-07 00:55:37;39.8;32.0;38.5
2020-12-07 01:00:25;39.8;32.0;38.5
2020-12-07 01:05:30;39.9;32.2;38.5
2020-12-07 01:10:28;40.0;32.0;38.4
2020-12-07 01:15:30;39.9;31.9;38.4
2020-12-07 01:20:26;40.0;31.8;38.4
2020-12-07 01:25:35;40.1;32.0;38.4
2020-12-07 01:30:31;40.1;32.1;38.5
2020-12-07 01:35:31;39.8;32.0;38.5
2020-12-07 01:40:36;39.8;31.7;38.5
2020-12-07 01:45:28;40.0;31.8;38.4
2020-12-07 01:50:30;39.9;32.0;38.4
2020-12-07 01:55:29;39.8;31.6;38.4
2020-12-07 02:00:28;39.8;31.9;38.4
2020-12-07 02:05:32;39.8;31.5;38.4
2020-12-07 02:10:28;40.0;31.8;38.4
2020-12-07 02:15:36;40.1;31.7;38.3
2020-12-07 02:20:30;40.1;31.4;38.2
2020-12-07 02:25:29;40.1;31.4;38.1
2020-12-07 02:30:42;40.0;31.4;38.1
2020-12-07 02:35:29;40.0;31.6;38.1
2020-12-07 02:40:27;39.8;31.6;38.1
2020-12-07 02:45:29;39.8;31.4;38.1
2020-12-07 02:50:30;39.8;31.2;38.1
2020-12-07 02:55:32;39.5;31.2;38.1
2020-12-07 03:00:32;39.4;31.2;38.0
2020-12-07 03:05:30;39.4;31.2;37.9
2020-12-07 03:10:28;39.3;31.4;38.0
2020-12-07 03:15:28;39.7;31.5;37.9
2020-12-07 03:20:27;39.7;31.4;37.9
2020-12-07 03:25:30;39.7;31.4;38.0
2020-12-07 03:30:30;39.8;31.4;38.0
2020-12-07 03:35:26;39.8;31.3;38.0
2020-12-07 03:40:35;40.0;31.4;38.0
2020-12-07 03:45:33;40.1;31.6;38.1
2020-12-07 03:50:32;39.8;31.5;38.1
2020-12-07 03:55:33;39.8;31.5;38.1
2020-12-07 04:00:30;39.6;31.5;38.1
2020-12-07 04:05:29;39.8;31.5;38.1
2020-12-07 04:10:27;39.7;31.6;38.0
2020-12-07 04:15:33;40.0;31.6;38.0
2020-12-07 04:20:30;40.1;31.6;38.1
2020-12-07 04:25:27;40.2;31.8;38.1
2020-12-07 04:30:27;40.2;32.0;38.1
2020-12-07 04:35:32;40.3;32.0;38.1
2020-12-07 04:40:26;40.3;32.0;38.2
2020-12-07 04:45:27;40.2;31.9;38.2
2020-12-07 04:50:31;39.9;31.9;38.3
2020-12-07 04:55:30;39.9;31.6;38.2
2020-12-07 05:00:26;39.7;31.6;38.2
2020-12-07 05:05:31;39.9;31.6;38.2
2020-12-07 05:10:31;40.0;31.6;38.2
2020-12-07 05:15:31;40.0;31.4;38.3
2020-12-07 05:20:38;39.9;31.4;38.3
2020-12-07 05:25:37;39.8;31.7;38.3
2020-12-07 05:30:34;39.8;31.5;38.2
2020-12-07 05:35:28;39.8;31.7;38.2
2020-12-07 05:40:31;39.8;31.7;38.3
2020-12-07 05:45:39;39.8;31.5;38.3
2020-12-07 05:50:27;39.7;31.4;38.3
2020-12-07 05:55:27;39.8;31.6;38.4
2020-12-07 06:00:26;39.8;31.5;38.3
2020-12-07 06:05:31;39.6;31.6;38.3
2020-12-07 06:10:29;39.6;31.5;38.3
2020-12-07 06:15:31;39.5;31.8;38.2
2020-12-07 06:20:32;39.8;31.6;38.2
2020-12-07 06:25:35;39.8;31.8;38.2
2020-12-07 06:30:27;39.9;31.8;38.2
2020-12-07 06:35:30;40.0;31.8;38.2
2020-12-07 06:40:31;40.0;31.9;38.3
2020-12-07 06:45:30;40.0;31.9;38.2
2020-12-07 06:50:27;39.9;31.6;38.2
2020-12-07 06:55:32;39.8;31.5;38.1
2020-12-07 07:00:31;39.8;31.5;38.1
2020-12-07 07:05:35;39.8;31.4;38.2
2020-12-07 07:10:31;39.8;31.3;38.1
2020-12-07 07:15:31;39.2;31.4;38.1
2020-12-07 07:20:29;39.2;31.0;38.1
2020-12-07 07:25:32;39.5;31.0;38.1
2020-12-07 07:30:27;39.5;31.1;38.1
2020-12-07 07:35:30;39.6;31.3;38.1
2020-12-07 07:40:32;39.8;31.3;38.2
2020-12-07 07:45:27;39.8;31.3;38.2
2020-12-07 07:50:37;39.6;31.3;38.2
2020-12-07 07:55:28;39.3;31.3;38.2
2020-12-07 08:00:26;39.4;31.2;38.2
2020-12-07 08:05:29;38.9;31.2;38.0
2020-12-07 08:10:32;38.9;31.3;37.9
2020-12-07 08:15:27;38.8;31.2;37.9
2020-12-07 08:20:33;38.8;31.3;37.8
2020-12-07 08:25:29;39.1;31.3;37.8
2020-12-07 08:30:32;39.7;31.6;37.9
2020-12-07 08:35:31;39.8;31.6;38.0
2020-12-07 08:40:29;39.8;33.7;38.0
2020-12-07 08:45:28;39.4;32.8;38.1
2020-12-07 08:50:28;38.6;32.4;38.3
2020-12-07 08:55:32;39.6;32.3;38.0
2020-12-07 09:00:37;39.6;32.3;37.9
2020-12-07 09:05:30;39.7;32.3;37.9
2020-12-07 09:10:25;39.8;32.3;37.9
2020-12-07 09:15:37;39.5;32.5;37.9
2020-12-07 09:20:31;39.5;32.2;37.8
2020-12-07 09:25:34;39.6;32.1;37.9
2020-12-07 09:30:33;39.7;32.3;37.9
2020-12-07 09:35:33;39.9;32.2;37.9
2020-12-07 09:40:30;39.9;32.3;38.1
2020-12-07 09:45:44;40.6;32.2;38.1
2020-12-07 09:50:34;40.4;32.2;38.2
2020-12-07 09:55:34;40.3;32.1;38.2
2020-12-07 10:00:31;40.2;32.2;38.2
2020-12-07 10:05:32;40.0;32.2;38.2
2020-12-07 10:10:41;40.0;32.3;38.2
2020-12-07 10:15:29;39.9;32.3;38.1
2020-12-07 10:20:40;39.8;32.2;38.1
2020-12-07 10:25:30;40.0;32.1;38.1
2020-12-07 10:30:30;40.0;32.2;38.1
2020-12-07 10:35:24;40.0;32.3;38.1
2020-12-07 10:40:33;40.3;32.3;38.1
2020-12-07 10:45:30;40.2;32.1;38.1
2020-12-07 10:50:31;40.2;32.1;38.2
2020-12-07 10:55:28;39.9;32.0;38.2
2020-12-07 11:00:31;40.0;32.1;38.2
2020-12-07 11:05:30;39.8;32.0;38.1
2020-12-07 11:10:28;39.8;32.0;38.1
2020-12-07 11:15:27;39.9;32.0;38.2
2020-12-07 11:20:29;39.9;32.0;38.2
2020-12-07 11:25:33;40.0;32.1;38.2
2020-12-07 11:30:30;39.9;32.1;38.2
2020-12-07 11:35:25;39.9;32.1;38.2
2020-12-07 11:40:30;39.8;32.1;38.1
2020-12-07 11:45:33;39.8;32.1;38.1
2020-12-07 11:50:33;39.8;32.1;38.1
2020-12-07 11:55:45;39.8;32.0;38.1
2020-12-07 12:00:33;39.8;31.9;38.1
2020-12-07 12:05:44;39.7;31.9;38.1
2020-12-07 12:10:31;39.7;31.9;38.1
2020-12-07 12:15:37;39.6;32.0;38.1
2020-12-07 12:20:33;39.6;31.7;38.1
2020-12-07 12:25:27;39.6;32.0;38.1
2020-12-07 12:30:39;39.7;32.0;38.1
2020-12-07 12:35:30;39.7;32.1;38.1
2020-12-07 12:40:29;40.0;32.1;38.2
2020-12-07 12:45:29;40.0;32.0;38.2
2020-12-07 12:50:26;40.0;32.0;38.2
2020-12-07 12:55:28;40.0;32.2;38.2
2020-12-07 13:00:27;39.9;32.1;38.2
2020-12-07 13:05:28;39.7;32.1;38.2
2020-12-07 13:10:25;39.6;32.0;38.2
2020-12-07 13:15:35;39.4;31.9;38.1
2020-12-07 13:20:29;39.4;31.6;38.1
2020-12-07 13:25:29;39.3;31.6;38.1
2020-12-07 13:30:31;39.5;31.8;38.1
2020-12-07 13:35:31;39.5;31.7;38.1
2020-12-07 13:40:31;39.5;31.8;38.1
2020-12-07 13:45:28;39.6;31.8;38.1
2020-12-07 13:50:33;39.6;32.0;38.2
2020-12-07 13:55:28;40.0;32.0;38.2
2020-12-07 14:00:32;39.9;32.1;38.3
2020-12-07 14:05:27;39.9;32.1;38.3
2020-12-07 14:10:29;39.7;31.9;38.3
2020-12-07 14:15:33;39.6;31.9;38.3
2020-12-07 14:20:29;39.6;31.8;38.3
2020-12-07 14:25:29;39.6;31.6;38.3
2020-12-07 14:30:45;39.0;31.3;38.1
2020-12-07 14:35:34;38.1;31.4;38.1
2020-12-07 14:40:30;36.8;31.6;37.9
2020-12-07 14:45:31;36.7;29.1;37.8
2020-12-07 14:50:44;36.2;28.9;37.3
2020-12-07 14:55:32;35.4;28.3;37.3
2020-12-07 15:00:34;35.3;28.3;37.0
2020-12-07 15:05:33;36.3;32.8;36.9
2020-12-07 15:10:29;39.0;33.9;36.9
2020-12-07 15:15:35;39.3;33.8;36.9
2020-12-07 15:20:33;39.4;32.9;36.9
2020-12-07 15:25:27;39.1;32.9;36.9
2020-12-07 15:30:30;39.1;33.0;36.9
2020-12-07 15:35:27;39.0;33.0;36.9
2020-12-07 15:40:30;38.6;32.9;36.8
2020-12-07 15:45:28;38.3;32.8;36.8
2020-12-07 15:50:42;38.2;32.6;36.7
2020-12-07 15:55:28;38.2;32.6;36.7
2020-12-07 16:00:27;38.0;32.4;36.6
2020-12-07 16:05:28;38.0;32.2;36.6
2020-12-07 16:10:36;37.9;32.0;36.4
2020-12-07 16:15:28;37.7;32.1;36.4
2020-12-07 16:20:34;37.7;32.4;36.3
2020-12-07 16:25:26;37.7;32.3;36.3
2020-12-07 16:30:29;37.5;32.1;36.2
2020-12-07 16:35:29;37.3;32.0;36.2
2020-12-07 16:40:30;37.3;31.8;36.1
2020-12-07 16:45:34;37.1;31.8;36.0
2020-12-07 16:50:31;36.9;31.7;35.9
2020-12-07 16:55:27;36.8;31.8;35.9
2020-12-07 17:00:42;36.7;31.6;35.7
2020-12-07 17:05:30;36.5;31.5;35.7
2020-12-07 17:10:30;36.3;31.4;35.7
2020-12-07 17:15:32;36.2;31.4;35.4
2020-12-07 17:20:28;36.1;31.3;35.4
2020-12-07 17:25:33;35.4;31.2;35.3
2020-12-07 17:30:33;35.4;31.0;35.2
2020-12-07 17:35:29;35.4;31.0;35.0
2020-12-07 17:40:32;35.2;30.8;34.9
2020-12-07 17:45:35;35.0;30.8;34.8
2020-12-07 17:50:26;35.0;30.7;34.8
2020-12-07 17:55:28;35.0;30.5;34.7
2020-12-07 18:00:34;34.9;30.5;34.5
2020-12-07 18:05:30;34.9;30.5;34.5
2020-12-07 18:10:31;34.8;30.3;34.4
2020-12-07 18:15:29;34.6;30.2;34.4
2020-12-07 18:20:34;34.5;30.2;34.2
2020-12-07 18:25:33;34.2;29.8;34.2
2020-12-07 18:30:26;33.7;29.8;34.1
2020-12-07 18:35:36;33.4;29.7;33.8
2020-12-07 18:40:41;33.6;30.0;33.8
2020-12-07 18:45:30;33.6;29.9;33.7
2020-12-07 18:50:34;33.7;29.7;33.6
2020-12-07 18:55:34;33.7;29.7;33.4
2020-12-07 19:00:27;33.6;29.7;33.4
2020-12-07 19:05:29;33.7;29.7;33.4
2020-12-07 19:10:36;33.6;29.6;33.3
2020-12-07 19:15:32;33.6;29.6;33.2
2020-12-07 19:20:32;33.3;29.6;33.1
2020-12-07 19:25:30;33.2;31.0;33.1
2020-12-07 19:30:30;33.1;30.7;33.1
2020-12-07 19:35:30;33.0;30.6;33.1
2020-12-07 19:40:31;33.2;30.3;33.1
2020-12-07 19:45:31;33.1;30.0;33.0
2020-12-07 19:50:40;33.1;27.8;33.0
2020-12-07 19:55:34;32.4;27.3;32.8
2020-12-07 20:00:32;31.6;27.3;32.6
2020-12-07 20:05:31;31.2;27.1;32.5
2020-12-07 20:10:29;30.9;26.8;32.5
2020-12-07 20:15:32;30.8;26.8;32.3
2020-12-07 20:20:28;30.8;26.6;32.2
2020-12-07 20:25:30;30.7;26.6;32.1
2020-12-07 20:30:35;30.6;26.5;32.0
2020-12-07 20:35:29;30.6;26.4;32.0
2020-12-07 20:40:27;30.6;26.4;31.9
2020-12-07 20:45:25;30.6;26.4;31.8
2020-12-07 20:50:27;30.6;26.3;31.8
2020-12-07 20:55:30;30.6;26.3;31.7
2020-12-07 21:00:25;30.6;26.3;31.6
2020-12-07 21:05:32;30.5;26.2;31.6
2020-12-07 21:10:27;30.5;26.3;31.5
2020-12-07 21:15:27;30.6;26.2;31.4
2020-12-07 21:20:30;30.3;26.2;31.4
2020-12-07 21:25:26;30.3;26.2;31.3
2020-12-07 21:30:25;30.3;26.1;31.3
2020-12-07 21:35:28;30.3;26.1;31.2
2020-12-07 21:40:29;30.3;26.0;31.2
2020-12-07 21:45:29;30.2;25.9;31.2
2020-12-07 21:50:33;30.2;25.9;31.1
2020-12-07 21:55:34;30.2;25.8;31.0
2020-12-07 22:00:31;30.2;25.8;31.0
2020-12-07 22:05:32;30.1;25.8;30.9
2020-12-07 22:10:30;30.1;25.8;30.9
2020-12-07 22:15:31;30.0;25.7;30.9
2020-12-07 22:20:34;30.0;25.7;30.8
2020-12-07 22:25:33;30.0;25.7;30.8
2020-12-07 22:30:29;29.9;25.6;30.7
2020-12-07 22:35:30;30.0;25.7;30.7
2020-12-07 22:40:27;29.9;25.6;30.6
2020-12-07 22:45:29;29.9;25.6;30.6
2020-12-07 22:50:28;29.9;25.6;30.6
2020-12-07 22:55:30;30.1;25.6;30.6
2020-12-07 23:00:33;30.2;25.6;30.5
2020-12-07 23:05:31;30.2;25.6;30.6
2020-12-07 23:10:28;30.3;25.6;30.5
2020-12-07 23:15:25;30.0;25.6;30.6
2020-12-07 23:20:27;30.0;25.6;30.5
2020-12-07 23:25:28;30.0;25.6;30.5
2020-12-07 23:30:28;30.1;25.6;30.4
2020-12-07 23:35:24;30.1;25.6;30.5
2020-12-07 23:40:35;30.4;26.0;30.4
2020-12-07 23:45:28;30.8;26.0;30.4
2020-12-07 23:50:33;30.7;26.1;30.4
2020-12-07 23:55:26;30.7;26.0;30.4
